[contents]
count=2
Name=,D:\Data\20160219\R-2.D
1=,PBM Apex minus start of peak
2=,INT TIC: R-2.D\data.ms
[PBM Apex minus start of peak]
Time=,Fri Feb 19 15:08:30 2016
Header=,"PK","RT","Area Pct","Library/ID","Ref","CAS","Qual"
1=,  1, 14.9120,100.0000,"Benzene, 1-iodo-4-nitro-", 97160,"000636-98-6",95
[INT TIC: R-2.D\data.ms]
Time=,Fri Feb 19 15:51:10 2016
Header=,"Peak","R.T.","First","Max","Last","PK  TY","Height","Area","Pct Max","Pct Total"
1=,  1, 14.914, 1569,1576,1588,"BB  ", 860465, 13992817,100.00,100.000
