<?xml version="1.0" encoding="utf-8"  standalone="no"?>
<!DOCTYPE svg PUBLIC "-//W3C//DTD SVG 1.1//EN"
 "http://www.w3.org/Graphics/SVG/1.1/DTD/svg11.dtd">
<svg 
 width="1200" height="900"
 viewBox="0 0 1200 900"
 xmlns="http://www.w3.org/2000/svg"
 xmlns:xlink="http://www.w3.org/1999/xlink"
>

<title>Gnuplot</title>
<desc>Produced by GNUPLOT 5.0 patchlevel 3 </desc>

<g id="gnuplot_canvas">

<rect x="0" y="0" width="1200" height="900" fill="none"/>
<defs>

	<circle id='gpDot' r='0.5' stroke-width='0.5'/>
	<path id='gpPt0' stroke-width='0.148' stroke='currentColor' d='M-1,0 h2 M0,-1 v2'/>
	<path id='gpPt1' stroke-width='0.148' stroke='currentColor' d='M-1,-1 L1,1 M1,-1 L-1,1'/>
	<path id='gpPt2' stroke-width='0.148' stroke='currentColor' d='M-1,0 L1,0 M0,-1 L0,1 M-1,-1 L1,1 M-1,1 L1,-1'/>
	<rect id='gpPt3' stroke-width='0.148' stroke='currentColor' x='-1' y='-1' width='2' height='2'/>
	<rect id='gpPt4' stroke-width='0.148' stroke='currentColor' fill='currentColor' x='-1' y='-1' width='2' height='2'/>
	<circle id='gpPt5' stroke-width='0.148' stroke='currentColor' cx='0' cy='0' r='1'/>
	<use xlink:href='#gpPt5' id='gpPt6' fill='currentColor' stroke='none'/>
	<path id='gpPt7' stroke-width='0.148' stroke='currentColor' d='M0,-1.33 L-1.33,0.67 L1.33,0.67 z'/>
	<use xlink:href='#gpPt7' id='gpPt8' fill='currentColor' stroke='none'/>
	<use xlink:href='#gpPt7' id='gpPt9' stroke='currentColor' transform='rotate(180)'/>
	<use xlink:href='#gpPt9' id='gpPt10' fill='currentColor' stroke='none'/>
	<use xlink:href='#gpPt3' id='gpPt11' stroke='currentColor' transform='rotate(45)'/>
	<use xlink:href='#gpPt11' id='gpPt12' fill='currentColor' stroke='none'/>
	<path id='gpPt13' stroke-width='0.148' stroke='currentColor' d='M0,1.330 L1.265,0.411 L0.782,-1.067 L-0.782,-1.076 L-1.265,0.411 z'/>
	<use xlink:href='#gpPt13' id='gpPt14' fill='currentColor' stroke='none'/>
	<filter id='textbox' filterUnits='objectBoundingBox' x='0' y='0' height='1' width='1'>
	  <feFlood flood-color='white' flood-opacity='1' result='bgnd'/>
	  <feComposite in='SourceGraphic' in2='bgnd' operator='atop'/>
	</filter>
	<filter id='greybox' filterUnits='objectBoundingBox' x='0' y='0' height='1' width='1'>
	  <feFlood flood-color='lightgrey' flood-opacity='1' result='grey'/>
	  <feComposite in='SourceGraphic' in2='grey' operator='atop'/>
	</filter>
</defs>
<g fill="none" color="white" stroke="black" stroke-width="1.00" stroke-linecap="butt" stroke-linejoin="miter">
</g>
<g fill="none" color="black" stroke="currentColor" stroke-width="1.00" stroke-linecap="butt" stroke-linejoin="miter">
	<path stroke='black'  d='M108.9,813.6 L122.4,813.6 M1162.1,813.6 L1148.6,813.6  '/>	<g transform="translate(96.3,820.3)" stroke="none" fill="black" font-family="Helvetica" font-size="18.00"  text-anchor="end">
		<text><tspan font-family="Helvetica" > 0</tspan></text>
	</g>
</g>
<g fill="none" color="black" stroke="currentColor" stroke-width="1.00" stroke-linecap="butt" stroke-linejoin="miter">
	<path stroke='black'  d='M108.9,682.2 L122.4,682.2 M1162.1,682.2 L1148.6,682.2  '/>	<g transform="translate(96.3,688.9)" stroke="none" fill="black" font-family="Helvetica" font-size="18.00"  text-anchor="end">
		<text><tspan font-family="Helvetica" > 20</tspan></text>
	</g>
</g>
<g fill="none" color="black" stroke="currentColor" stroke-width="1.00" stroke-linecap="butt" stroke-linejoin="miter">
	<path stroke='black'  d='M108.9,550.8 L122.4,550.8 M1162.1,550.8 L1148.6,550.8  '/>	<g transform="translate(96.3,557.5)" stroke="none" fill="black" font-family="Helvetica" font-size="18.00"  text-anchor="end">
		<text><tspan font-family="Helvetica" > 40</tspan></text>
	</g>
</g>
<g fill="none" color="black" stroke="currentColor" stroke-width="1.00" stroke-linecap="butt" stroke-linejoin="miter">
	<path stroke='black'  d='M108.9,419.4 L122.4,419.4 M1162.1,419.4 L1148.6,419.4  '/>	<g transform="translate(96.3,426.1)" stroke="none" fill="black" font-family="Helvetica" font-size="18.00"  text-anchor="end">
		<text><tspan font-family="Helvetica" > 60</tspan></text>
	</g>
</g>
<g fill="none" color="black" stroke="currentColor" stroke-width="1.00" stroke-linecap="butt" stroke-linejoin="miter">
	<path stroke='black'  d='M108.9,288.1 L122.4,288.1 M1162.1,288.1 L1148.6,288.1  '/>	<g transform="translate(96.3,294.8)" stroke="none" fill="black" font-family="Helvetica" font-size="18.00"  text-anchor="end">
		<text><tspan font-family="Helvetica" > 80</tspan></text>
	</g>
</g>
<g fill="none" color="black" stroke="currentColor" stroke-width="1.00" stroke-linecap="butt" stroke-linejoin="miter">
	<path stroke='black'  d='M108.9,156.7 L122.4,156.7 M1162.1,156.7 L1148.6,156.7  '/>	<g transform="translate(96.3,163.4)" stroke="none" fill="black" font-family="Helvetica" font-size="18.00"  text-anchor="end">
		<text><tspan font-family="Helvetica" > 100</tspan></text>
	</g>
</g>
<g fill="none" color="black" stroke="currentColor" stroke-width="1.00" stroke-linecap="butt" stroke-linejoin="miter">
	<path stroke='black'  d='M108.9,25.3 L122.4,25.3 M1162.1,25.3 L1148.6,25.3  '/>	<g transform="translate(96.3,32.0)" stroke="none" fill="black" font-family="Helvetica" font-size="18.00"  text-anchor="end">
		<text><tspan font-family="Helvetica" > 120</tspan></text>
	</g>
</g>
<g fill="none" color="black" stroke="currentColor" stroke-width="1.00" stroke-linecap="butt" stroke-linejoin="miter">
	<path stroke='black'  d='M108.9,813.6 L108.9,800.1 M108.9,25.3 L108.9,38.8  '/>	<g transform="translate(108.9,847.3)" stroke="none" fill="black" font-family="Helvetica" font-size="18.00"  text-anchor="middle">
		<text><tspan font-family="Helvetica" > 0</tspan></text>
	</g>
</g>
<g fill="none" color="black" stroke="currentColor" stroke-width="1.00" stroke-linecap="butt" stroke-linejoin="miter">
	<path stroke='black'  d='M249.3,813.6 L249.3,800.1 M249.3,25.3 L249.3,38.8  '/>	<g transform="translate(249.3,847.3)" stroke="none" fill="black" font-family="Helvetica" font-size="18.00"  text-anchor="middle">
		<text><tspan font-family="Helvetica" > 2</tspan></text>
	</g>
</g>
<g fill="none" color="black" stroke="currentColor" stroke-width="1.00" stroke-linecap="butt" stroke-linejoin="miter">
	<path stroke='black'  d='M389.8,813.6 L389.8,800.1 M389.8,25.3 L389.8,38.8  '/>	<g transform="translate(389.8,847.3)" stroke="none" fill="black" font-family="Helvetica" font-size="18.00"  text-anchor="middle">
		<text><tspan font-family="Helvetica" > 4</tspan></text>
	</g>
</g>
<g fill="none" color="black" stroke="currentColor" stroke-width="1.00" stroke-linecap="butt" stroke-linejoin="miter">
	<path stroke='black'  d='M530.2,813.6 L530.2,800.1 M530.2,25.3 L530.2,38.8  '/>	<g transform="translate(530.2,847.3)" stroke="none" fill="black" font-family="Helvetica" font-size="18.00"  text-anchor="middle">
		<text><tspan font-family="Helvetica" > 6</tspan></text>
	</g>
</g>
<g fill="none" color="black" stroke="currentColor" stroke-width="1.00" stroke-linecap="butt" stroke-linejoin="miter">
	<path stroke='black'  d='M670.6,813.6 L670.6,800.1 M670.6,25.3 L670.6,38.8  '/>	<g transform="translate(670.6,847.3)" stroke="none" fill="black" font-family="Helvetica" font-size="18.00"  text-anchor="middle">
		<text><tspan font-family="Helvetica" > 8</tspan></text>
	</g>
</g>
<g fill="none" color="black" stroke="currentColor" stroke-width="1.00" stroke-linecap="butt" stroke-linejoin="miter">
	<path stroke='black'  d='M811.0,813.6 L811.0,800.1 M811.0,25.3 L811.0,38.8  '/>	<g transform="translate(811.0,847.3)" stroke="none" fill="black" font-family="Helvetica" font-size="18.00"  text-anchor="middle">
		<text><tspan font-family="Helvetica" > 10</tspan></text>
	</g>
</g>
<g fill="none" color="black" stroke="currentColor" stroke-width="1.00" stroke-linecap="butt" stroke-linejoin="miter">
	<path stroke='black'  d='M951.5,813.6 L951.5,800.1 M951.5,25.3 L951.5,38.8  '/>	<g transform="translate(951.5,847.3)" stroke="none" fill="black" font-family="Helvetica" font-size="18.00"  text-anchor="middle">
		<text><tspan font-family="Helvetica" > 12</tspan></text>
	</g>
</g>
<g fill="none" color="black" stroke="currentColor" stroke-width="1.00" stroke-linecap="butt" stroke-linejoin="miter">
	<path stroke='black'  d='M1091.9,813.6 L1091.9,800.1 M1091.9,25.3 L1091.9,38.8  '/>	<g transform="translate(1091.9,847.3)" stroke="none" fill="black" font-family="Helvetica" font-size="18.00"  text-anchor="middle">
		<text><tspan font-family="Helvetica" > 14</tspan></text>
	</g>
</g>
<g fill="none" color="black" stroke="currentColor" stroke-width="1.00" stroke-linecap="butt" stroke-linejoin="miter">
</g>
<g fill="none" color="black" stroke="currentColor" stroke-width="1.00" stroke-linecap="butt" stroke-linejoin="miter">
	<path stroke='black'  d='M108.9,25.3 L108.9,813.6 L1162.1,813.6 L1162.1,25.3 L108.9,25.3 Z  '/></g>
<g fill="none" color="black" stroke="currentColor" stroke-width="1.00" stroke-linecap="butt" stroke-linejoin="miter">
	<g transform="translate(26.5,419.5) rotate(270)" stroke="none" fill="black" font-family="Helvetica-Bold" font-size="18.00"  text-anchor="middle">
		<text><tspan font-family="Helvetica-Bold" >Heat flow, mW/g</tspan></text>
	</g>
</g>
<g fill="none" color="black" stroke="currentColor" stroke-width="1.00" stroke-linecap="butt" stroke-linejoin="miter">
	<g transform="translate(635.5,887.8)" stroke="none" fill="black" font-family="Helvetica-Bold" font-size="18.00"  text-anchor="middle">
		<text><tspan font-family="Helvetica-Bold" >Time, h</tspan></text>
	</g>
</g>
<g fill="none" color="black" stroke="currentColor" stroke-width="1.00" stroke-linecap="butt" stroke-linejoin="miter">
</g>
<g fill="none" color="black" stroke="currentColor" stroke-width="0.20" stroke-linecap="butt" stroke-linejoin="miter">
</g>
<g fill="none" color="black" stroke="currentColor" stroke-width="0.20" stroke-linecap="butt" stroke-linejoin="miter">
	<path stroke='black'  d='M1035.2,65.8 L1035.2,38.8 L1149.5,38.8 L1149.5,65.8 L1035.2,65.8 Z  '/></g>
	<g id="gnuplot_plot_1" ><title> p</title>
<g fill="none" color="white" stroke="black" stroke-width="2.00" stroke-linecap="butt" stroke-linejoin="miter">
</g>
<g fill="none" color="black" stroke="currentColor" stroke-width="2.00" stroke-linecap="butt" stroke-linejoin="miter">
	<g transform="translate(1060.4,59.0)" stroke="none" fill="black" font-family="Helvetica" font-size="18.00"  text-anchor="end">
		<text><tspan font-family="Helvetica" > p</tspan></text>
	</g>
</g>
<g fill="none" color="black" stroke="currentColor" stroke-width="2.00" stroke-linecap="butt" stroke-linejoin="miter">
	<path stroke='rgb(  0, 255,   0)'  d='M1073.0,52.3 L1136.9,52.3 M156.7,810.5 L156.9,810.4 L157.1,810.4 L157.3,810.3 L157.5,810.2 L157.6,810.1
		L157.8,810.0 L158.0,809.9 L158.2,809.8 L158.4,809.8 L158.6,809.7 L158.7,809.6 L158.9,809.5 L159.1,809.4
		L159.3,809.3 L159.5,809.2 L159.6,809.1 L159.8,809.1 L160.0,809.0 L160.2,808.9 L160.4,808.8 L160.6,808.7
		L160.7,808.6 L160.9,808.5 L161.1,808.4 L161.3,808.4 L161.5,808.3 L161.7,808.2 L161.8,808.1 L162.0,808.0
		L162.2,807.9 L162.4,807.8 L162.6,807.7 L162.7,807.6 L162.9,807.5 L163.1,807.5 L163.3,807.4 L163.5,807.3
		L163.7,807.2 L163.8,807.1 L164.0,807.0 L164.2,806.9 L164.4,806.8 L164.6,806.7 L164.8,806.6 L164.9,806.5
		L165.1,806.5 L165.3,806.4 L165.5,806.3 L165.7,806.2 L165.9,806.1 L166.0,806.0 L166.2,805.9 L166.4,805.8
		L166.6,805.7 L166.8,805.6 L166.9,805.5 L167.1,805.4 L167.3,805.3 L167.5,805.2 L167.7,805.1 L167.9,805.0
		L168.0,804.9 L168.2,804.9 L168.4,804.8 L168.6,804.7 L168.8,804.6 L169.0,804.5 L169.1,804.4 L169.3,804.3
		L169.5,804.2 L169.7,804.1 L169.9,804.0 L170.0,803.9 L170.2,803.8 L170.4,803.7 L170.6,803.6 L170.8,803.5
		L171.0,803.4 L171.1,803.3 L171.3,803.2 L171.5,803.1 L171.7,803.0 L171.9,802.9 L172.1,802.8 L172.2,802.7
		L172.4,802.6 L172.6,802.4 L172.8,802.3 L173.0,802.2 L173.1,802.1 L173.3,802.0 L173.5,801.9 L173.7,801.8
		L173.9,801.7 L174.1,801.6 L174.2,801.5 L174.4,801.4 L174.6,801.3 L174.8,801.2 L175.0,801.1 L175.2,801.0
		L175.3,800.9 L175.5,800.7 L175.7,800.6 L175.9,800.5 L176.1,800.4 L176.2,800.3 L176.4,800.2 L176.6,800.1
		L176.8,800.0 L177.0,799.9 L177.2,799.8 L177.3,799.7 L177.5,799.6 L177.7,799.5 L177.9,799.4 L178.1,799.3
		L178.3,799.2 L178.4,799.0 L178.6,798.9 L178.8,798.8 L179.0,798.6 L179.2,798.5 L179.3,798.4 L179.5,798.3
		L179.7,798.1 L179.9,798.0 L180.1,797.9 L180.3,797.8 L180.4,797.6 L180.6,797.5 L180.8,797.4 L181.0,797.3
		L181.2,797.1 L181.4,797.0 L181.5,796.9 L181.7,796.8 L181.9,796.6 L182.1,796.5 L182.3,796.4 L182.4,796.3
		L182.6,796.1 L182.8,796.0 L183.0,795.9 L183.2,795.8 L183.4,795.6 L183.5,795.5 L183.7,795.4 L183.9,795.2
		L184.1,795.1 L184.3,795.0 L184.5,794.8 L184.6,794.7 L184.8,794.6 L185.0,794.5 L185.2,794.4 L185.4,794.2
		L185.5,794.1 L185.7,793.9 L185.9,793.8 L186.1,793.7 L186.3,793.5 L186.5,793.4 L186.6,793.2 L186.8,793.1
		L187.0,792.9 L187.2,792.8 L187.4,792.6 L187.6,792.5 L187.7,792.4 L187.9,792.2 L188.1,792.1 L188.3,791.9
		L188.5,791.8 L188.6,791.6 L188.8,791.5 L189.0,791.3 L189.2,791.2 L189.4,791.0 L189.6,790.9 L189.7,790.7
		L189.9,790.6 L190.1,790.4 L190.3,790.3 L190.5,790.1 L190.7,790.0 L190.8,789.8 L191.0,789.7 L191.2,789.5
		L191.4,789.4 L191.6,789.2 L191.7,789.0 L191.9,788.9 L192.1,788.7 L192.3,788.6 L192.5,788.4 L192.7,788.2
		L192.8,788.1 L193.0,787.9 L193.2,787.8 L193.4,787.6 L193.6,787.4 L193.8,787.3 L193.9,787.1 L194.1,786.9
		L194.3,786.8 L194.5,786.6 L194.7,786.4 L194.9,786.3 L195.0,786.1 L195.2,785.9 L195.4,785.7 L195.6,785.6
		L195.8,785.4 L195.9,785.2 L196.1,785.0 L196.3,784.9 L196.5,784.7 L196.7,784.5 L196.9,784.3 L197.0,784.2
		L197.2,784.0 L197.4,783.8 L197.6,783.6 L197.8,783.4 L198.0,783.3 L198.1,783.1 L198.3,782.9 L198.5,782.7
		L198.7,782.5 L198.9,782.3 L199.0,782.1 L199.2,782.0 L199.4,781.8 L199.6,781.6 L199.8,781.4 L200.0,781.2
		L200.1,781.0 L200.3,780.8 L200.5,780.6 L200.7,780.4 L200.9,780.2 L201.1,780.0 L201.2,779.8 L201.4,779.6
		L201.6,779.4 L201.8,779.3 L202.0,779.1 L202.1,778.8 L202.3,778.6 L202.5,778.4 L202.7,778.2 L202.9,778.0
		L203.1,777.8 L203.2,777.6 L203.4,777.4 L203.6,777.2 L203.8,777.0 L204.0,776.8 L204.2,776.6 L204.3,776.4
		L204.5,776.2 L204.7,775.9 L204.9,775.7 L205.1,775.5 L205.2,775.3 L205.4,775.1 L205.6,774.9 L205.8,774.6
		L206.0,774.4 L206.2,774.2 L206.3,774.0 L206.5,773.8 L206.7,773.5 L206.9,773.3 L207.1,773.1 L207.3,772.9
		L207.4,772.6 L207.6,772.4 L207.8,772.2 L208.0,771.9 L208.2,771.7 L208.3,771.5 L208.5,771.3 L208.7,771.0
		L208.9,770.8 L209.1,770.5 L209.3,770.3 L209.4,770.1 L209.6,769.8 L209.8,769.6 L210.0,769.3 L210.2,769.1
		L210.4,768.9 L210.5,768.6 L210.7,768.4 L210.9,768.1 L211.1,767.9 L211.3,767.6 L211.4,767.4 L211.6,767.1
		L211.8,766.9 L212.0,766.6 L212.2,766.4 L212.4,766.1 L212.5,765.9 L212.7,765.6 L212.9,765.4 L213.1,765.1
		L213.3,764.9 L213.5,764.6 L213.6,764.3 L213.8,764.1 L214.0,763.8 L214.2,763.5 L214.4,763.3 L214.5,763.0
		L214.7,762.7 L214.9,762.5 L215.1,762.2 L215.3,761.9 L215.5,761.7 L215.6,761.4 L215.8,761.1 L216.0,760.8
		L216.2,760.6 L216.4,760.3 L216.6,760.0 L216.7,759.7 L216.9,759.4 L217.1,759.2 L217.3,758.9 L217.5,758.6
		L217.6,758.3 L217.8,758.0 L218.0,757.7 L218.2,757.4 L218.4,757.2 L218.6,756.9 L218.7,756.6 L218.9,756.3
		L219.1,756.0 L219.3,755.7 L219.5,755.4 L219.7,755.1 L219.8,754.8 L220.0,754.5 L220.2,754.2 L220.4,753.9
		L220.6,753.6 L220.7,753.3 L220.9,753.0 L221.1,752.6 L221.3,752.3 L221.5,752.0 L221.7,751.7 L221.8,751.4
		L222.0,751.1 L222.2,750.7 L222.4,750.4 L222.6,750.1 L222.8,749.8 L222.9,749.5 L223.1,749.1 L223.3,748.8
		L223.5,748.5 L223.7,748.1 L223.9,747.8 L224.0,747.5 L224.2,747.2 L224.4,746.8 L224.6,746.5 L224.8,746.1
		L224.9,745.8 L225.1,745.5 L225.3,745.1 L225.5,744.8 L225.7,744.4 L225.9,744.1 L226.0,743.7 L226.2,743.4
		L226.4,743.0 L226.6,742.7 L226.8,742.3 L227.0,742.0 L227.1,741.6 L227.3,741.3 L227.5,740.9 L227.7,740.5
		L227.9,740.2 L228.0,739.8 L228.2,739.4 L228.4,739.1 L228.6,738.7 L228.8,738.3 L229.0,738.0 L229.1,737.6
		L229.3,737.2 L229.5,736.8 L229.7,736.5 L229.9,736.1 L230.1,735.7 L230.2,735.3 L230.4,735.0 L230.6,734.6
		L230.8,734.2 L231.0,733.8 L231.1,733.4 L231.3,733.0 L231.5,732.6 L231.7,732.2 L231.9,731.9 L232.1,731.5
		L232.2,731.1 L232.4,730.7 L232.6,730.3 L232.8,729.9 L233.0,729.5 L233.2,729.1 L233.3,728.7 L233.5,728.2
		L233.7,727.8 L233.9,727.4 L234.1,727.0 L234.2,726.6 L234.4,726.2 L234.6,725.8 L234.8,725.3 L235.0,724.9
		L235.2,724.5 L235.3,724.1 L235.5,723.7 L235.7,723.2 L235.9,722.8 L236.1,722.4 L236.3,722.0 L236.4,721.5
		L236.6,721.1 L236.8,720.7 L237.0,720.2 L237.2,719.8 L237.3,719.3 L237.5,718.9 L237.7,718.4 L237.9,718.0
		L238.1,717.6 L238.3,717.1 L238.4,716.6 L238.6,716.2 L238.8,715.8 L239.0,715.3 L239.2,714.8 L239.4,714.4
		L239.5,713.9 L239.7,713.5 L239.9,713.0 L240.1,712.5 L240.3,712.1 L240.4,711.6 L240.6,711.1 L240.8,710.7
		L241.0,710.2 L241.2,709.7 L241.4,709.2 L241.5,708.8 L241.7,708.3 L241.9,707.8 L242.1,707.3 L242.3,706.9
		L242.5,706.4 L242.6,705.9 L242.8,705.4 L243.0,704.9 L243.2,704.4 L243.4,703.9 L243.5,703.4 L243.7,702.9
		L243.9,702.4 L244.1,701.9 L244.3,701.4 L244.5,700.9 L244.6,700.4 L244.8,699.9 L245.0,699.4 L245.2,698.9
		L245.4,698.4 L245.6,697.8 L245.7,697.3 L245.9,696.8 L246.1,696.3 L246.3,695.8 L246.5,695.2 L246.6,694.7
		L246.8,694.2 L247.0,693.7 L247.2,693.1 L247.4,692.6 L247.6,692.1 L247.7,691.5 L247.9,691.0 L248.1,690.4
		L248.3,689.9 L248.5,689.3 L248.7,688.8 L248.8,688.3 L249.0,687.7 L249.2,687.1 L249.4,686.6 L249.6,686.0
		L249.7,685.5 L249.9,684.9 L250.1,684.4 L250.3,683.8 L250.5,683.2 L250.7,682.7 L250.8,682.1 L251.0,681.5
		L251.2,681.0 L251.4,680.4 L251.6,679.8 L251.8,679.2 L251.9,678.6 L252.1,678.1 L252.3,677.5 L252.5,676.9
		L252.7,676.4 L252.9,675.7 L253.0,675.1 L253.2,674.5 L253.4,673.9 L253.6,673.3 L253.8,672.7 L253.9,672.1
		L254.1,671.5 L254.3,670.9 L254.5,670.3 L254.7,669.7 L254.9,669.1 L255.0,668.4 L255.2,667.8 L255.4,667.2
		L255.6,666.6 L255.8,666.0 L256.0,665.4 L256.1,664.7 L256.3,664.1 L256.5,663.5 L256.7,662.9 L256.9,662.2
		L257.0,661.6 L257.2,661.0 L257.4,660.3 L257.6,659.7 L257.8,659.0 L258.0,658.4 L258.1,657.7 L258.3,657.1
		L258.5,656.4 L258.7,655.8 L258.9,655.1 L259.1,654.5 L259.2,653.8 L259.4,653.1 L259.6,652.5 L259.8,651.8
		L260.0,651.2 L260.1,650.5 L260.3,649.8 L260.5,649.2 L260.7,648.5 L260.9,647.8 L261.1,647.1 L261.2,646.4
		L261.4,645.8 L261.6,645.1 L261.8,644.4 L262.0,643.7 L262.2,643.0 L262.3,642.3 L262.5,641.6 L262.7,640.9
		L262.9,640.2 L263.1,639.5 L263.2,638.8 L263.4,638.1 L263.6,637.4 L263.8,636.7 L264.0,636.0 L264.2,635.2
		L264.3,634.5 L264.5,633.8 L264.7,633.1 L264.9,632.4 L265.1,631.6 L265.3,630.9 L265.4,630.2 L265.6,629.5
		L265.8,628.7 L266.0,628.0 L266.2,627.3 L266.3,626.5 L266.5,625.8 L266.7,625.0 L266.9,624.3 L267.1,623.5
		L267.3,622.8 L267.4,622.0 L267.6,621.3 L267.8,620.5 L268.0,619.8 L268.2,619.0 L268.4,618.3 L268.5,617.5
		L268.7,616.7 L268.9,616.0 L269.1,615.2 L269.3,614.4 L269.4,613.7 L269.6,612.9 L269.8,612.1 L270.0,611.3
		L270.2,610.5 L270.4,609.8 L270.5,609.0 L270.7,608.2 L270.9,607.4 L271.1,606.6 L271.3,605.8 L271.5,605.0
		L271.6,604.2 L271.8,603.4 L272.0,602.6 L272.2,601.8 L272.4,601.0 L272.5,600.2 L272.7,599.3 L272.9,598.5
		L273.1,597.7 L273.3,596.9 L273.5,596.1 L273.6,595.2 L273.8,594.4 L274.0,593.6 L274.2,592.8 L274.4,591.9
		L274.6,591.1 L274.7,590.3 L274.9,589.4 L275.1,588.6 L275.3,587.7 L275.5,586.9 L275.6,586.1 L275.8,585.2
		L276.0,584.4 L276.2,583.5 L276.4,582.7 L276.6,581.8 L276.7,580.9 L276.9,580.1 L277.1,579.2 L277.3,578.4
		L277.5,577.5 L277.7,576.6 L277.8,575.7 L278.0,574.9 L278.2,574.0 L278.4,573.1 L278.6,572.3 L278.7,571.4
		L278.9,570.5 L279.1,569.6 L279.3,568.7 L279.5,567.9 L279.7,567.0 L279.8,566.1 L280.0,565.2 L280.2,564.3
		L280.4,563.4 L280.6,562.5 L280.8,561.6 L280.9,560.7 L281.1,559.8 L281.3,558.9 L281.5,558.0 L281.7,557.1
		L281.9,556.1 L282.0,555.2 L282.2,554.3 L282.4,553.4 L282.6,552.5 L282.8,551.5 L282.9,550.6 L283.1,549.7
		L283.3,548.7 L283.5,547.8 L283.7,546.9 L283.9,546.0 L284.0,545.0 L284.2,544.1 L284.4,543.1 L284.6,542.2
		L284.8,541.3 L285.0,540.3 L285.1,539.4 L285.3,538.4 L285.5,537.4 L285.7,536.4 L285.9,535.5 L286.0,534.5
		L286.2,533.5 L286.4,532.6 L286.6,531.6 L286.8,530.6 L287.0,529.7 L287.1,528.7 L287.3,527.7 L287.5,526.7
		L287.7,525.6 L287.9,524.7 L288.1,523.7 L288.2,522.6 L288.4,521.6 L288.6,520.6 L288.8,519.6 L289.0,518.5
		L289.1,517.5 L289.3,516.4 L289.5,515.4 L289.7,514.4 L289.9,513.4 L290.1,512.4 L290.2,511.4 L290.4,510.4
		L290.6,509.5 L290.8,508.4 L291.0,507.4 L291.2,506.3 L291.3,505.2 L291.5,504.2 L291.7,503.1 L291.9,502.0
		L292.1,500.9 L292.2,499.9 L292.4,498.8 L292.6,497.8 L292.8,496.8 L293.0,495.8 L293.2,494.8 L293.3,493.8
		L293.5,492.8 L293.7,491.7 L293.9,490.7 L294.1,489.7 L294.3,488.6 L294.4,487.5 L294.6,486.4 L294.8,485.4
		L295.0,484.3 L295.2,483.2 L295.3,482.2 L295.5,481.1 L295.7,480.1 L295.9,479.1 L296.1,478.0 L296.3,476.9
		L296.4,475.8 L296.6,474.7 L296.8,473.6 L297.0,472.5 L297.2,471.4 L297.4,470.3 L297.5,469.2 L297.7,468.1
		L297.9,466.9 L298.1,465.9 L298.3,464.8 L298.4,463.7 L298.6,462.6 L298.8,461.5 L299.0,460.4 L299.2,459.2
		L299.4,458.1 L299.5,457.0 L299.7,455.9 L299.9,454.7 L300.1,453.6 L300.3,452.5 L300.5,451.4 L300.6,450.3
		L300.8,449.2 L301.0,448.1 L301.2,446.9 L301.4,445.8 L301.5,444.7 L301.7,443.6 L301.9,442.5 L302.1,441.4
		L302.3,440.3 L302.5,439.3 L302.6,438.2 L302.8,437.2 L303.0,436.2 L303.2,435.2 L303.4,434.2 L303.6,433.1
		L303.7,432.1 L303.9,430.9 L304.1,429.8 L304.3,428.6 L304.5,427.4 L304.6,426.2 L304.8,424.9 L305.0,423.6
		L305.2,422.4 L305.4,421.1 L305.6,419.8 L305.7,418.5 L305.9,417.2 L306.1,416.0 L306.3,414.7 L306.5,413.3
		L306.7,412.0 L306.8,410.7 L307.0,409.3 L307.2,408.1 L307.4,406.8 L307.6,405.6 L307.7,404.4 L307.9,403.2
		L308.1,401.9 L308.3,400.7 L308.5,399.5 L308.7,398.2 L308.8,397.0 L309.0,395.8 L309.2,394.7 L309.4,393.6
		L309.6,392.5 L309.8,391.4 L309.9,390.3 L310.1,389.1 L310.3,388.0 L310.5,386.8 L310.7,385.7 L310.9,384.4
		L311.0,383.1 L311.2,381.8 L311.4,380.4 L311.6,379.1 L311.8,377.7 L311.9,376.4 L312.1,375.1 L312.3,373.7
		L312.5,372.3 L312.7,370.8 L312.9,369.4 L313.0,368.0 L313.2,366.6 L313.4,365.5 L313.6,364.3 L313.8,363.3
		L314.0,362.3 L314.1,361.3 L314.3,360.3 L314.5,359.2 L314.7,358.1 L314.9,356.8 L315.0,355.6 L315.2,354.3
		L315.4,353.1 L315.6,351.8 L315.8,350.5 L316.0,349.1 L316.1,347.7 L316.3,346.4 L316.5,345.0 L316.7,343.7
		L316.9,342.5 L317.1,341.3 L317.2,340.2 L317.4,339.1 L317.6,338.1 L317.8,337.0 L318.0,335.9 L318.1,334.7
		L318.3,333.5 L318.5,332.1 L318.7,330.7 L318.9,329.1 L319.1,327.4 L319.2,325.8 L319.4,324.1 L319.6,322.6
		L319.8,321.1 L320.0,319.8 L320.2,318.4 L320.3,317.0 L320.5,315.7 L320.7,314.3 L320.9,313.0 L321.1,311.7
		L321.2,310.3 L321.4,308.9 L321.6,307.5 L321.8,306.2 L322.0,304.9 L322.2,303.5 L322.3,302.2 L322.5,300.9
		L322.7,299.5 L322.9,298.2 L323.1,296.8 L323.3,295.4 L323.4,294.0 L323.6,292.6 L323.8,291.1 L324.0,289.8
		L324.2,288.4 L324.3,287.0 L324.5,285.6 L324.7,284.1 L324.9,282.6 L325.1,281.2 L325.3,279.7 L325.4,278.3
		L325.6,276.9 L325.8,275.4 L326.0,274.0 L326.2,272.5 L326.4,271.0 L326.5,269.6 L326.7,268.1 L326.9,266.7
		L327.1,265.4 L327.3,264.0 L327.4,262.6 L327.6,261.2 L327.8,259.8 L328.0,258.4 L328.2,257.0 L328.4,255.5
		L328.5,254.1 L328.7,252.6 L328.9,251.2 L329.1,249.7 L329.3,248.3 L329.5,246.8 L329.6,245.4 L329.8,244.1
		L330.0,242.7 L330.2,241.3 L330.4,239.9 L330.5,238.6 L330.7,237.2 L330.9,235.9 L331.1,234.5 L331.3,233.2
		L331.5,231.9 L331.6,230.6 L331.8,229.2 L332.0,228.0 L332.2,226.7 L332.4,225.4 L332.6,224.1 L332.7,222.7
		L332.9,221.3 L333.1,220.0 L333.3,218.6 L333.5,217.3 L333.6,215.9 L333.8,214.5 L334.0,213.1 L334.2,211.7
		L334.4,210.4 L334.6,209.0 L334.7,207.6 L334.9,206.1 L335.1,204.7 L335.3,203.3 L335.5,201.9 L335.7,200.5
		L335.8,199.1 L336.0,197.7 L336.2,196.2 L336.4,194.8 L336.6,193.4 L336.7,192.0 L336.9,190.6 L337.1,189.1
		L337.3,187.7 L337.5,186.2 L337.7,184.8 L337.8,183.2 L338.0,181.7 L338.2,180.2 L338.4,178.6 L338.6,177.1
		L338.8,175.6 L338.9,174.0 L339.1,172.5 L339.3,170.9 L339.5,169.4 L339.7,167.9 L339.8,166.3 L340.0,164.7
		L340.2,163.2 L340.4,161.5 L340.6,159.9 L340.8,158.2 L340.9,156.6 L341.1,154.9 L341.3,153.2 L341.5,151.5
		L341.7,149.7 L341.9,147.9 L342.0,146.2 L342.2,144.4 L342.4,142.7 L342.6,141.0 L342.8,139.3 L343.0,137.5
		L343.1,135.7 L343.3,134.0 L343.5,132.2 L343.7,130.4 L343.9,128.5 L344.0,126.5 L344.2,124.5 L344.4,122.5
		L344.6,120.5 L344.8,118.4 L345.0,116.3 L345.1,114.0 L345.3,111.8 L345.5,109.4 L345.7,107.1 L345.9,104.7
		L346.1,102.2 L346.2,99.6 L346.4,97.0 L346.6,94.4 L346.8,91.8 L347.0,89.1 L347.1,86.4 L347.3,83.6
		L347.5,80.8 L347.7,78.1 L347.9,75.3 L348.1,72.5 L348.2,69.7 L348.4,66.9 L348.6,64.1 L348.8,61.4
		L349.0,58.6 L349.2,55.9 L349.3,53.2 L349.5,50.5 L349.7,47.9 L349.9,45.5 L350.1,43.1 L350.2,40.8
		L350.4,38.6 L350.6,36.7 L350.8,34.7 L351.0,33.3 L351.2,31.8 L351.3,30.7 L351.5,29.7 L351.7,29.1
		L351.9,28.4 L352.1,28.2 L352.3,27.9 L352.4,28.0 L352.6,28.0 L352.8,28.3 L353.0,28.5 L353.2,29.0
		L353.3,29.4 L353.5,30.0 L353.7,30.5 L353.9,31.2 L354.1,31.8 L354.3,32.6 L354.4,33.3 L354.6,34.1
		L354.8,34.8 L355.0,35.7 L355.2,36.5 L355.4,37.5 L355.5,38.4 L355.7,39.4 L355.9,40.3 L356.1,41.4
		L356.3,42.4 L356.4,43.5 L356.6,44.6 L356.8,45.8 L357.0,46.9 L357.2,48.1 L357.4,49.3 L357.5,50.5
		L357.7,51.7 L357.9,52.8 L358.1,54.0 L358.3,55.3 L358.5,56.5 L358.6,57.8 L358.8,59.1 L359.0,60.4
		L359.2,61.7 L359.4,63.1 L359.5,64.5 L359.7,65.9 L359.9,67.3 L360.1,68.7 L360.3,70.1 L360.5,71.5
		L360.6,72.9 L360.8,74.3 L361.0,75.6 L361.2,77.0 L361.4,78.3 L361.6,79.6 L361.7,81.0 L361.9,82.4
		L362.1,83.8 L362.3,85.2 L362.5,86.6 L362.6,88.0 L362.8,89.4 L363.0,90.8 L363.2,92.3 L363.4,93.7
		L363.6,95.1 L363.7,96.5 L363.9,97.9 L364.1,99.4 L364.3,100.9 L364.5,102.4 L364.7,103.9 L364.8,105.4
		L365.0,106.9 L365.2,108.4 L365.4,110.0 L365.6,111.5 L365.7,113.0 L365.9,114.5 L366.1,116.0 L366.3,117.5
		L366.5,119.1 L366.7,120.6 L366.8,122.2 L367.0,123.7 L367.2,125.3 L367.4,126.8 L367.6,128.4 L367.8,130.0
		L367.9,131.6 L368.1,133.2 L368.3,134.8 L368.5,136.4 L368.7,138.0 L368.8,139.6 L369.0,141.2 L369.2,142.8
		L369.4,144.4 L369.6,146.0 L369.8,147.6 L369.9,149.3 L370.1,150.9 L370.3,152.5 L370.5,154.1 L370.7,155.8
		L370.9,157.4 L371.0,159.0 L371.2,160.7 L371.4,162.3 L371.6,163.9 L371.8,165.5 L372.0,167.1 L372.1,168.8
		L372.3,170.4 L372.5,172.0 L372.7,173.6 L372.9,175.2 L373.0,176.9 L373.2,178.5 L373.4,180.2 L373.6,181.8
		L373.8,183.4 L374.0,185.0 L374.1,186.6 L374.3,188.2 L374.5,189.9 L374.7,191.4 L374.9,193.0 L375.1,194.6
		L375.2,196.2 L375.4,197.8 L375.6,199.5 L375.8,201.0 L376.0,202.6 L376.1,204.2 L376.3,205.8 L376.5,207.4
		L376.7,208.9 L376.9,210.5 L377.1,212.0 L377.2,213.6 L377.4,215.2 L377.6,216.8 L377.8,218.3 L378.0,219.9
		L378.2,221.4 L378.3,223.0 L378.5,224.5 L378.7,226.1 L378.9,227.6 L379.1,229.2 L379.2,230.7 L379.4,232.2
		L379.6,233.8 L379.8,235.3 L380.0,236.8 L380.2,238.4 L380.3,239.9 L380.5,241.5 L380.7,243.0 L380.9,244.5
		L381.1,246.0 L381.3,247.5 L381.4,249.1 L381.6,250.6 L381.8,252.1 L382.0,253.6 L382.2,255.1 L382.3,256.6
		L382.5,258.1 L382.7,259.5 L382.9,261.0 L383.1,262.5 L383.3,263.9 L383.4,265.4 L383.6,266.9 L383.8,268.4
		L384.0,269.8 L384.2,271.3 L384.4,272.8 L384.5,274.3 L384.7,275.7 L384.9,277.2 L385.1,278.6 L385.3,280.1
		L385.4,281.5 L385.6,283.0 L385.8,284.4 L386.0,285.8 L386.2,287.2 L386.4,288.7 L386.5,290.1 L386.7,291.5
		L386.9,292.9 L387.1,294.3 L387.3,295.7 L387.5,297.1 L387.6,298.6 L387.8,300.0 L388.0,301.4 L388.2,302.8
		L388.4,304.2 L388.5,305.6 L388.7,307.0 L388.9,308.4 L389.1,309.8 L389.3,311.2 L389.5,312.6 L389.6,314.0
		L389.8,315.4 L390.0,316.8 L390.2,318.2 L390.4,319.6 L390.6,320.9 L390.7,322.3 L390.9,323.7 L391.1,325.0
		L391.3,326.4 L391.5,327.8 L391.6,329.1 L391.8,330.5 L392.0,331.8 L392.2,333.2 L392.4,334.5 L392.6,335.9
		L392.7,337.2 L392.9,338.5 L393.1,339.8 L393.3,341.1 L393.5,342.5 L393.7,343.8 L393.8,345.1 L394.0,346.4
		L394.2,347.7 L394.4,349.0 L394.6,350.3 L394.7,351.6 L394.9,353.0 L395.1,354.2 L395.3,355.5 L395.5,356.8
		L395.7,358.1 L395.8,359.4 L396.0,360.6 L396.2,361.9 L396.4,363.1 L396.6,364.4 L396.8,365.6 L396.9,366.9
		L397.1,368.2 L397.3,369.4 L397.5,370.6 L397.7,371.8 L397.8,373.1 L398.0,374.3 L398.2,375.5 L398.4,376.8
		L398.6,378.0 L398.8,379.2 L398.9,380.4 L399.1,381.6 L399.3,382.8 L399.5,384.0 L399.7,385.2 L399.9,386.3
		L400.0,387.5 L400.2,388.7 L400.4,389.9 L400.6,391.1 L400.8,392.2 L401.0,393.4 L401.1,394.6 L401.3,395.7
		L401.5,396.9 L401.7,398.0 L401.9,399.2 L402.0,400.3 L402.2,401.5 L402.4,402.6 L402.6,403.8 L402.8,404.9
		L403.0,406.0 L403.1,407.1 L403.3,408.2 L403.5,409.4 L403.7,410.5 L403.9,411.6 L404.1,412.7 L404.2,413.8
		L404.4,414.9 L404.6,416.0 L404.8,417.1 L405.0,418.2 L405.1,419.2 L405.3,420.3 L405.5,421.4 L405.7,422.5
		L405.9,423.5 L406.1,424.6 L406.2,425.7 L406.4,426.8 L406.6,427.8 L406.8,428.9 L407.0,429.9 L407.2,431.0
		L407.3,432.0 L407.5,433.1 L407.7,434.1 L407.9,435.1 L408.1,436.2 L408.2,437.2 L408.4,438.2 L408.6,439.2
		L408.8,440.2 L409.0,441.3 L409.2,442.3 L409.3,443.3 L409.5,444.3 L409.7,445.3 L409.9,446.3 L410.1,447.3
		L410.3,448.3 L410.4,449.3 L410.6,450.3 L410.8,451.3 L411.0,452.3 L411.2,453.2 L411.3,454.2 L411.5,455.2
		L411.7,456.2 L411.9,457.1 L412.1,458.1 L412.3,459.0 L412.4,460.0 L412.6,461.0 L412.8,461.9 L413.0,462.9
		L413.2,463.8 L413.4,464.8 L413.5,465.7 L413.7,466.7 L413.9,467.6 L414.1,468.5 L414.3,469.4 L414.4,470.4
		L414.6,471.3 L414.8,472.2 L415.0,473.2 L415.2,474.1 L415.4,475.0 L415.5,475.9 L415.7,476.8 L415.9,477.7
		L416.1,478.6 L416.3,479.5 L416.5,480.4 L416.6,481.3 L416.8,482.2 L417.0,483.1 L417.2,484.0 L417.4,484.9
		L417.5,485.7 L417.7,486.6 L417.9,487.5 L418.1,488.4 L418.3,489.3 L418.5,490.1 L418.6,491.0 L418.8,491.8
		L419.0,492.7 L419.2,493.6 L419.4,494.4 L419.6,495.3 L419.7,496.1 L419.9,497.0 L420.1,497.8 L420.3,498.7
		L420.5,499.5 L420.6,500.4 L420.8,501.2 L421.0,502.0 L421.2,502.9 L421.4,503.7 L421.6,504.5 L421.7,505.3
		L421.9,506.2 L422.1,507.0 L422.3,507.7 L422.5,508.5 L422.7,509.3 L422.8,510.1 L423.0,510.9 L423.2,511.7
		L423.4,512.5 L423.6,513.3 L423.7,514.1 L423.9,514.9 L424.1,515.7 L424.3,516.5 L424.5,517.3 L424.7,518.0
		L424.8,518.8 L425.0,519.6 L425.2,520.4 L425.4,521.2 L425.6,522.0 L425.8,522.8 L425.9,523.6 L426.1,524.4
		L426.3,525.2 L426.5,525.9 L426.7,526.7 L426.8,527.5 L427.0,528.2 L427.2,529.0 L427.4,529.7 L427.6,530.5
		L427.8,531.2 L427.9,532.0 L428.1,532.7 L428.3,533.4 L428.5,534.2 L428.7,534.9 L428.9,535.7 L429.0,536.4
		L429.2,537.1 L429.4,537.9 L429.6,538.6 L429.8,539.3 L430.0,540.0 L430.1,540.8 L430.3,541.5 L430.5,542.2
		L430.7,542.9 L430.9,543.6 L431.0,544.3 L431.2,545.0 L431.4,545.7 L431.6,546.5 L431.8,547.2 L432.0,547.9
		L432.1,548.6 L432.3,549.3 L432.5,550.0 L432.7,550.6 L432.9,551.3 L433.1,552.0 L433.2,552.7 L433.4,553.4
		L433.6,554.1 L433.8,554.8 L434.0,555.5 L434.1,556.1 L434.3,556.8 L434.5,557.5 L434.7,558.2 L434.9,558.8
		L435.1,559.5 L435.2,560.2 L435.4,560.8 L435.6,561.5 L435.8,562.2 L436.0,562.8 L436.2,563.5 L436.3,564.1
		L436.5,564.8 L436.7,565.4 L436.9,566.1 L437.1,566.7 L437.2,567.4 L437.4,568.0 L437.6,568.7 L437.8,569.3
		L438.0,570.0 L438.2,570.6 L438.3,571.2 L438.5,571.9 L438.7,572.5 L438.9,573.1 L439.1,573.8 L439.3,574.4
		L439.4,575.0 L439.6,575.7 L439.8,576.3 L440.0,576.9 L440.2,577.5 L440.3,578.1 L440.5,578.8 L440.7,579.4
		L440.9,580.0 L441.1,580.6 L441.3,581.2 L441.4,581.8 L441.6,582.4 L441.8,583.0 L442.0,583.6 L442.2,584.2
		L442.4,584.8 L442.5,585.4 L442.7,586.0 L442.9,586.6 L443.1,587.2 L443.3,587.8 L443.4,588.4 L443.6,589.0
		L443.8,589.6 L444.0,590.2 L444.2,590.8 L444.4,591.3 L444.5,591.9 L444.7,592.5 L444.9,593.1 L445.1,593.7
		L445.3,594.2 L445.5,594.8 L445.6,595.4 L445.8,596.0 L446.0,596.5 L446.2,597.1 L446.4,597.7 L446.5,598.2
		L446.7,598.8 L446.9,599.4 L447.1,599.9 L447.3,600.5 L447.5,601.0 L447.6,601.6 L447.8,602.2 L448.0,602.7
		L448.2,603.3 L448.4,603.8 L448.6,604.4 L448.7,604.9 L448.9,605.5 L449.1,606.0 L449.3,606.6 L449.5,607.1
		L449.6,607.6 L449.8,608.2 L450.0,608.7 L450.2,609.3 L450.4,609.8 L450.6,610.3 L450.7,610.9 L450.9,611.4
		L451.1,611.9 L451.3,612.4 L451.5,613.0 L451.7,613.5 L451.8,614.0 L452.0,614.5 L452.2,615.1 L452.4,615.6
		L452.6,616.1 L452.7,616.6 L452.9,617.1 L453.1,617.7 L453.3,618.2 L453.5,618.7 L453.7,619.2 L453.8,619.7
		L454.0,620.2 L454.2,620.7 L454.4,621.2 L454.6,621.7 L454.8,622.2 L454.9,622.7 L455.1,623.2 L455.3,623.7
		L455.5,624.2 L455.7,624.7 L455.8,625.2 L456.0,625.7 L456.2,626.2 L456.4,626.7 L456.6,627.2 L456.8,627.7
		L456.9,628.2 L457.1,628.7 L457.3,629.2 L457.5,629.6 L457.7,630.1 L457.9,630.6 L458.0,631.1 L458.2,631.6
		L458.4,632.0 L458.6,632.5 L458.8,633.0 L459.0,633.5 L459.1,633.9 L459.3,634.4 L459.5,634.9 L459.7,635.3
		L459.9,635.8 L460.0,636.3 L460.2,636.7 L460.4,637.2 L460.6,637.7 L460.8,638.1 L461.0,638.6 L461.1,639.0
		L461.3,639.5 L461.5,640.0 L461.7,640.4 L461.9,640.9 L462.1,641.3 L462.2,641.8 L462.4,642.2 L462.6,642.7
		L462.8,643.1 L463.0,643.6 L463.1,644.0 L463.3,644.5 L463.5,644.9 L463.7,645.4 L463.9,645.8 L464.1,646.2
		L464.2,646.7 L464.4,647.1 L464.6,647.6 L464.8,648.0 L465.0,648.4 L465.2,648.9 L465.3,649.3 L465.5,649.7
		L465.7,650.2 L465.9,650.6 L466.1,651.0 L466.2,651.4 L466.4,651.9 L466.6,652.3 L466.8,652.7 L467.0,653.1
		L467.2,653.5 L467.3,654.0 L467.5,654.4 L467.7,654.8 L467.9,655.2 L468.1,655.6 L468.3,656.0 L468.4,656.5
		L468.6,656.9 L468.8,657.3 L469.0,657.7 L469.2,658.1 L469.3,658.5 L469.5,658.9 L469.7,659.3 L469.9,659.7
		L470.1,660.1 L470.3,660.5 L470.4,660.9 L470.6,661.3 L470.8,661.7 L471.0,662.1 L471.2,662.5 L471.4,662.9
		L471.5,663.3 L471.7,663.7 L471.9,664.1 L472.1,664.5 L472.3,664.9 L472.4,665.3 L472.6,665.7 L472.8,666.1
		L473.0,666.5 L473.2,666.8 L473.4,667.2 L473.5,667.6 L473.7,668.0 L473.9,668.4 L474.1,668.8 L474.3,669.1
		L474.5,669.5 L474.6,669.9 L474.8,670.3 L475.0,670.6 L475.2,671.0 L475.4,671.4 L475.5,671.8 L475.7,672.1
		L475.9,672.5 L476.1,672.9 L476.3,673.2 L476.5,673.6 L476.6,674.0 L476.8,674.3 L477.0,674.7 L477.2,675.1
		L477.4,675.4 L477.6,675.8 L477.7,676.1 L477.9,676.5 L478.1,676.9 L478.3,677.2 L478.5,677.6 L478.6,677.9
		L478.8,678.3 L479.0,678.6 L479.2,679.0 L479.4,679.3 L479.6,679.7 L479.7,680.0 L479.9,680.4 L480.1,680.7
		L480.3,681.1 L480.5,681.4 L480.7,681.8 L480.8,682.1 L481.0,682.4 L481.2,682.8 L481.4,683.1 L481.6,683.5
		L481.7,683.8 L481.9,684.1 L482.1,684.5 L482.3,684.8 L482.5,685.2 L482.7,685.5 L482.8,685.8 L483.0,686.1
		L483.2,686.5 L483.4,686.8 L483.6,687.1 L483.8,687.5 L483.9,687.8 L484.1,688.1 L484.3,688.4 L484.5,688.8
		L484.7,689.1 L484.8,689.4 L485.0,689.7 L485.2,690.0 L485.4,690.4 L485.6,690.7 L485.8,691.0 L485.9,691.3
		L486.1,691.6 L486.3,692.0 L486.5,692.3 L486.7,692.6 L486.9,692.9 L487.0,693.2 L487.2,693.5 L487.4,693.8
		L487.6,694.1 L487.8,694.4 L488.0,694.7 L488.1,695.0 L488.3,695.3 L488.5,695.6 L488.7,695.9 L488.9,696.3
		L489.0,696.6 L489.2,696.9 L489.4,697.2 L489.6,697.5 L489.8,697.7 L490.0,698.0 L490.1,698.3 L490.3,698.6
		L490.5,698.9 L490.7,699.2 L490.9,699.5 L491.1,699.8 L491.2,700.1 L491.4,700.4 L491.6,700.7 L491.8,701.0
		L492.0,701.2 L492.1,701.5 L492.3,701.8 L492.5,702.1 L492.7,702.4 L492.9,702.7 L493.1,702.9 L493.2,703.2
		L493.4,703.5 L493.6,703.8 L493.8,704.1 L494.0,704.3 L494.2,704.6 L494.3,704.9 L494.5,705.2 L494.7,705.4
		L494.9,705.7 L495.1,706.0 L495.2,706.3 L495.4,706.5 L495.6,706.8 L495.8,707.1 L496.0,707.3 L496.2,707.6
		L496.3,707.9 L496.5,708.1 L496.7,708.4 L496.9,708.7 L497.1,708.9 L497.3,709.2 L497.4,709.5 L497.6,709.7
		L497.8,710.0 L498.0,710.2 L498.2,710.5 L498.3,710.8 L498.5,711.0 L498.7,711.3 L498.9,711.5 L499.1,711.8
		L499.3,712.0 L499.4,712.3 L499.6,712.5 L499.8,712.8 L500.0,713.0 L500.2,713.3 L500.4,713.5 L500.5,713.8
		L500.7,714.0 L500.9,714.3 L501.1,714.5 L501.3,714.8 L501.4,715.0 L501.6,715.3 L501.8,715.5 L502.0,715.8
		L502.2,716.0 L502.4,716.2 L502.5,716.5 L502.7,716.7 L502.9,717.0 L503.1,717.2 L503.3,717.4 L503.5,717.7
		L503.6,717.9 L503.8,718.1 L504.0,718.4 L504.2,718.6 L504.4,718.8 L504.5,719.1 L504.7,719.3 L504.9,719.5
		L505.1,719.8 L505.3,720.0 L505.5,720.2 L505.6,720.5 L505.8,720.7 L506.0,720.9 L506.2,721.2 L506.4,721.4
		L506.6,721.6 L506.7,721.8 L506.9,722.1 L507.1,722.3 L507.3,722.5 L507.5,722.7 L507.6,722.9 L507.8,723.2
		L508.0,723.4 L508.2,723.6 L508.4,723.8 L508.6,724.0 L508.7,724.3 L508.9,724.5 L509.1,724.7 L509.3,724.9
		L509.5,725.1 L509.7,725.3 L509.8,725.6 L510.0,725.8 L510.2,726.0 L510.4,726.2 L510.6,726.4 L510.7,726.6
		L510.9,726.8 L511.1,727.0 L511.3,727.2 L511.5,727.5 L511.7,727.7 L511.8,727.9 L512.0,728.1 L512.2,728.3
		L512.4,728.5 L512.6,728.7 L512.8,728.9 L512.9,729.1 L513.1,729.3 L513.3,729.5 L513.5,729.7 L513.7,729.9
		L513.8,730.1 L514.0,730.3 L514.2,730.5 L514.4,730.7 L514.6,730.9 L514.8,731.1 L514.9,731.3 L515.1,731.5
		L515.3,731.7 L515.5,731.9 L515.7,732.1 L515.9,732.3 L516.0,732.5 L516.2,732.7 L516.4,732.9 L516.6,733.1
		L516.8,733.2 L516.9,733.4 L517.1,733.6 L517.3,733.8 L517.5,734.0 L517.7,734.2 L517.9,734.4 L518.0,734.6
		L518.2,734.8 L518.4,734.9 L518.6,735.1 L518.8,735.3 L519.0,735.5 L519.1,735.7 L519.3,735.9 L519.5,736.1
		L519.7,736.2 L519.9,736.4 L520.1,736.6 L520.2,736.8 L520.4,737.0 L520.6,737.1 L520.8,737.3 L521.0,737.5
		L521.1,737.7 L521.3,737.9 L521.5,738.0 L521.7,738.2 L521.9,738.4 L522.1,738.6 L522.2,738.7 L522.4,738.9
		L522.6,739.1 L522.8,739.3 L523.0,739.4 L523.2,739.6 L523.3,739.8 L523.5,740.0 L523.7,740.1 L523.9,740.3
		L524.1,740.5 L524.2,740.6 L524.4,740.8 L524.6,741.0 L524.8,741.1 L525.0,741.3 L525.2,741.5 L525.3,741.6
		L525.5,741.8 L525.7,742.0 L525.9,742.1 L526.1,742.3 L526.3,742.5 L526.4,742.6 L526.6,742.8 L526.8,743.0
		L527.0,743.1 L527.2,743.3 L527.3,743.4 L527.5,743.6 L527.7,743.8 L527.9,743.9 L528.1,744.1 L528.3,744.2
		L528.4,744.4 L528.6,744.6 L528.8,744.7 L529.0,744.9 L529.2,745.0 L529.4,745.2 L529.5,745.3 L529.7,745.5
		L529.9,745.7 L530.1,745.8 L530.3,746.0 L530.4,746.1 L530.6,746.3 L530.8,746.4 L531.0,746.6 L531.2,746.7
		L531.4,746.9 L531.5,747.0 L531.7,747.2 L531.9,747.3 L532.1,747.5 L532.3,747.6 L532.5,747.8 L532.6,747.9
		L532.8,748.1 L533.0,748.2 L533.2,748.4 L533.4,748.5 L533.5,748.7 L533.7,748.8 L533.9,748.9 L534.1,749.1
		L534.3,749.2 L534.5,749.4 L534.6,749.5 L534.8,749.7 L535.0,749.8 L535.2,749.9 L535.4,750.1 L535.6,750.2
		L535.7,750.4 L535.9,750.5 L536.1,750.7 L536.3,750.8 L536.5,750.9 L536.6,751.1 L536.8,751.2 L537.0,751.4
		L537.2,751.5 L537.4,751.6 L537.6,751.8 L537.7,751.9 L537.9,752.0 L538.1,752.2 L538.3,752.3 L538.5,752.5
		L538.7,752.6 L538.8,752.7 L539.0,752.9 L539.2,753.0 L539.4,753.1 L539.6,753.3 L539.7,753.4 L539.9,753.5
		L540.1,753.7 L540.3,753.8 L540.5,754.0 L540.7,754.1 L540.8,754.2 L541.0,754.3 L541.2,754.5 L541.4,754.6
		L541.6,754.7 L541.8,754.8 L541.9,755.0 L542.1,755.1 L542.3,755.2 L542.5,755.3 L542.7,755.5 L542.8,755.6
		L543.0,755.7 L543.2,755.8 L543.4,756.0 L543.6,756.1 L543.8,756.2 L543.9,756.3 L544.1,756.5 L544.3,756.6
		L544.5,756.7 L544.7,756.8 L544.9,757.0 L545.0,757.1 L545.2,757.2 L545.4,757.3 L545.6,757.4 L545.8,757.6
		L545.9,757.7 L546.1,757.8 L546.3,757.9 L546.5,758.0 L546.7,758.2 L546.9,758.3 L547.0,758.4 L547.2,758.5
		L547.4,758.6 L547.6,758.7 L547.8,758.9 L548.0,759.0 L548.1,759.1 L548.3,759.2 L548.5,759.3 L548.7,759.4
		L548.9,759.6 L549.1,759.7 L549.2,759.8 L549.4,759.9 L549.6,760.0 L549.8,760.1 L550.0,760.2 L550.1,760.3
		L550.3,760.5 L550.5,760.6 L550.7,760.7 L550.9,760.8 L551.1,760.9 L551.2,761.0 L551.4,761.1 L551.6,761.2
		L551.8,761.3 L552.0,761.4 L552.2,761.6 L552.3,761.7 L552.5,761.8 L552.7,761.9 L552.9,762.0 L553.1,762.1
		L553.2,762.2 L553.4,762.3 L553.6,762.4 L553.8,762.5 L554.0,762.6 L554.2,762.7 L554.3,762.8 L554.5,762.9
		L554.7,763.0 L554.9,763.1 L555.1,763.2 L555.3,763.3 L555.4,763.4 L555.6,763.5 L555.8,763.7 L556.0,763.8
		L556.2,763.9 L556.3,764.0 L556.5,764.1 L556.7,764.2 L556.9,764.3 L557.1,764.4 L557.3,764.5 L557.4,764.6
		L557.6,764.7 L557.8,764.8 L558.0,764.9 L558.2,764.9 L558.4,765.0 L558.5,765.1 L558.7,765.2 L558.9,765.3
		L559.1,765.4 L559.3,765.5 L559.4,765.6 L559.6,765.7 L559.8,765.8 L560.0,765.9 L560.2,766.0 L560.4,766.1
		L560.5,766.2 L560.7,766.3 L560.9,766.4 L561.1,766.5 L561.3,766.6 L561.5,766.7 L561.6,766.8 L561.8,766.9
		L562.0,767.0 L562.2,767.0 L562.4,767.1 L562.5,767.2 L562.7,767.3 L562.9,767.4 L563.1,767.5 L563.3,767.6
		L563.5,767.7 L563.6,767.8 L563.8,767.9 L564.0,768.0 L564.2,768.0 L564.4,768.1 L564.6,768.2 L564.7,768.3
		L564.9,768.4 L565.1,768.5 L565.3,768.6 L565.5,768.7 L565.6,768.8 L565.8,768.8 L566.0,768.9 L566.2,769.0
		L566.4,769.1 L566.6,769.2 L566.7,769.3 L566.9,769.4 L567.1,769.5 L567.3,769.5 L567.5,769.6 L567.7,769.7
		L567.8,769.8 L568.0,769.9 L568.2,770.0 L568.4,770.0 L568.6,770.1 L568.7,770.2 L568.9,770.3 L569.1,770.4
		L569.3,770.5 L569.5,770.5 L569.7,770.6 L569.8,770.7 L570.0,770.8 L570.2,770.9 L570.4,771.0 L570.6,771.0
		L570.8,771.1 L570.9,771.2 L571.1,771.3 L571.3,771.4 L571.5,771.4 L571.7,771.5 L571.8,771.6 L572.0,771.7
		L572.2,771.8 L572.4,771.8 L572.6,771.9 L572.8,772.0 L572.9,772.1 L573.1,772.2 L573.3,772.2 L573.5,772.3
		L573.7,772.4 L573.9,772.5 L574.0,772.5 L574.2,772.6 L574.4,772.7 L574.6,772.8 L574.8,772.9 L574.9,772.9
		L575.1,773.0 L575.3,773.1 L575.5,773.2 L575.7,773.2 L575.9,773.3 L576.0,773.4 L576.2,773.5 L576.4,773.5
		L576.6,773.6 L576.8,773.7 L577.0,773.8 L577.1,773.8 L577.3,773.9 L577.5,774.0 L577.7,774.1 L577.9,774.1
		L578.1,774.2 L578.2,774.3 L578.4,774.4 L578.6,774.4 L578.8,774.5 L579.0,774.6 L579.1,774.6 L579.3,774.7
		L579.5,774.8 L579.7,774.9 L579.9,774.9 L580.1,775.0 L580.2,775.1 L580.4,775.1 L580.6,775.2 L580.8,775.3
		L581.0,775.3 L581.2,775.4 L581.3,775.5 L581.5,775.5 L581.7,775.6 L581.9,775.7 L582.1,775.7 L582.2,775.8
		L582.4,775.9 L582.6,776.0 L582.8,776.0 L583.0,776.1 L583.2,776.2 L583.3,776.2 L583.5,776.3 L583.7,776.4
		L583.9,776.4 L584.1,776.5 L584.3,776.6 L584.4,776.6 L584.6,776.7 L584.8,776.8 L585.0,776.8 L585.2,776.9
		L585.3,776.9 L585.5,777.0 L585.7,777.1 L585.9,777.1 L586.1,777.2 L586.3,777.3 L586.4,777.3 L586.6,777.4
		L586.8,777.5 L587.0,777.5 L587.2,777.6 L587.4,777.6 L587.5,777.7 L587.7,777.8 L587.9,777.8 L588.1,777.9
		L588.3,778.0 L588.4,778.0 L588.6,778.1 L588.8,778.1 L589.0,778.2 L589.2,778.3 L589.4,778.3 L589.5,778.4
		L589.7,778.5 L589.9,778.5 L590.1,778.6 L590.3,778.6 L590.5,778.7 L590.6,778.8 L590.8,778.8 L591.0,778.9
		L591.2,778.9 L591.4,779.0 L591.5,779.0 L591.7,779.1 L591.9,779.2 L592.1,779.2 L592.3,779.3 L592.5,779.3
		L592.6,779.4 L592.8,779.5 L593.0,779.5 L593.2,779.6 L593.4,779.6 L593.6,779.7 L593.7,779.7 L593.9,779.8
		L594.1,779.9 L594.3,779.9 L594.5,780.0 L594.6,780.0 L594.8,780.1 L595.0,780.1 L595.2,780.2 L595.4,780.3
		L595.6,780.3 L595.7,780.4 L595.9,780.4 L596.1,780.5 L596.3,780.5 L596.5,780.6 L596.7,780.6 L596.8,780.7
		L597.0,780.7 L597.2,780.8 L597.4,780.9 L597.6,780.9 L597.7,781.0 L597.9,781.0 L598.1,781.1 L598.3,781.1
		L598.5,781.2 L598.7,781.2 L598.8,781.3 L599.0,781.3 L599.2,781.4 L599.4,781.4 L599.6,781.5 L599.8,781.5
		L599.9,781.6 L600.1,781.7 L600.3,781.7 L600.5,781.8 L600.7,781.8 L600.8,781.9 L601.0,781.9 L601.2,782.0
		L601.4,782.0 L601.6,782.1 L601.8,782.1 L601.9,782.2 L602.1,782.2 L602.3,782.3 L602.5,782.3 L602.7,782.4
		L602.9,782.4 L603.0,782.5 L603.2,782.5 L603.4,782.6 L603.6,782.6 L603.8,782.6 L603.9,782.7 L604.1,782.7
		L604.3,782.8 L604.5,782.8 L604.7,782.9 L604.9,782.9 L605.0,783.0 L605.2,783.0 L605.4,783.1 L605.6,783.1
		L605.8,783.2 L606.0,783.2 L606.1,783.3 L606.3,783.3 L606.5,783.4 L606.7,783.4 L606.9,783.5 L607.1,783.5
		L607.2,783.6 L607.4,783.6 L607.6,783.7 L607.8,783.7 L608.0,783.7 L608.1,783.8 L608.3,783.8 L608.5,783.9
		L608.7,783.9 L608.9,784.0 L609.1,784.0 L609.2,784.1 L609.4,784.1 L609.6,784.2 L609.8,784.2 L610.0,784.2
		L610.2,784.3 L610.3,784.3 L610.5,784.4 L610.7,784.4 L610.9,784.5 L611.1,784.5 L611.2,784.6 L611.4,784.6
		L611.6,784.6 L611.8,784.7 L612.0,784.7 L612.2,784.8 L612.3,784.8 L612.5,784.9 L612.7,784.9 L612.9,784.9
		L613.1,785.0 L613.3,785.0 L613.4,785.1 L613.6,785.1 L613.8,785.2 L614.0,785.2 L614.2,785.2 L614.3,785.3
		L614.5,785.3 L614.7,785.4 L614.9,785.4 L615.1,785.5 L615.3,785.5 L615.4,785.5 L615.6,785.6 L615.8,785.6
		L616.0,785.7 L616.2,785.7 L616.4,785.7 L616.5,785.8 L616.7,785.8 L616.9,785.9 L617.1,785.9 L617.3,785.9
		L617.4,786.0 L617.6,786.0 L617.8,786.1 L618.0,786.1 L618.2,786.1 L618.4,786.2 L618.5,786.2 L618.7,786.3
		L618.9,786.3 L619.1,786.3 L619.3,786.4 L619.5,786.4 L619.6,786.5 L619.8,786.5 L620.0,786.5 L620.2,786.6
		L620.4,786.6 L620.5,786.7 L620.7,786.7 L620.9,786.7 L621.1,786.8 L621.3,786.8 L621.5,786.8 L621.6,786.9
		L621.8,786.9 L622.0,787.0 L622.2,787.0 L622.4,787.0 L622.6,787.1 L622.7,787.1 L622.9,787.1 L623.1,787.2
		L623.3,787.2 L623.5,787.2 L623.6,787.3 L623.8,787.3 L624.0,787.4 L624.2,787.4 L624.4,787.4 L624.6,787.5
		L624.7,787.5 L624.9,787.5 L625.1,787.6 L625.3,787.6 L625.5,787.6 L625.7,787.7 L625.8,787.7 L626.0,787.7
		L626.2,787.8 L626.4,787.8 L626.6,787.9 L626.7,787.9 L626.9,787.9 L627.1,788.0 L627.3,788.0 L627.5,788.0
		L627.7,788.1 L627.8,788.1 L628.0,788.1 L628.2,788.2 L628.4,788.2 L628.6,788.2 L628.8,788.3 L628.9,788.3
		L629.1,788.3 L629.3,788.4 L629.5,788.4 L629.7,788.4 L629.8,788.5 L630.0,788.5 L630.2,788.5 L630.4,788.6
		L630.6,788.6 L630.8,788.6 L630.9,788.7 L631.1,788.7 L631.3,788.7 L631.5,788.8 L631.7,788.8 L631.9,788.8
		L632.0,788.9 L632.2,788.9 L632.4,788.9 L632.6,789.0 L632.8,789.0 L632.9,789.0 L633.1,789.1 L633.3,789.1
		L633.5,789.1 L633.7,789.2 L633.9,789.2 L634.0,789.2 L634.2,789.3 L634.4,789.3 L634.6,789.3 L634.8,789.3
		L635.0,789.4 L635.1,789.4 L635.3,789.4 L635.5,789.5 L635.7,789.5 L635.9,789.5 L636.1,789.6 L636.2,789.6
		L636.4,789.6 L636.6,789.7 L636.8,789.7 L637.0,789.7 L637.1,789.7 L637.3,789.8 L637.5,789.8 L637.7,789.8
		L637.9,789.9 L638.1,789.9 L638.2,789.9 L638.4,789.9 L638.6,790.0 L638.8,790.0 L639.0,790.0 L639.2,790.1
		L639.3,790.1 L639.5,790.1 L639.7,790.1 L639.9,790.2 L640.1,790.2 L640.2,790.2 L640.4,790.3 L640.6,790.3
		L640.8,790.3 L641.0,790.4 L641.2,790.4 L641.3,790.4 L641.5,790.4 L641.7,790.5 L641.9,790.5 L642.1,790.5
		L642.3,790.5 L642.4,790.6 L642.6,790.6 L642.8,790.6 L643.0,790.7 L643.2,790.7 L643.3,790.7 L643.5,790.8
		L643.7,790.8 L643.9,790.8 L644.1,790.8 L644.3,790.9 L644.4,790.9 L644.6,790.9 L644.8,790.9 L645.0,791.0
		L645.2,791.0 L645.4,791.0 L645.5,791.1 L645.7,791.1 L645.9,791.1 L646.1,791.1 L646.3,791.2 L646.4,791.2
		L646.6,791.2 L646.8,791.2 L647.0,791.3 L647.2,791.3 L647.4,791.3 L647.5,791.3 L647.7,791.4 L647.9,791.4
		L648.1,791.4 L648.3,791.4 L648.5,791.5 L648.6,791.5 L648.8,791.5 L649.0,791.6 L649.2,791.6 L649.4,791.6
		L649.5,791.6 L649.7,791.7 L649.9,791.7 L650.1,791.7 L650.3,791.7 L650.5,791.8 L650.6,791.8 L650.8,791.8
		L651.0,791.8 L651.2,791.9 L651.4,791.9 L651.6,791.9 L651.7,791.9 L651.9,792.0 L652.1,792.0 L652.3,792.0
		L652.5,792.0 L652.6,792.1 L652.8,792.1 L653.0,792.1 L653.2,792.1 L653.4,792.2 L653.6,792.2 L653.7,792.2
		L653.9,792.2 L654.1,792.2 L654.3,792.3 L654.5,792.3 L654.7,792.3 L654.8,792.3 L655.0,792.4 L655.2,792.4
		L655.4,792.4 L655.6,792.4 L655.7,792.5 L655.9,792.5 L656.1,792.5 L656.3,792.5 L656.5,792.5 L656.7,792.6
		L656.8,792.6 L657.0,792.6 L657.2,792.6 L657.4,792.7 L657.6,792.7 L657.8,792.7 L657.9,792.7 L658.1,792.8
		L658.3,792.8 L658.5,792.8 L658.7,792.8 L658.8,792.8 L659.0,792.9 L659.2,792.9 L659.4,792.9 L659.6,792.9
		L659.8,793.0 L659.9,793.0 L660.1,793.0 L660.3,793.0 L660.5,793.1 L660.7,793.1 L660.9,793.1 L661.0,793.1
		L661.2,793.1 L661.4,793.2 L661.6,793.2 L661.8,793.2 L661.9,793.2 L662.1,793.3 L662.3,793.3 L662.5,793.3
		L662.7,793.3 L662.9,793.3 L663.0,793.4 L663.2,793.4 L663.4,793.4 L663.6,793.4 L663.8,793.4 L664.0,793.5
		L664.1,793.5 L664.3,793.5 L664.5,793.5 L664.7,793.5 L664.9,793.6 L665.1,793.6 L665.2,793.6 L665.4,793.6
		L665.6,793.7 L665.8,793.7 L666.0,793.7 L666.1,793.7 L666.3,793.7 L666.5,793.8 L666.7,793.8 L666.9,793.8
		L667.1,793.8 L667.2,793.9 L667.4,793.9 L667.6,793.9 L667.8,793.9 L668.0,793.9 L668.2,793.9 L668.3,794.0
		L668.5,794.0 L668.7,794.0 L668.9,794.0 L669.1,794.1 L669.2,794.1 L669.4,794.1 L669.6,794.1 L669.8,794.1
		L670.0,794.2 L670.2,794.2 L670.3,794.2 L670.5,794.2 L670.7,794.2 L670.9,794.3 L671.1,794.3 L671.3,794.3
		L671.4,794.3 L671.6,794.3 L671.8,794.4 L672.0,794.4 L672.2,794.4 L672.3,794.4 L672.5,794.4 L672.7,794.5
		L672.9,794.5 L673.1,794.5 L673.3,794.5 L673.4,794.5 L673.6,794.5 L673.8,794.6 L674.0,794.6 L674.2,794.6
		L674.4,794.6 L674.5,794.6 L674.7,794.7 L674.9,794.7 L675.1,794.7 L675.3,794.7 L675.4,794.7 L675.6,794.8
		L675.8,794.8 L676.0,794.8 L676.2,794.8 L676.4,794.8 L676.5,794.9 L676.7,794.9 L676.9,794.9 L677.1,794.9
		L677.3,794.9 L677.5,795.0 L677.6,795.0 L677.8,795.0 L678.0,795.0 L678.2,795.0 L678.4,795.0 L678.5,795.1
		L678.7,795.1 L678.9,795.1 L679.1,795.1 L679.3,795.1 L679.5,795.2 L679.6,795.2 L679.8,795.2 L680.0,795.2
		L680.2,795.2 L680.4,795.2 L680.6,795.3 L680.7,795.3 L680.9,795.3 L681.1,795.3 L681.3,795.3 L681.5,795.4
		L681.6,795.4 L681.8,795.4 L682.0,795.4 L682.2,795.4 L682.4,795.4 L682.6,795.5 L682.7,795.5 L682.9,795.5
		L683.1,795.5 L683.3,795.5 L683.5,795.6 L683.7,795.6 L683.8,795.6 L684.0,795.6 L684.2,795.6 L684.4,795.6
		L684.6,795.7 L684.7,795.7 L684.9,795.7 L685.1,795.7 L685.3,795.7 L685.5,795.7 L685.7,795.8 L685.8,795.8
		L686.0,795.8 L686.2,795.8 L686.4,795.8 L686.6,795.8 L686.8,795.9 L686.9,795.9 L687.1,795.9 L687.3,795.9
		L687.5,795.9 L687.7,796.0 L687.8,796.0 L688.0,796.0 L688.2,796.0 L688.4,796.0 L688.6,796.0 L688.8,796.1
		L688.9,796.1 L689.1,796.1 L689.3,796.1 L689.5,796.1 L689.7,796.1 L689.9,796.2 L690.0,796.2 L690.2,796.2
		L690.4,796.2 L690.6,796.2 L690.8,796.2 L690.9,796.3 L691.1,796.3 L691.3,796.3 L691.5,796.3 L691.7,796.3
		L691.9,796.3 L692.0,796.4 L692.2,796.4 L692.4,796.4 L692.6,796.4 L692.8,796.4 L693.0,796.4 L693.1,796.5
		L693.3,796.5 L693.5,796.5 L693.7,796.5 L693.9,796.5 L694.0,796.5 L694.2,796.5 L694.4,796.6 L694.6,796.6
		L694.8,796.6 L695.0,796.6 L695.1,796.6 L695.3,796.6 L695.5,796.7 L695.7,796.7 L695.9,796.7 L696.1,796.7
		L696.2,796.7 L696.4,796.8 L696.6,796.8 L696.8,796.8 L697.0,796.8 L697.2,796.8 L697.3,796.8 L697.5,796.8
		L697.7,796.9 L697.9,796.9 L698.1,796.9 L698.2,796.9 L698.4,796.9 L698.6,796.9 L698.8,797.0 L699.0,797.0
		L699.2,797.0 L699.3,797.0 L699.5,797.0 L699.7,797.0 L699.9,797.1 L700.1,797.1 L700.3,797.1 L700.4,797.1
		L700.6,797.1 L700.8,797.1 L701.0,797.2 L701.2,797.2 L701.3,797.2 L701.5,797.2 L701.7,797.2 L701.9,797.2
		L702.1,797.2 L702.3,797.3 L702.4,797.3 L702.6,797.3 L702.8,797.3 L703.0,797.3 L703.2,797.3 L703.4,797.4
		L703.5,797.4 L703.7,797.4 L703.9,797.4 L704.1,797.4 L704.3,797.4 L704.4,797.4 L704.6,797.5 L704.8,797.5
		L705.0,797.5 L705.2,797.5 L705.4,797.5 L705.5,797.5 L705.7,797.6 L705.9,797.6 L706.1,797.6 L706.3,797.6
		L706.5,797.6 L706.6,797.6 L706.8,797.6 L707.0,797.7 L707.2,797.7 L707.4,797.7 L707.5,797.7 L707.7,797.7
		L707.9,797.7 L708.1,797.8 L708.3,797.8 L708.5,797.8 L708.6,797.8 L708.8,797.8 L709.0,797.8 L709.2,797.8
		L709.4,797.8 L709.6,797.9 L709.7,797.9 L709.9,797.9 L710.1,797.9 L710.3,797.9 L710.5,797.9 L710.6,798.0
		L710.8,798.0 L711.0,798.0 L711.2,798.0 L711.4,798.0 L711.6,798.0 L711.7,798.0 L711.9,798.1 L712.1,798.1
		L712.3,798.1 L712.5,798.1 L712.7,798.1 L712.8,798.1 L713.0,798.2 L713.2,798.2 L713.4,798.2 L713.6,798.2
		L713.7,798.2 L713.9,798.2 L714.1,798.2 L714.3,798.2 L714.5,798.3 L714.7,798.3 L714.8,798.3 L715.0,798.3
		L715.2,798.3 L715.4,798.3 L715.6,798.4 L715.8,798.4 L715.9,798.4 L716.1,798.4 L716.3,798.4 L716.5,798.4
		L716.7,798.4 L716.8,798.5 L717.0,798.5 L717.2,798.5 L717.4,798.5 L717.6,798.5 L717.8,798.5 L717.9,798.5
		L718.1,798.6 L718.3,798.6 L718.5,798.6 L718.7,798.6 L718.9,798.6 L719.0,798.6 L719.2,798.7 L719.4,798.7
		L719.6,798.7 L719.8,798.7 L719.9,798.7 L720.1,798.7 L720.3,798.7 L720.5,798.7 L720.7,798.8 L720.9,798.8
		L721.0,798.8 L721.2,798.8 L721.4,798.8 L721.6,798.8 L721.8,798.8 L722.0,798.8 L722.1,798.9 L722.3,798.9
		L722.5,798.9 L722.7,798.9 L722.9,798.9 L723.0,798.9 L723.2,798.9 L723.4,799.0 L723.6,799.0 L723.8,799.0
		L724.0,799.0 L724.1,799.0 L724.3,799.0 L724.5,799.0 L724.7,799.1 L724.9,799.1 L725.1,799.1 L725.2,799.1
		L725.4,799.1 L725.6,799.1 L725.8,799.1 L726.0,799.2 L726.2,799.2 L726.3,799.2 L726.5,799.2 L726.7,799.2
		L726.9,799.2 L727.1,799.2 L727.2,799.3 L727.4,799.3 L727.6,799.3 L727.8,799.3 L728.0,799.3 L728.2,799.3
		L728.3,799.3 L728.5,799.3 L728.7,799.4 L728.9,799.4 L729.1,799.4 L729.3,799.4 L729.4,799.4 L729.6,799.4
		L729.8,799.4 L730.0,799.4 L730.2,799.5 L730.3,799.5 L730.5,799.5 L730.7,799.5 L730.9,799.5 L731.1,799.5
		L731.3,799.5 L731.4,799.5 L731.6,799.6 L731.8,799.6 L732.0,799.6 L732.2,799.6 L732.4,799.6 L732.5,799.6
		L732.7,799.6 L732.9,799.6 L733.1,799.6 L733.3,799.7 L733.4,799.7 L733.6,799.7 L733.8,799.7 L734.0,799.7
		L734.2,799.7 L734.4,799.7 L734.5,799.8 L734.7,799.8 L734.9,799.8 L735.1,799.8 L735.3,799.8 L735.5,799.8
		L735.6,799.8 L735.8,799.8 L736.0,799.9 L736.2,799.9 L736.4,799.9 L736.5,799.9 L736.7,799.9 L736.9,799.9
		L737.1,799.9 L737.3,800.0 L737.5,800.0 L737.6,800.0 L737.8,800.0 L738.0,800.0 L738.2,800.0 L738.4,800.0
		L738.6,800.0 L738.7,800.1 L738.9,800.1 L739.1,800.1 L739.3,800.1 L739.5,800.1 L739.6,800.1 L739.8,800.1
		L740.0,800.1 L740.2,800.2 L740.4,800.2 L740.6,800.2 L740.7,800.2 L740.9,800.2 L741.1,800.2 L741.3,800.2
		L741.5,800.2 L741.7,800.3 L741.8,800.3 L742.0,800.3 L742.2,800.3 L742.4,800.3 L742.6,800.3 L742.7,800.3
		L742.9,800.3 L743.1,800.3 L743.3,800.4 L743.5,800.4 L743.7,800.4 L743.8,800.4 L744.0,800.4 L744.2,800.4
		L744.4,800.4 L744.6,800.4 L744.8,800.5 L744.9,800.5 L745.1,800.5 L745.3,800.5 L745.5,800.5 L745.7,800.5
		L745.8,800.5 L746.0,800.5 L746.2,800.5 L746.4,800.6 L746.6,800.6 L746.8,800.6 L746.9,800.6 L747.1,800.6
		L747.3,800.6 L747.5,800.6 L747.7,800.6 L747.9,800.6 L748.0,800.7 L748.2,800.7 L748.4,800.7 L748.6,800.7
		L748.8,800.7 L748.9,800.7 L749.1,800.7 L749.3,800.7 L749.5,800.8 L749.7,800.8 L749.9,800.8 L750.0,800.8
		L750.2,800.8 L750.4,800.8 L750.6,800.8 L750.8,800.8 L751.0,800.8 L751.1,800.9 L751.3,800.9 L751.5,800.9
		L751.7,800.9 L751.9,800.9 L752.0,800.9 L752.2,800.9 L752.4,800.9 L752.6,800.9 L752.8,801.0 L753.0,801.0
		L753.1,801.0 L753.3,801.0 L753.5,801.0 L753.7,801.0 L753.9,801.0 L754.1,801.0 L754.2,801.0 L754.4,801.1
		L754.6,801.1 L754.8,801.1 L755.0,801.1 L755.2,801.1 L755.3,801.1 L755.5,801.1 L755.7,801.1 L755.9,801.1
		L756.1,801.1 L756.2,801.2 L756.4,801.2 L756.6,801.2 L756.8,801.2 L757.0,801.2 L757.2,801.2 L757.3,801.2
		L757.5,801.2 L757.7,801.2 L757.9,801.2 L758.1,801.3 L758.3,801.3 L758.4,801.3 L758.6,801.3 L758.8,801.3
		L759.0,801.3 L759.2,801.3 L759.3,801.3 L759.5,801.3 L759.7,801.4 L759.9,801.4 L760.1,801.4 L760.3,801.4
		L760.4,801.4 L760.6,801.4 L760.8,801.4 L761.0,801.4 L761.2,801.4 L761.4,801.4 L761.5,801.5 L761.7,801.5
		L761.9,801.5 L762.1,801.5 L762.3,801.5 L762.4,801.5 L762.6,801.5 L762.8,801.5 L763.0,801.5 L763.2,801.5
		L763.4,801.5 L763.5,801.6 L763.7,801.6 L763.9,801.6 L764.1,801.6 L764.3,801.6 L764.5,801.6 L764.6,801.6
		L764.8,801.6 L765.0,801.6 L765.2,801.7 L765.4,801.7 L765.5,801.7 L765.7,801.7 L765.9,801.7 L766.1,801.7
		L766.3,801.7 L766.5,801.7 L766.6,801.7 L766.8,801.7 L767.0,801.7 L767.2,801.7 L767.4,801.8 L767.6,801.8
		L767.7,801.8 L767.9,801.8 L768.1,801.8 L768.3,801.8 L768.5,801.8 L768.6,801.8 L768.8,801.8 L769.0,801.8
		L769.2,801.9 L769.4,801.9 L769.6,801.9 L769.7,801.9 L769.9,801.9 L770.1,801.9 L770.3,801.9 L770.5,801.9
		L770.7,801.9 L770.8,801.9 L771.0,802.0 L771.2,802.0 L771.4,802.0 L771.6,802.0 L771.7,802.0 L771.9,802.0
		L772.1,802.0 L772.3,802.0 L772.5,802.0 L772.7,802.0 L772.8,802.0 L773.0,802.0 L773.2,802.0 L773.4,802.1
		L773.6,802.1 L773.8,802.1 L773.9,802.1 L774.1,802.1 L774.3,802.1 L774.5,802.1 L774.7,802.1 L774.8,802.1
		L775.0,802.2 L775.2,802.2 L775.4,802.2 L775.6,802.2 L775.8,802.2 L775.9,802.2 L776.1,802.2 L776.3,802.2
		L776.5,802.2 L776.7,802.2 L776.9,802.2 L777.0,802.2 L777.2,802.2 L777.4,802.3 L777.6,802.3 L777.8,802.3
		L777.9,802.3 L778.1,802.3 L778.3,802.3 L778.5,802.3 L778.7,802.3 L778.9,802.3 L779.0,802.3 L779.2,802.3
		L779.4,802.4 L779.6,802.4 L779.8,802.4 L780.0,802.4 L780.1,802.4 L780.3,802.4 L780.5,802.4 L780.7,802.4
		L780.9,802.4 L781.0,802.4 L781.2,802.4 L781.4,802.4 L781.6,802.4 L781.8,802.5 L782.0,802.5 L782.1,802.5
		L782.3,802.5 L782.5,802.5 L782.7,802.5 L782.9,802.5 L783.1,802.5 L783.2,802.5 L783.4,802.5 L783.6,802.5
		L783.8,802.6 L784.0,802.6 L784.2,802.6 L784.3,802.6 L784.5,802.6 L784.7,802.6 L784.9,802.6 L785.1,802.6
		L785.2,802.6 L785.4,802.6 L785.6,802.6 L785.8,802.6 L786.0,802.6 L786.2,802.7 L786.3,802.7 L786.5,802.7
		L786.7,802.7 L786.9,802.7 L787.1,802.7 L787.3,802.7 L787.4,802.7 L787.6,802.7 L787.8,802.7 L788.0,802.7
		L788.2,802.7 L788.3,802.7 L788.5,802.7 L788.7,802.8 L788.9,802.8 L789.1,802.8 L789.3,802.8 L789.4,802.8
		L789.6,802.8 L789.8,802.8 L790.0,802.8 L790.2,802.8 L790.4,802.8 L790.5,802.8 L790.7,802.8 L790.9,802.9
		L791.1,802.9 L791.3,802.9 L791.4,802.9 L791.6,802.9 L791.8,802.9 L792.0,802.9 L792.2,802.9 L792.4,802.9
		L792.5,802.9 L792.7,802.9 L792.9,802.9 L793.1,802.9 L793.3,803.0 L793.5,803.0 L793.6,803.0 L793.8,803.0
		L794.0,803.0 L794.2,803.0 L794.4,803.0 L794.5,803.0 L794.7,803.0 L794.9,803.0 L795.1,803.0 L795.3,803.0
		L795.5,803.0 L795.6,803.1 L795.8,803.1 L796.0,803.1 L796.2,803.1 L796.4,803.1 L796.6,803.1 L796.7,803.1
		L796.9,803.1 L797.1,803.1 L797.3,803.1 L797.5,803.1 L797.6,803.1 L797.8,803.1 L798.0,803.2 L798.2,803.2
		L798.4,803.2 L798.6,803.2 L798.7,803.2 L798.9,803.2 L799.1,803.2 L799.3,803.2 L799.5,803.2 L799.7,803.2
		L799.8,803.2 L800.0,803.2 L800.2,803.2 L800.4,803.2 L800.6,803.2 L800.7,803.3 L800.9,803.3 L801.1,803.3
		L801.3,803.3 L801.5,803.3 L801.7,803.3 L801.8,803.3 L802.0,803.3 L802.2,803.3 L802.4,803.3 L802.6,803.3
		L802.8,803.3 L802.9,803.3 L803.1,803.3 L803.3,803.4 L803.5,803.4 L803.7,803.4 L803.8,803.4 L804.0,803.4
		L804.2,803.4 L804.4,803.4 L804.6,803.4 L804.8,803.4 L804.9,803.4 L805.1,803.4 L805.3,803.4 L805.5,803.4
		L805.7,803.4 L805.9,803.4 L806.0,803.5 L806.2,803.5 L806.4,803.5 L806.6,803.5 L806.8,803.5 L806.9,803.5
		L807.1,803.5 L807.3,803.5 L807.5,803.5 L807.7,803.5 L807.9,803.5 L808.0,803.5 L808.2,803.5 L808.4,803.5
		L808.6,803.5 L808.8,803.6 L809.0,803.6 L809.1,803.6 L809.3,803.6 L809.5,803.6 L809.7,803.6 L809.9,803.6
		L810.0,803.6 L810.2,803.6 L810.4,803.6 L810.6,803.6 L810.8,803.6 L811.0,803.6 L811.1,803.6 L811.3,803.6
		L811.5,803.6 L811.7,803.6 L811.9,803.6 L812.1,803.7 L812.2,803.7 L812.4,803.7 L812.6,803.7 L812.8,803.7
		L813.0,803.7 L813.2,803.7 L813.3,803.7 L813.5,803.7 L813.7,803.7 L813.9,803.7 L814.1,803.7 L814.2,803.7
		L814.4,803.7 L814.6,803.7 L814.8,803.7 L815.0,803.8 L815.2,803.8 L815.3,803.8 L815.5,803.8 L815.7,803.8
		L815.9,803.8 L816.1,803.8 L816.3,803.8 L816.4,803.8 L816.6,803.8 L816.8,803.8 L817.0,803.8 L817.2,803.8
		L817.3,803.8 L817.5,803.8 L817.7,803.8 L817.9,803.9 L818.1,803.9 L818.3,803.9 L818.4,803.9 L818.6,803.9
		L818.8,803.9 L819.0,803.9 L819.2,803.9 L819.4,803.9 L819.5,803.9 L819.7,803.9 L819.9,803.9 L820.1,803.9
		L820.3,803.9 L820.4,803.9 L820.6,803.9 L820.8,803.9 L821.0,804.0 L821.2,804.0 L821.4,804.0 L821.5,804.0
		L821.7,804.0 L821.9,804.0 L822.1,804.0 L822.3,804.0 L822.5,804.0 L822.6,804.0 L822.8,804.0 L823.0,804.0
		L823.2,804.0 L823.4,804.0 L823.5,804.0 L823.7,804.0 L823.9,804.1 L824.1,804.1 L824.3,804.1 L824.5,804.1
		L824.6,804.1 L824.8,804.1 L825.0,804.1 L825.2,804.1 L825.4,804.1 L825.6,804.1 L825.7,804.1 L825.9,804.1
		L826.1,804.1 L826.3,804.1 L826.5,804.1 L826.6,804.1 L826.8,804.1 L827.0,804.1 L827.2,804.2 L827.4,804.2
		L827.6,804.2 L827.7,804.2 L827.9,804.2 L828.1,804.2 L828.3,804.2 L828.5,804.2 L828.7,804.2 L828.8,804.2
		L829.0,804.2 L829.2,804.2 L829.4,804.2 L829.6,804.2 L829.7,804.2 L829.9,804.2 L830.1,804.2 L830.3,804.2
		L830.5,804.2 L830.7,804.2 L830.8,804.3 L831.0,804.3 L831.2,804.3 L831.4,804.3 L831.6,804.3 L831.8,804.3
		L831.9,804.3 L832.1,804.3 L832.3,804.3 L832.5,804.3 L832.7,804.3 L832.8,804.3 L833.0,804.3 L833.2,804.3
		L833.4,804.3 L833.6,804.3 L833.8,804.3 L833.9,804.3 L834.1,804.3 L834.3,804.3 L834.5,804.4 L834.7,804.4
		L834.9,804.4 L835.0,804.4 L835.2,804.4 L835.4,804.4 L835.6,804.4 L835.8,804.4 L835.9,804.4 L836.1,804.4
		L836.3,804.4 L836.5,804.4 L836.7,804.4 L836.9,804.4 L837.0,804.4 L837.2,804.4 L837.4,804.4 L837.6,804.4
		L837.8,804.4 L838.0,804.4 L838.1,804.5 L838.3,804.5 L838.5,804.5 L838.7,804.5 L838.9,804.5 L839.0,804.5
		L839.2,804.5 L839.4,804.5 L839.6,804.5 L839.8,804.5 L840.0,804.5 L840.1,804.5 L840.3,804.5 L840.5,804.5
		L840.7,804.5 L840.9,804.5 L841.1,804.5 L841.2,804.5 L841.4,804.5 L841.6,804.5 L841.8,804.5 L842.0,804.5
		L842.2,804.6 L842.3,804.6 L842.5,804.6 L842.7,804.6 L842.9,804.6 L843.1,804.6 L843.2,804.6 L843.4,804.6
		L843.6,804.6 L843.8,804.6 L844.0,804.6 L844.2,804.6 L844.3,804.6 L844.5,804.6 L844.7,804.6 L844.9,804.6
		L845.1,804.6 L845.3,804.6 L845.4,804.6 L845.6,804.6 L845.8,804.6 L846.0,804.6 L846.2,804.7 L846.3,804.7
		L846.5,804.7 L846.7,804.7 L846.9,804.7 L847.1,804.7 L847.3,804.7 L847.4,804.7 L847.6,804.7 L847.8,804.7
		L848.0,804.7 L848.2,804.7 L848.4,804.7 L848.5,804.7 L848.7,804.7 L848.9,804.7 L849.1,804.7 L849.3,804.7
		L849.4,804.7 L849.6,804.7 L849.8,804.7 L850.0,804.7 L850.2,804.8 L850.4,804.8 L850.5,804.8 L850.7,804.8
		L850.9,804.8 L851.1,804.8 L851.3,804.8 L851.5,804.8 L851.6,804.8 L851.8,804.8 L852.0,804.8 L852.2,804.8
		L852.4,804.8 L852.5,804.8 L852.7,804.8 L852.9,804.8 L853.1,804.8 L853.3,804.8 L853.5,804.8 L853.6,804.8
		L853.8,804.8 L854.0,804.8 L854.2,804.9 L854.4,804.9 L854.6,804.9 L854.7,804.9 L854.9,804.9 L855.1,804.9
		L855.3,804.9 L855.5,804.9 L855.6,804.9 L855.8,804.9 L856.0,804.9 L856.2,804.9 L856.4,804.9 L856.6,804.9
		L856.7,804.9 L856.9,804.9 L857.1,804.9 L857.3,804.9 L857.5,804.9 L857.7,804.9 L857.8,804.9 L858.0,804.9
		L858.2,804.9 L858.4,804.9 L858.6,804.9 L858.7,804.9 L858.9,804.9 L859.1,805.0 L859.3,805.0 L859.5,805.0
		L859.7,805.0 L859.8,805.0 L860.0,805.0 L860.2,805.0 L860.4,805.0 L860.6,805.0 L860.8,805.0 L860.9,805.0
		L861.1,805.0 L861.3,805.0 L861.5,805.0 L861.7,805.0 L861.8,805.0 L862.0,805.0 L862.2,805.0 L862.4,805.0
		L862.6,805.0 L862.8,805.0 L862.9,805.0 L863.1,805.0 L863.3,805.0 L863.5,805.0 L863.7,805.1 L863.9,805.1
		L864.0,805.1 L864.2,805.1 L864.4,805.1 L864.6,805.1 L864.8,805.1 L864.9,805.1 L865.1,805.1 L865.3,805.1
		L865.5,805.1 L865.7,805.1 L865.9,805.1 L866.0,805.1 L866.2,805.1 L866.4,805.1 L866.6,805.1 L866.8,805.1
		L867.0,805.1 L867.1,805.1 L867.3,805.1 L867.5,805.1 L867.7,805.1 L867.9,805.1 L868.0,805.1 L868.2,805.1
		L868.4,805.2 L868.6,805.2 L868.8,805.2 L869.0,805.2 L869.1,805.2 L869.3,805.2 L869.5,805.2 L869.7,805.2
		L869.9,805.2 L870.1,805.2 L870.2,805.2 L870.4,805.2 L870.6,805.2 L870.8,805.2 L871.0,805.2 L871.1,805.2
		L871.3,805.2 L871.5,805.2 L871.7,805.2 L871.9,805.2 L872.1,805.2 L872.2,805.2 L872.4,805.2 L872.6,805.2
		L872.8,805.2 L873.0,805.2 L873.2,805.2 L873.3,805.3 L873.5,805.3 L873.7,805.3 L873.9,805.3 L874.1,805.3
		L874.3,805.3 L874.4,805.3 L874.6,805.3 L874.8,805.3 L875.0,805.3 L875.2,805.3 L875.3,805.3 L875.5,805.3
		L875.7,805.3 L875.9,805.3 L876.1,805.3 L876.3,805.3 L876.4,805.3 L876.6,805.3 L876.8,805.3 L877.0,805.3
		L877.2,805.3 L877.4,805.3 L877.5,805.3 L877.7,805.3 L877.9,805.3 L878.1,805.3 L878.3,805.3 L878.4,805.3
		L878.6,805.3 L878.8,805.3 L879.0,805.3 L879.2,805.4 L879.4,805.4 L879.5,805.4 L879.7,805.4 L879.9,805.4
		L880.1,805.4 L880.3,805.4 L880.5,805.4 L880.6,805.4 L880.8,805.4 L881.0,805.4 L881.2,805.4 L881.4,805.4
		L881.5,805.4 L881.7,805.4 L881.9,805.4 L882.1,805.4 L882.3,805.4 L882.5,805.4 L882.6,805.4 L882.8,805.4
		L883.0,805.4 L883.2,805.4 L883.4,805.4 L883.6,805.4 L883.7,805.4 L883.9,805.4 L884.1,805.4 L884.3,805.4
		L884.5,805.4 L884.6,805.5 L884.8,805.5 L885.0,805.5 L885.2,805.5 L885.4,805.5 L885.6,805.5 L885.7,805.5
		L885.9,805.5 L886.1,805.5 L886.3,805.5 L886.5,805.5 L886.7,805.5 L886.8,805.5 L887.0,805.5 L887.2,805.5
		L887.4,805.5 L887.6,805.5 L887.7,805.5 L887.9,805.5 L888.1,805.5 L888.3,805.5 L888.5,805.5 L888.7,805.5
		L888.8,805.5 L889.0,805.5 L889.2,805.5 L889.4,805.5 L889.6,805.5 L889.8,805.5 L889.9,805.5 L890.1,805.5
		L890.3,805.6 L890.5,805.6 L890.7,805.6 L890.8,805.6 L891.0,805.6 L891.2,805.6 L891.4,805.6 L891.6,805.6
		L891.8,805.6 L891.9,805.6 L892.1,805.6 L892.3,805.6 L892.5,805.6 L892.7,805.6 L892.9,805.6 L893.0,805.6
		L893.2,805.6 L893.4,805.6 L893.6,805.6 L893.8,805.6 L893.9,805.6 L894.1,805.6 L894.3,805.6 L894.5,805.6
		L894.7,805.6 L894.9,805.6 L895.0,805.6 L895.2,805.6 L895.4,805.6 L895.6,805.6 L895.8,805.6 L896.0,805.6
		L896.1,805.6 L896.3,805.6 L896.5,805.7 L896.7,805.7 L896.9,805.7 L897.0,805.7 L897.2,805.7 L897.4,805.7
		L897.6,805.7 L897.8,805.7 L898.0,805.7 L898.1,805.7 L898.3,805.7 L898.5,805.7 L898.7,805.7 L898.9,805.7
		L899.1,805.7 L899.2,805.7 L899.4,805.7 L899.6,805.7 L899.8,805.7 L900.0,805.7 L900.1,805.7 L900.3,805.7
		L900.5,805.7 L900.7,805.7 L900.9,805.7 L901.1,805.7 L901.2,805.7 L901.4,805.7 L901.6,805.7 L901.8,805.7
		L902.0,805.7 L902.2,805.7 L902.3,805.7 L902.5,805.8 L902.7,805.8 L902.9,805.8 L903.1,805.8 L903.3,805.8
		L903.4,805.8 L903.6,805.8 L903.8,805.8 L904.0,805.8 L904.2,805.8 L904.3,805.8 L904.5,805.8 L904.7,805.8
		L904.9,805.8 L905.1,805.8 L905.3,805.8 L905.4,805.8 L905.6,805.8 L905.8,805.8 L906.0,805.8 L906.2,805.8
		L906.4,805.8 L906.5,805.8 L906.7,805.8 L906.9,805.8 L907.1,805.8 L907.3,805.8 L907.4,805.8 L907.6,805.8
		L907.8,805.8 L908.0,805.8 L908.2,805.8 L908.4,805.8 L908.5,805.8 L908.7,805.8 L908.9,805.8 L909.1,805.8
		L909.3,805.9 L909.5,805.9 L909.6,805.9 L909.8,805.9 L910.0,805.9 L910.2,805.9 L910.4,805.9 L910.5,805.9
		L910.7,805.9 L910.9,805.9 L911.1,805.9 L911.3,805.9 L911.5,805.9 L911.6,805.9 L911.8,805.9 L912.0,805.9
		L912.2,805.9 L912.4,805.9 L912.6,805.9 L912.7,805.9 L912.9,805.9 L913.1,805.9 L913.3,805.9 L913.5,805.9
		L913.6,805.9 L913.8,805.9 L914.0,805.9 L914.2,805.9 L914.4,805.9 L914.6,805.9 L914.7,805.9 L914.9,805.9
		L915.1,805.9 L915.3,805.9 L915.5,805.9 L915.7,805.9 L915.8,805.9 L916.0,805.9 L916.2,805.9 L916.4,805.9
		L916.6,805.9 L916.7,806.0 L916.9,806.0 L917.1,806.0 L917.3,806.0 L917.5,806.0 L917.7,806.0 L917.8,806.0
		L918.0,806.0 L918.2,806.0 L918.4,806.0 L918.6,806.0 L918.8,806.0 L918.9,806.0 L919.1,806.0 L919.3,806.0
		L919.5,806.0 L919.7,806.0 L919.8,806.0 L920.0,806.0 L920.2,806.0 L920.4,806.0 L920.6,806.0 L920.8,806.0
		L920.9,806.0 L921.1,806.0 L921.3,806.0 L921.5,806.0 L921.7,806.0 L921.9,806.0 L922.0,806.0 L922.2,806.0
		L922.4,806.0 L922.6,806.0 L922.8,806.0 L922.9,806.0 L923.1,806.0 L923.3,806.0 L923.5,806.0 L923.7,806.0
		L923.9,806.0 L924.0,806.0 L924.2,806.0 L924.4,806.1 L924.6,806.1 L924.8,806.1 L925.0,806.1 L925.1,806.1
		L925.3,806.1 L925.5,806.1 L925.7,806.1 L925.9,806.1 L926.0,806.1 L926.2,806.1 L926.4,806.1 L926.6,806.1
		L926.8,806.1 L927.0,806.1 L927.1,806.1 L927.3,806.1 L927.5,806.1 L927.7,806.1 L927.9,806.1 L928.1,806.1
		L928.2,806.1 L928.4,806.1 L928.6,806.1 L928.8,806.1 L929.0,806.1 L929.1,806.1 L929.3,806.1 L929.5,806.1
		L929.7,806.1 L929.9,806.1 L930.1,806.1 L930.2,806.1 L930.4,806.1 L930.6,806.1 L930.8,806.1 L931.0,806.1
		L931.2,806.1 L931.3,806.1 L931.5,806.1 L931.7,806.1 L931.9,806.2 L932.1,806.2 L932.3,806.2 L932.4,806.2
		L932.6,806.2 L932.8,806.2 L933.0,806.2 L933.2,806.2 L933.3,806.2 L933.5,806.2 L933.7,806.2 L933.9,806.2
		L934.1,806.2 L934.3,806.2 L934.4,806.2 L934.6,806.2 L934.8,806.2 L935.0,806.2 L935.2,806.2 L935.4,806.2
		L935.5,806.2 L935.7,806.2 L935.9,806.2 L936.1,806.2 L936.3,806.2 L936.4,806.2 L936.6,806.2 L936.8,806.2
		L937.0,806.2 L937.2,806.2 L937.4,806.2 L937.5,806.2 L937.7,806.2 L937.9,806.2 L938.1,806.2 L938.3,806.2
		L938.5,806.2 L938.6,806.2 L938.8,806.2 L939.0,806.2 L939.2,806.2 L939.4,806.2 L939.5,806.2 L939.7,806.2
		L939.9,806.2 L940.1,806.3 L940.3,806.3 L940.5,806.3 L940.6,806.3 L940.8,806.3 L941.0,806.3 L941.2,806.3
		L941.4,806.3 L941.6,806.3 L941.7,806.3 L941.9,806.3 L942.1,806.3 L942.3,806.3 L942.5,806.3 L942.6,806.3
		L942.8,806.3 L943.0,806.3 L943.2,806.3 L943.4,806.3 L943.6,806.3 L943.7,806.3 L943.9,806.3 L944.1,806.3
		L944.3,806.3 L944.5,806.3 L944.7,806.3 L944.8,806.3 L945.0,806.3 L945.2,806.3 L945.4,806.3 L945.6,806.3
		L945.7,806.3 L945.9,806.3 L946.1,806.3 L946.3,806.3 L946.5,806.3 L946.7,806.3 L946.8,806.3 L947.0,806.3
		L947.2,806.3 L947.4,806.3 L947.6,806.3 L947.8,806.3 L947.9,806.3 L948.1,806.3 L948.3,806.3 L948.5,806.3
		L948.7,806.3 L948.8,806.3 L949.0,806.4 L949.2,806.4 L949.4,806.4 L949.6,806.4 L949.8,806.4 L949.9,806.4
		L950.1,806.4 L950.3,806.4 L950.5,806.4 L950.7,806.4 L950.9,806.4 L951.0,806.4 L951.2,806.4 L951.4,806.4
		L951.6,806.4 L951.8,806.4 L951.9,806.4 L952.1,806.4 L952.3,806.4 L952.5,806.4 L952.7,806.4 L952.9,806.4
		L953.0,806.4 L953.2,806.4 L953.4,806.4 L953.6,806.4 L953.8,806.4 L954.0,806.4 L954.1,806.4 L954.3,806.4
		L954.5,806.4 L954.7,806.4 L954.9,806.4 L955.0,806.4 L955.2,806.4 L955.4,806.4 L955.6,806.4 L955.8,806.4
		L956.0,806.4 L956.1,806.4 L956.3,806.4 L956.5,806.4 L956.7,806.4 L956.9,806.4 L957.1,806.4 L957.2,806.4
		L957.4,806.4 L957.6,806.4 L957.8,806.5 L958.0,806.5 L958.1,806.5 L958.3,806.5 L958.5,806.5 L958.7,806.5
		L958.9,806.5 L959.1,806.5 L959.2,806.5 L959.4,806.5 L959.6,806.5 L959.8,806.5 L960.0,806.5 L960.2,806.5
		L960.3,806.5 L960.5,806.5 L960.7,806.5 L960.9,806.5 L961.1,806.5 L961.3,806.5 L961.4,806.5 L961.6,806.5
		L961.8,806.5 L962.0,806.5 L962.2,806.5 L962.3,806.5 L962.5,806.5 L962.7,806.5 L962.9,806.5 L963.1,806.5
		L963.3,806.5 L963.4,806.5 L963.6,806.5 L963.8,806.5 L964.0,806.5 L964.2,806.5 L964.4,806.5 L964.5,806.5
		L964.7,806.5 L964.9,806.5 L965.1,806.5 L965.3,806.5 L965.4,806.5 L965.6,806.5 L965.8,806.5 L966.0,806.5
		L966.2,806.5 L966.4,806.5 L966.5,806.5 L966.7,806.5 L966.9,806.5 L967.1,806.5 L967.3,806.5 L967.5,806.5
		L967.6,806.5 L967.8,806.5 L968.0,806.6 L968.2,806.6 L968.4,806.6 L968.5,806.6 L968.7,806.6 L968.9,806.6
		L969.1,806.6 L969.3,806.6 L969.5,806.6 L969.6,806.6 L969.8,806.6 L970.0,806.6 L970.2,806.6 L970.4,806.6
		L970.6,806.6 L970.7,806.6 L970.9,806.6 L971.1,806.6 L971.3,806.6 L971.5,806.6 L971.6,806.6 L971.8,806.6
		L972.0,806.6 L972.2,806.6 L972.4,806.6 L972.6,806.6 L972.7,806.6 L972.9,806.6 L973.1,806.6 L973.3,806.6
		L973.5,806.6 L973.7,806.6 L973.8,806.6 L974.0,806.6 L974.2,806.6 L974.4,806.6 L974.6,806.6 L974.7,806.6
		L974.9,806.6 L975.1,806.6 L975.3,806.6 L975.5,806.6 L975.7,806.6 L975.8,806.6 L976.0,806.6 L976.2,806.6
		L976.4,806.6 L976.6,806.6 L976.8,806.6 L976.9,806.6 L977.1,806.6 L977.3,806.6 L977.5,806.6 L977.7,806.7
		L977.8,806.7 L978.0,806.7 L978.2,806.7 L978.4,806.7 L978.6,806.7 L978.8,806.7 L978.9,806.7 L979.1,806.7
		L979.3,806.7 L979.5,806.7 L979.7,806.7 L979.9,806.7 L980.0,806.7 L980.2,806.7 L980.4,806.7 L980.6,806.7
		L980.8,806.7 L980.9,806.7 L981.1,806.7 L981.3,806.7 L981.5,806.7 L981.7,806.7 L981.9,806.7 L982.0,806.7
		L982.2,806.7 L982.4,806.7 L982.6,806.7 L982.8,806.7 L983.0,806.7 L983.1,806.7 L983.3,806.7 L983.5,806.7
		L983.7,806.7 L983.9,806.7 L984.0,806.7 L984.2,806.7 L984.4,806.7 L984.6,806.7 L984.8,806.7 L985.0,806.7
		L985.1,806.7 L985.3,806.7 L985.5,806.7 L985.7,806.7 L985.9,806.7 L986.1,806.7 L986.2,806.7 L986.4,806.7
		L986.6,806.7 L986.8,806.7 L987.0,806.7 L987.1,806.7 L987.3,806.7 L987.5,806.7 L987.7,806.7 L987.9,806.7
		L988.1,806.7 L988.2,806.7 L988.4,806.7 L988.6,806.7 L988.8,806.7 L989.0,806.7 L989.2,806.7 L989.3,806.7
		L989.5,806.7 L989.7,806.7 L989.9,806.7 L990.1,806.8 L990.3,806.8 L990.4,806.8 L990.6,806.8 L990.8,806.8
		L991.0,806.8 L991.2,806.8 L991.3,806.8 L991.5,806.8 L991.7,806.8 L991.9,806.8 L992.1,806.8 L992.3,806.8
		L992.4,806.8 L992.6,806.8 L992.8,806.8 L993.0,806.8 L993.2,806.8 L993.4,806.8 L993.5,806.8 L993.7,806.8
		L993.9,806.8 L994.1,806.8 L994.3,806.8 L994.4,806.8 L994.6,806.8 L994.8,806.8 L995.0,806.8 L995.2,806.8
		L995.4,806.8 L995.5,806.8 L995.7,806.8 L995.9,806.8 L996.1,806.8 L996.3,806.8 L996.5,806.8 L996.6,806.8
		L996.8,806.8 L997.0,806.8 L997.2,806.8 L997.4,806.8 L997.5,806.8 L997.7,806.8 L997.9,806.8 L998.1,806.8
		L998.3,806.8 L998.5,806.8 L998.6,806.8 L998.8,806.8 L999.0,806.8 L999.2,806.8 L999.4,806.8 L999.6,806.8
		L999.7,806.8 L999.9,806.8 L1000.1,806.8 L1000.3,806.8 L1000.5,806.8 L1000.6,806.8 L1000.8,806.8 L1001.0,806.9
		L1001.2,806.9 L1001.4,806.9 L1001.6,806.9 L1001.7,806.9 L1001.9,806.9 L1002.1,806.9 L1002.3,806.9 L1002.5,806.9
		L1002.7,806.9 L1002.8,806.9 L1003.0,806.9 L1003.2,806.9 L1003.4,806.9 L1003.6,806.9 L1003.7,806.9 L1003.9,806.9
		L1004.1,806.9 L1004.3,806.9 L1004.5,806.9 L1004.7,806.9 L1004.8,806.9 L1005.0,806.9 L1005.2,806.9 L1005.4,806.9
		L1005.6,806.9 L1005.8,806.9 L1005.9,806.9 L1006.1,806.9 L1006.3,806.9 L1006.5,806.9 L1006.7,806.9 L1006.8,806.9
		L1007.0,806.9 L1007.2,806.9 L1007.4,806.9 L1007.6,806.9 L1007.8,806.9 L1007.9,806.9 L1008.1,806.9 L1008.3,806.9
		L1008.5,806.9 L1008.7,806.9 L1008.9,806.9 L1009.0,806.9 L1009.2,806.9 L1009.4,806.9 L1009.6,806.9 L1009.8,806.9
		L1009.9,806.9 L1010.1,806.9 L1010.3,806.9 L1010.5,806.9 L1010.7,806.9 L1010.9,806.9 L1011.0,806.9 L1011.2,806.9
		L1011.4,806.9 L1011.6,806.9 L1011.8,806.9 L1012.0,806.9 L1012.1,806.9 L1012.3,806.9 L1012.5,806.9 L1012.7,806.9
		L1012.9,806.9 L1013.0,806.9 L1013.2,806.9 L1013.4,806.9 L1013.6,806.9 L1013.8,806.9 L1014.0,806.9 L1014.1,807.0
		L1014.3,807.0 L1014.5,807.0 L1014.7,807.0 L1014.9,807.0 L1015.1,807.0 L1015.2,807.0 L1015.4,807.0 L1015.6,807.0
		L1015.8,807.0 L1016.0,807.0 L1016.1,807.0 L1016.3,807.0 L1016.5,807.0 L1016.7,807.0 L1016.9,807.0 L1017.1,807.0
		L1017.2,807.0 L1017.4,807.0 L1017.6,807.0 L1017.8,807.0 L1018.0,807.0 L1018.2,807.0 L1018.3,807.0 L1018.5,807.0
		L1018.7,807.0 L1018.9,807.0 L1019.1,807.0 L1019.3,807.0 L1019.4,807.0 L1019.6,807.0 L1019.8,807.0 L1020.0,807.0
		L1020.2,807.0 L1020.3,807.0 L1020.5,807.0 L1020.7,807.0 L1020.9,807.0 L1021.1,807.0 L1021.3,807.0 L1021.4,807.0
		L1021.6,807.0 L1021.8,807.0 L1022.0,807.0 L1022.2,807.0 L1022.4,807.0 L1022.5,807.0 L1022.7,807.0 L1022.9,807.0
		L1023.1,807.0 L1023.3,807.0 L1023.4,807.0 L1023.6,807.0 L1023.8,807.0 L1024.0,807.0 L1024.2,807.0 L1024.4,807.0
		L1024.5,807.0 L1024.7,807.0 L1024.9,807.0 L1025.1,807.0 L1025.3,807.0 L1025.5,807.0 L1025.6,807.0 L1025.8,807.0
		L1026.0,807.0 L1026.2,807.0 L1026.4,807.0 L1026.5,807.0 L1026.7,807.0 L1026.9,807.0 L1027.1,807.0 L1027.3,807.0
		L1027.5,807.1 L1027.6,807.1 L1027.8,807.1 L1028.0,807.1 L1028.2,807.1 L1028.4,807.1 L1028.6,807.1 L1028.7,807.1
		L1028.9,807.1 L1029.1,807.1 L1029.3,807.1 L1029.5,807.1 L1029.6,807.1 L1029.8,807.1 L1030.0,807.1 L1030.2,807.1
		L1030.4,807.1 L1030.6,807.1 L1030.7,807.1 L1030.9,807.1 L1031.1,807.1 L1031.3,807.1 L1031.5,807.1 L1031.7,807.1
		L1031.8,807.1 L1032.0,807.1 L1032.2,807.1 L1032.4,807.1 L1032.6,807.1 L1032.7,807.1 L1032.9,807.1 L1033.1,807.1
		L1033.3,807.1 L1033.5,807.1 L1033.7,807.1 L1033.8,807.1 L1034.0,807.1 L1034.2,807.1 L1034.4,807.1 L1034.6,807.1
		L1034.8,807.1 L1034.9,807.1 L1035.1,807.1 L1035.3,807.1 L1035.5,807.1 L1035.7,807.1 L1035.8,807.1 L1036.0,807.1
		L1036.2,807.1 L1036.4,807.1 L1036.6,807.1 L1036.8,807.1 L1036.9,807.1 L1037.1,807.1 L1037.3,807.1 L1037.5,807.1
		L1037.7,807.1 L1037.9,807.1 L1038.0,807.1 L1038.2,807.1 L1038.4,807.1 L1038.6,807.1 L1038.8,807.1 L1038.9,807.1
		L1039.1,807.1 L1039.3,807.1 L1039.5,807.1 L1039.7,807.1 L1039.9,807.1 L1040.0,807.1 L1040.2,807.1 L1040.4,807.1
		L1040.6,807.1 L1040.8,807.1 L1041.0,807.1 L1041.1,807.1 L1041.3,807.1 L1041.5,807.1 L1041.7,807.1 L1041.9,807.1
		L1042.0,807.1 L1042.2,807.1 L1042.4,807.2 L1042.6,807.2 L1042.8,807.2 L1043.0,807.2 L1043.1,807.2 L1043.3,807.2
		L1043.5,807.2 L1043.7,807.2 L1043.9,807.2 L1044.1,807.2 L1044.2,807.2 L1044.4,807.2 L1044.6,807.2 L1044.8,807.2
		L1045.0,807.2 L1045.1,807.2 L1045.3,807.2 L1045.5,807.2 L1045.7,807.2 L1045.9,807.2 L1046.1,807.2 L1046.2,807.2
		L1046.4,807.2 L1046.6,807.2 L1046.8,807.2 L1047.0,807.2 L1047.2,807.2 L1047.3,807.2 L1047.5,807.2 L1047.7,807.2
		L1047.9,807.2 L1048.1,807.2 L1048.2,807.2 L1048.4,807.2 L1048.6,807.2 L1048.8,807.2 L1049.0,807.2 L1049.2,807.2
		L1049.3,807.2 L1049.5,807.2 L1049.7,807.2 L1049.9,807.2 L1050.1,807.2 L1050.3,807.2 L1050.4,807.2 L1050.6,807.2
		L1050.8,807.2 L1051.0,807.2 L1051.2,807.2 L1051.4,807.2 L1051.5,807.2 L1051.7,807.2 L1051.9,807.2 L1052.1,807.2
		L1052.3,807.2 L1052.4,807.2 L1052.6,807.2 L1052.8,807.2 L1053.0,807.2 L1053.2,807.2 L1053.4,807.2 L1053.5,807.2
		L1053.7,807.2 L1053.9,807.2 L1054.1,807.2 L1054.3,807.2 L1054.5,807.2 L1054.6,807.2 L1054.8,807.2 L1055.0,807.2
		L1055.2,807.2 L1055.4,807.2 L1055.5,807.2 L1055.7,807.2 L1055.9,807.2 L1056.1,807.2 L1056.3,807.2 L1056.5,807.2
		L1056.6,807.2 L1056.8,807.2 L1057.0,807.2 L1057.2,807.2 L1057.4,807.3 L1057.6,807.3 L1057.7,807.3 L1057.9,807.3
		L1058.1,807.3 L1058.3,807.3 L1058.5,807.3 L1058.6,807.3 L1058.8,807.3 L1059.0,807.3 L1059.2,807.3 L1059.4,807.3
		L1059.6,807.3 L1059.7,807.3 L1059.9,807.3 L1060.1,807.3 L1060.3,807.3 L1060.5,807.3 L1060.7,807.3 L1060.8,807.3
		L1061.0,807.3 L1061.2,807.3 L1061.4,807.3 L1061.6,807.3 L1061.7,807.3 L1061.9,807.3 L1062.1,807.3 L1062.3,807.3
		L1062.5,807.3 L1062.7,807.3 L1062.8,807.3 L1063.0,807.3 L1063.2,807.3 L1063.4,807.3 L1063.6,807.3 L1063.8,807.3
		L1063.9,807.3 L1064.1,807.3 L1064.3,807.3 L1064.5,807.3 L1064.7,807.3 L1064.8,807.3 L1065.0,807.3 L1065.2,807.3
		L1065.4,807.3 L1065.6,807.3 L1065.8,807.3 L1065.9,807.3 L1066.1,807.3 L1066.3,807.3 L1066.5,807.3 L1066.7,807.3
		L1066.9,807.3 L1067.0,807.3 L1067.2,807.3 L1067.4,807.3 L1067.6,807.3 L1067.8,807.3 L1067.9,807.3 L1068.1,807.3
		L1068.3,807.3 L1068.5,807.3 L1068.7,807.3 L1068.9,807.3 L1069.0,807.3 L1069.2,807.3 L1069.4,807.3 L1069.6,807.3
		L1069.8,807.3 L1070.0,807.3 L1070.1,807.3 L1070.3,807.3 L1070.5,807.3 L1070.7,807.3 L1070.9,807.3 L1071.0,807.3
		L1071.2,807.3 L1071.4,807.3 L1071.6,807.3 L1071.8,807.3 L1072.0,807.3 L1072.1,807.4 L1072.3,807.4 L1072.5,807.4
		L1072.7,807.4 L1072.9,807.4 L1073.1,807.4 L1073.2,807.4 L1073.4,807.4 L1073.6,807.4 L1073.8,807.4 L1074.0,807.4
		L1074.1,807.4 L1074.3,807.4 L1074.5,807.4 L1074.7,807.4 L1074.9,807.4 L1075.1,807.4 L1075.2,807.4 L1075.4,807.4
		L1075.6,807.4 L1075.8,807.4 L1076.0,807.4 L1076.2,807.4 L1076.3,807.4 L1076.5,807.4 L1076.7,807.4 L1076.9,807.4
		L1077.1,807.4 L1077.2,807.4 L1077.4,807.4 L1077.6,807.4 L1077.8,807.4 L1078.0,807.4 L1078.2,807.4 L1078.3,807.4
		L1078.5,807.4 L1078.7,807.4 L1078.9,807.4 L1079.1,807.4 L1079.3,807.4 L1079.4,807.4 L1079.6,807.4 L1079.8,807.4
		L1080.0,807.4 L1080.2,807.4 L1080.4,807.4 L1080.5,807.4 L1080.7,807.4 L1080.9,807.4 L1081.1,807.4 L1081.3,807.4
		L1081.4,807.4 L1081.6,807.4 L1081.8,807.4 L1082.0,807.4 L1082.2,807.4 L1082.4,807.4 L1082.5,807.4 L1082.7,807.4
		L1082.9,807.4 L1083.1,807.4 L1083.3,807.4 L1083.5,807.4 L1083.6,807.4 L1083.8,807.4 L1084.0,807.4 L1084.2,807.4
		L1084.4,807.4 L1084.5,807.4 L1084.7,807.4 L1084.9,807.4 L1085.1,807.4 L1085.3,807.4 L1085.5,807.4 L1085.6,807.4
		L1085.8,807.4 L1086.0,807.4 L1086.2,807.4 L1086.4,807.4 L1086.6,807.4 L1086.7,807.4 L1086.9,807.4 L1087.1,807.4
		L1087.3,807.4 L1087.5,807.4 L1087.6,807.4 L1087.8,807.4 L1088.0,807.4 L1088.2,807.4 L1088.4,807.4 L1088.6,807.4
		L1088.7,807.4 L1088.9,807.4 L1089.1,807.4 L1089.3,807.4 L1089.5,807.4 L1089.7,807.4 L1089.8,807.4 L1090.0,807.4
		L1090.2,807.4 L1090.4,807.4 L1090.6,807.4 L1090.7,807.4 L1090.9,807.5 L1091.1,807.5 L1091.3,807.5 L1091.5,807.5
		L1091.7,807.5 L1091.8,807.5 L1092.0,807.5 L1092.2,807.5 L1092.4,807.5 L1092.6,807.5 L1092.8,807.5 L1092.9,807.5
		L1093.1,807.5 L1093.3,807.5 L1093.5,807.5 L1093.7,807.5 L1093.8,807.5 L1094.0,807.5 L1094.2,807.5 L1094.4,807.5
		L1094.6,807.5 L1094.8,807.5 L1094.9,807.5 L1095.1,807.5 L1095.3,807.5 L1095.5,807.5 L1095.7,807.5 L1095.9,807.5
		L1096.0,807.5 L1096.2,807.5 L1096.4,807.5 L1096.6,807.5 L1096.8,807.5 L1096.9,807.5 L1097.1,807.5 L1097.3,807.5
		L1097.5,807.5 L1097.7,807.5 L1097.9,807.5 L1098.0,807.5 L1098.2,807.5 L1098.4,807.5 L1098.6,807.5 L1098.8,807.5
		L1099.0,807.5 L1099.1,807.5 L1099.3,807.5 L1099.5,807.5 L1099.7,807.5 L1099.9,807.5 L1100.0,807.5 L1100.2,807.5
		L1100.4,807.5 L1100.6,807.5 L1100.8,807.5 L1101.0,807.5 L1101.1,807.5 L1101.3,807.5 L1101.5,807.5 L1101.7,807.5
		L1101.9,807.5 L1102.1,807.5 L1102.2,807.5 L1102.4,807.5 L1102.6,807.5 L1102.8,807.5 L1103.0,807.5 L1103.1,807.5
		L1103.3,807.5 L1103.5,807.5 L1103.7,807.5 L1103.9,807.5 L1104.1,807.5 L1104.2,807.5 L1104.4,807.5 L1104.6,807.5
		L1104.8,807.5 L1105.0,807.5 L1105.2,807.5 L1105.3,807.5 L1105.5,807.5 L1105.7,807.5 L1105.9,807.5 L1106.1,807.5
		L1106.2,807.5 L1106.4,807.5 L1106.6,807.5 L1106.8,807.5 L1107.0,807.5 L1107.2,807.5 L1107.3,807.5 L1107.5,807.5
		L1107.7,807.5 L1107.9,807.5 L1108.1,807.5 L1108.3,807.5 L1108.4,807.6 L1108.6,807.6 L1108.8,807.6 L1109.0,807.6
		L1109.2,807.6 L1109.4,807.6 L1109.5,807.6 L1109.7,807.6 L1109.9,807.6 L1110.1,807.6 L1110.3,807.6 L1110.4,807.6
		L1110.6,807.6 L1110.8,807.6 L1111.0,807.6 L1111.2,807.6 L1111.4,807.6 L1111.5,807.6 L1111.7,807.6 L1111.9,807.6
		L1112.1,807.6 L1112.3,807.6 L1112.5,807.6 L1112.6,807.6 L1112.8,807.6 L1113.0,807.6 L1113.2,807.6 L1113.4,807.6
		L1113.5,807.6 L1113.7,807.6 L1113.9,807.6 L1114.1,807.6 L1114.3,807.6 L1114.5,807.6 L1114.6,807.6 L1114.8,807.6
		L1115.0,807.6 L1115.2,807.6 L1115.4,807.6 L1115.6,807.6 L1115.7,807.6 L1115.9,807.6 L1116.1,807.6 L1116.3,807.6
		L1116.5,807.6 L1116.6,807.6 L1116.8,807.6 L1117.0,807.6 L1117.2,807.6 L1117.4,807.6 L1117.6,807.6 L1117.7,807.6
		L1117.9,807.6 L1118.1,807.6 L1118.3,807.6 L1118.5,807.6 L1118.7,807.6 L1118.8,807.6 L1119.0,807.6 L1119.2,807.6
		L1119.4,807.6 L1119.6,807.6 L1119.7,807.6 L1119.9,807.6 L1120.1,807.6 L1120.3,807.6 L1120.5,807.6 L1120.7,807.6
		L1120.8,807.6 L1121.0,807.6 L1121.2,807.6 L1121.4,807.6 L1121.6,807.6 L1121.8,807.6 L1121.9,807.6 L1122.1,807.6
		L1122.3,807.6 L1122.5,807.6 L1122.7,807.6 L1122.8,807.6 L1123.0,807.6 L1123.2,807.6 L1123.4,807.6 L1123.6,807.6
		L1123.8,807.6 L1123.9,807.6 L1124.1,807.6 L1124.3,807.6 L1124.5,807.6 L1124.7,807.6 L1124.9,807.6 L1125.0,807.6
		L1125.2,807.6 L1125.4,807.6 L1125.6,807.6 L1125.8,807.6 L1125.9,807.6 L1126.1,807.6 L1126.3,807.6 L1126.5,807.6
		L1126.7,807.6 L1126.9,807.6 L1127.0,807.6 L1127.2,807.7 L1127.4,807.7 L1127.6,807.7 L1127.8,807.7 L1128.0,807.7
		L1128.1,807.7 L1128.3,807.7 L1128.5,807.7 L1128.7,807.7 L1128.9,807.7 L1129.0,807.7 L1129.2,807.7 L1129.4,807.7
		L1129.6,807.7 L1129.8,807.7 L1130.0,807.7 L1130.1,807.7 L1130.3,807.7 L1130.5,807.7 L1130.7,807.7 L1130.9,807.7
		L1131.1,807.7 L1131.2,807.7 L1131.4,807.7 L1131.6,807.7 L1131.8,807.7 L1132.0,807.7 L1132.1,807.7 L1132.3,807.7
		L1132.5,807.7 L1132.7,807.7 L1132.9,807.7 L1133.1,807.7 L1133.2,807.7 L1133.4,807.7 L1133.6,807.7 L1133.8,807.7
		L1134.0,807.7 L1134.2,807.7 L1134.3,807.7 L1134.5,807.7 L1134.7,807.7 L1134.9,807.7 L1135.1,807.7 L1135.2,807.7
		L1135.4,807.7 L1135.6,807.7 L1135.8,807.7 L1136.0,807.7 L1136.2,807.7 L1136.3,807.7 L1136.5,807.7 L1136.7,807.7
		L1136.9,807.7 L1137.1,807.7 L1137.3,807.7 L1137.4,807.7 L1137.6,807.7 L1137.8,807.7 L1138.0,807.7 L1138.2,807.7
		L1138.4,807.7 L1138.5,807.7 L1138.7,807.7 L1138.9,807.7 L1139.1,807.7 L1139.3,807.7 L1139.4,807.7 L1139.6,807.7
		L1139.8,807.7 L1140.0,807.7 L1140.2,807.7 L1140.4,807.7 L1140.5,807.7 L1140.7,807.7 L1140.9,807.7 L1141.1,807.7
		L1141.3,807.7 L1141.5,807.7 L1141.6,807.7 L1141.8,807.7 L1142.0,807.7 L1142.2,807.7 L1142.4,807.7 L1142.5,807.7
		L1142.7,807.7 L1142.9,807.7 L1143.1,807.7 L1143.3,807.7 L1143.5,807.7 L1143.6,807.7 L1143.8,807.7 L1144.0,807.7
		L1144.2,807.7 L1144.4,807.7 L1144.6,807.7 L1144.7,807.7 L1144.9,807.7 L1145.1,807.7 L1145.3,807.7 L1145.5,807.7
		L1145.6,807.7 L1145.8,807.7 L1146.0,807.7 L1146.2,807.7 L1146.4,807.7 L1146.6,807.7 L1146.7,807.7 L1146.9,807.7
		L1147.1,807.7 L1147.3,807.7 L1147.5,807.7 L1147.7,807.7 L1147.8,807.7 L1148.0,807.7 L1148.2,807.7 L1148.4,807.7
		L1148.6,807.7 L1148.7,807.7 L1148.9,807.7 L1149.1,807.8 L1149.3,807.8 L1149.5,807.8 L1149.7,807.8 L1149.8,807.8
		L1150.0,807.8 L1150.2,807.8 L1150.4,807.8 L1150.6,807.8 L1150.8,807.8 L1150.9,807.8 L1151.1,807.8 L1151.3,807.8
		L1151.5,807.8 L1151.7,807.8 L1151.8,807.8 L1152.0,807.8 L1152.2,807.8 L1152.4,807.8 L1152.6,807.8 L1152.8,807.8
		L1152.9,807.8 L1153.1,807.8 L1153.3,807.8 L1153.5,807.8 L1153.7,807.8 L1153.9,807.8 L1154.0,807.8 L1154.2,807.8
		L1154.4,807.8 L1154.6,807.8 L1154.8,807.8 L1154.9,807.8 L1155.1,807.8 L1155.3,807.8 L1155.5,807.8 L1155.7,807.8
		L1155.9,807.8 L1156.0,807.8 L1156.2,807.8 L1156.4,807.8 L1156.6,807.8 L1156.8,807.8 L1157.0,807.8 L1157.1,807.8
		L1157.3,807.8 L1157.5,807.8 L1157.7,807.8 L1157.9,807.8 L1158.0,807.8 L1158.2,807.8 L1158.4,807.8 L1158.6,807.8
		L1158.8,807.8 L1159.0,807.8 L1159.1,807.8 L1159.3,807.8 L1159.5,807.8 L1159.7,807.8 L1159.9,807.8 L1160.1,807.8
		L1160.2,807.8 L1160.4,807.8 L1160.6,807.8 L1160.8,807.8 L1161.0,807.8 L1161.1,807.8 L1161.3,807.8 L1161.5,807.8
		L1161.7,807.8 L1161.9,807.8 L1162.1,807.8  '/></g>
	</g>
<g fill="none" color="black" stroke="currentColor" stroke-width="2.00" stroke-linecap="butt" stroke-linejoin="miter">
</g>
<g fill="none" color="black" stroke="black" stroke-width="1.00" stroke-linecap="butt" stroke-linejoin="miter">
</g>
<g fill="none" color="black" stroke="currentColor" stroke-width="1.00" stroke-linecap="butt" stroke-linejoin="miter">
	<path stroke='black'  d='M108.9,25.3 L108.9,813.6 L1162.1,813.6 L1162.1,25.3 L108.9,25.3 Z  '/></g>
<g fill="none" color="black" stroke="currentColor" stroke-width="1.00" stroke-linecap="butt" stroke-linejoin="miter">
</g>
</g>
</svg>

