<?xml version="1.0" encoding="utf-8"  standalone="no"?>
<!DOCTYPE svg PUBLIC "-//W3C//DTD SVG 1.1//EN"
 "http://www.w3.org/Graphics/SVG/1.1/DTD/svg11.dtd">
<svg 
 width="1200" height="900"
 viewBox="0 0 1200 900"
 xmlns="http://www.w3.org/2000/svg"
 xmlns:xlink="http://www.w3.org/1999/xlink"
>

<title>Gnuplot</title>
<desc>Produced by GNUPLOT 5.0 patchlevel 5 </desc>

<g id="gnuplot_canvas">

<rect x="0" y="0" width="1200" height="900" fill="none"/>
<defs>

	<circle id='gpDot' r='0.5' stroke-width='0.5'/>
	<path id='gpPt0' stroke-width='0.103' stroke='currentColor' d='M-1,0 h2 M0,-1 v2'/>
	<path id='gpPt1' stroke-width='0.103' stroke='currentColor' d='M-1,-1 L1,1 M1,-1 L-1,1'/>
	<path id='gpPt2' stroke-width='0.103' stroke='currentColor' d='M-1,0 L1,0 M0,-1 L0,1 M-1,-1 L1,1 M-1,1 L1,-1'/>
	<rect id='gpPt3' stroke-width='0.103' stroke='currentColor' x='-1' y='-1' width='2' height='2'/>
	<rect id='gpPt4' stroke-width='0.103' stroke='currentColor' fill='currentColor' x='-1' y='-1' width='2' height='2'/>
	<circle id='gpPt5' stroke-width='0.103' stroke='currentColor' cx='0' cy='0' r='1'/>
	<use xlink:href='#gpPt5' id='gpPt6' fill='currentColor' stroke='none'/>
	<path id='gpPt7' stroke-width='0.103' stroke='currentColor' d='M0,-1.33 L-1.33,0.67 L1.33,0.67 z'/>
	<use xlink:href='#gpPt7' id='gpPt8' fill='currentColor' stroke='none'/>
	<use xlink:href='#gpPt7' id='gpPt9' stroke='currentColor' transform='rotate(180)'/>
	<use xlink:href='#gpPt9' id='gpPt10' fill='currentColor' stroke='none'/>
	<use xlink:href='#gpPt3' id='gpPt11' stroke='currentColor' transform='rotate(45)'/>
	<use xlink:href='#gpPt11' id='gpPt12' fill='currentColor' stroke='none'/>
	<path id='gpPt13' stroke-width='0.103' stroke='currentColor' d='M0,1.330 L1.265,0.411 L0.782,-1.067 L-0.782,-1.076 L-1.265,0.411 z'/>
	<use xlink:href='#gpPt13' id='gpPt14' fill='currentColor' stroke='none'/>
	<filter id='textbox' filterUnits='objectBoundingBox' x='0' y='0' height='1' width='1'>
	  <feFlood flood-color='white' flood-opacity='1' result='bgnd'/>
	  <feComposite in='SourceGraphic' in2='bgnd' operator='atop'/>
	</filter>
	<filter id='greybox' filterUnits='objectBoundingBox' x='0' y='0' height='1' width='1'>
	  <feFlood flood-color='lightgrey' flood-opacity='1' result='grey'/>
	  <feComposite in='SourceGraphic' in2='grey' operator='atop'/>
	</filter>
</defs>
<g fill="none" color="white" stroke="black" stroke-width="1.00" stroke-linecap="butt" stroke-linejoin="miter">
</g>
<g fill="none" color="black" stroke="currentColor" stroke-width="1.00" stroke-linecap="butt" stroke-linejoin="miter">
	<path stroke='black'  d='M230.1,775.2 L249.6,775.2 M1145.3,775.2 L1125.8,775.2  '/>	<g transform="translate(211.9,783.7)" stroke="none" fill="black" font-family="Helvetica" font-size="26.00"  text-anchor="end">
		<text><tspan font-family="Helvetica" > 0</tspan></text>
	</g>
</g>
<g fill="none" color="black" stroke="currentColor" stroke-width="1.00" stroke-linecap="butt" stroke-linejoin="miter">
	<path stroke='black'  d='M230.1,682.9 L249.6,682.9 M1145.3,682.9 L1125.8,682.9  '/>	<g transform="translate(211.9,691.4)" stroke="none" fill="black" font-family="Helvetica" font-size="26.00"  text-anchor="end">
		<text><tspan font-family="Helvetica" > 5x10</tspan><tspan font-family="Helvetica"  font-size="20.8" dy="-13.00px">-10</tspan><tspan font-size="26.0" dy="13.00"></tspan></text>
	</g>
</g>
<g fill="none" color="black" stroke="currentColor" stroke-width="1.00" stroke-linecap="butt" stroke-linejoin="miter">
	<path stroke='black'  d='M230.1,590.5 L249.6,590.5 M1145.3,590.5 L1125.8,590.5  '/>	<g transform="translate(211.9,599.0)" stroke="none" fill="black" font-family="Helvetica" font-size="26.00"  text-anchor="end">
		<text><tspan font-family="Helvetica" > 1x10</tspan><tspan font-family="Helvetica"  font-size="20.8" dy="-13.00px">-9</tspan><tspan font-size="26.0" dy="13.00"></tspan></text>
	</g>
</g>
<g fill="none" color="black" stroke="currentColor" stroke-width="1.00" stroke-linecap="butt" stroke-linejoin="miter">
	<path stroke='black'  d='M230.1,498.2 L249.6,498.2 M1145.3,498.2 L1125.8,498.2  '/>	<g transform="translate(211.9,506.7)" stroke="none" fill="black" font-family="Helvetica" font-size="26.00"  text-anchor="end">
		<text><tspan font-family="Helvetica" > 1.5x10</tspan><tspan font-family="Helvetica"  font-size="20.8" dy="-13.00px">-9</tspan><tspan font-size="26.0" dy="13.00"></tspan></text>
	</g>
</g>
<g fill="none" color="black" stroke="currentColor" stroke-width="1.00" stroke-linecap="butt" stroke-linejoin="miter">
	<path stroke='black'  d='M230.1,405.8 L249.6,405.8 M1145.3,405.8 L1125.8,405.8  '/>	<g transform="translate(211.9,414.3)" stroke="none" fill="black" font-family="Helvetica" font-size="26.00"  text-anchor="end">
		<text><tspan font-family="Helvetica" > 2x10</tspan><tspan font-family="Helvetica"  font-size="20.8" dy="-13.00px">-9</tspan><tspan font-size="26.0" dy="13.00"></tspan></text>
	</g>
</g>
<g fill="none" color="black" stroke="currentColor" stroke-width="1.00" stroke-linecap="butt" stroke-linejoin="miter">
	<path stroke='black'  d='M230.1,313.5 L249.6,313.5 M1145.3,313.5 L1125.8,313.5  '/>	<g transform="translate(211.9,322.0)" stroke="none" fill="black" font-family="Helvetica" font-size="26.00"  text-anchor="end">
		<text><tspan font-family="Helvetica" > 2.5x10</tspan><tspan font-family="Helvetica"  font-size="20.8" dy="-13.00px">-9</tspan><tspan font-size="26.0" dy="13.00"></tspan></text>
	</g>
</g>
<g fill="none" color="black" stroke="currentColor" stroke-width="1.00" stroke-linecap="butt" stroke-linejoin="miter">
	<path stroke='black'  d='M230.1,221.2 L249.6,221.2 M1145.3,221.2 L1125.8,221.2  '/>	<g transform="translate(211.9,229.7)" stroke="none" fill="black" font-family="Helvetica" font-size="26.00"  text-anchor="end">
		<text><tspan font-family="Helvetica" > 3x10</tspan><tspan font-family="Helvetica"  font-size="20.8" dy="-13.00px">-9</tspan><tspan font-size="26.0" dy="13.00"></tspan></text>
	</g>
</g>
<g fill="none" color="black" stroke="currentColor" stroke-width="1.00" stroke-linecap="butt" stroke-linejoin="miter">
	<path stroke='black'  d='M230.1,128.8 L249.6,128.8 M1145.3,128.8 L1125.8,128.8  '/>	<g transform="translate(211.9,137.3)" stroke="none" fill="black" font-family="Helvetica" font-size="26.00"  text-anchor="end">
		<text><tspan font-family="Helvetica" > 3.5x10</tspan><tspan font-family="Helvetica"  font-size="20.8" dy="-13.00px">-9</tspan><tspan font-size="26.0" dy="13.00"></tspan></text>
	</g>
</g>
<g fill="none" color="black" stroke="currentColor" stroke-width="1.00" stroke-linecap="butt" stroke-linejoin="miter">
	<path stroke='black'  d='M230.1,36.5 L249.6,36.5 M1145.3,36.5 L1125.8,36.5  '/>	<g transform="translate(211.9,45.0)" stroke="none" fill="black" font-family="Helvetica" font-size="26.00"  text-anchor="end">
		<text><tspan font-family="Helvetica" > 4x10</tspan><tspan font-family="Helvetica"  font-size="20.8" dy="-13.00px">-9</tspan><tspan font-size="26.0" dy="13.00"></tspan></text>
	</g>
</g>
<g fill="none" color="black" stroke="currentColor" stroke-width="1.00" stroke-linecap="butt" stroke-linejoin="miter">
	<path stroke='black'  d='M230.1,775.2 L230.1,755.7 M230.1,36.5 L230.1,56.0  '/>	<g transform="translate(230.1,822.7)" stroke="none" fill="black" font-family="Helvetica" font-size="26.00"  text-anchor="middle">
		<text><tspan font-family="Helvetica" > 0</tspan></text>
	</g>
</g>
<g fill="none" color="black" stroke="currentColor" stroke-width="1.00" stroke-linecap="butt" stroke-linejoin="miter">
	<path stroke='black'  d='M382.6,775.2 L382.6,755.7 M382.6,36.5 L382.6,56.0  '/>	<g transform="translate(382.6,822.7)" stroke="none" fill="black" font-family="Helvetica" font-size="26.00"  text-anchor="middle">
		<text><tspan font-family="Helvetica" > 20000</tspan></text>
	</g>
</g>
<g fill="none" color="black" stroke="currentColor" stroke-width="1.00" stroke-linecap="butt" stroke-linejoin="miter">
	<path stroke='black'  d='M535.2,775.2 L535.2,755.7 M535.2,36.5 L535.2,56.0  '/>	<g transform="translate(535.2,822.7)" stroke="none" fill="black" font-family="Helvetica" font-size="26.00"  text-anchor="middle">
		<text><tspan font-family="Helvetica" > 40000</tspan></text>
	</g>
</g>
<g fill="none" color="black" stroke="currentColor" stroke-width="1.00" stroke-linecap="butt" stroke-linejoin="miter">
	<path stroke='black'  d='M687.7,775.2 L687.7,755.7 M687.7,36.5 L687.7,56.0  '/>	<g transform="translate(687.7,822.7)" stroke="none" fill="black" font-family="Helvetica" font-size="26.00"  text-anchor="middle">
		<text><tspan font-family="Helvetica" > 60000</tspan></text>
	</g>
</g>
<g fill="none" color="black" stroke="currentColor" stroke-width="1.00" stroke-linecap="butt" stroke-linejoin="miter">
	<path stroke='black'  d='M840.2,775.2 L840.2,755.7 M840.2,36.5 L840.2,56.0  '/>	<g transform="translate(840.2,822.7)" stroke="none" fill="black" font-family="Helvetica" font-size="26.00"  text-anchor="middle">
		<text><tspan font-family="Helvetica" > 80000</tspan></text>
	</g>
</g>
<g fill="none" color="black" stroke="currentColor" stroke-width="1.00" stroke-linecap="butt" stroke-linejoin="miter">
	<path stroke='black'  d='M992.8,775.2 L992.8,755.7 M992.8,36.5 L992.8,56.0  '/>	<g transform="translate(992.8,822.7)" stroke="none" fill="black" font-family="Helvetica" font-size="26.00"  text-anchor="middle">
		<text><tspan font-family="Helvetica" > 100000</tspan></text>
	</g>
</g>
<g fill="none" color="black" stroke="currentColor" stroke-width="1.00" stroke-linecap="butt" stroke-linejoin="miter">
	<path stroke='black'  d='M1145.3,775.2 L1145.3,755.7 M1145.3,36.5 L1145.3,56.0  '/>	<g transform="translate(1145.3,822.7)" stroke="none" fill="black" font-family="Helvetica" font-size="26.00"  text-anchor="middle">
		<text><tspan font-family="Helvetica" > 120000</tspan></text>
	</g>
</g>
<g fill="none" color="black" stroke="currentColor" stroke-width="1.00" stroke-linecap="butt" stroke-linejoin="miter">
</g>
<g fill="none" color="black" stroke="currentColor" stroke-width="1.00" stroke-linecap="butt" stroke-linejoin="miter">
	<path stroke='black'  d='M230.1,36.5 L230.1,775.2 L1145.3,775.2 L1145.3,36.5 L230.1,36.5 Z  '/></g>
<g fill="none" color="black" stroke="currentColor" stroke-width="1.00" stroke-linecap="butt" stroke-linejoin="miter">
	<g transform="translate(37.0,405.9) rotate(270)" stroke="none" fill="black" font-family="Helvetica-Bold" font-size="26.00"  text-anchor="middle">
		<text><tspan font-family="Helvetica-Bold" >Heat flow (P), pW/g</tspan></text>
	</g>
</g>
<g fill="none" color="black" stroke="currentColor" stroke-width="1.00" stroke-linecap="butt" stroke-linejoin="miter">
	<g transform="translate(687.7,881.2)" stroke="none" fill="black" font-family="Helvetica-Bold" font-size="26.00"  text-anchor="middle">
		<text><tspan font-family="Helvetica-Bold" >Time, year</tspan></text>
	</g>
</g>
<g fill="none" color="black" stroke="currentColor" stroke-width="1.00" stroke-linecap="butt" stroke-linejoin="miter">
</g>
<g fill="none" color="black" stroke="currentColor" stroke-width="0.20" stroke-linecap="butt" stroke-linejoin="miter">
</g>
<g fill="none" color="black" stroke="currentColor" stroke-width="0.20" stroke-linecap="butt" stroke-linejoin="miter">
	<path stroke='black'  d='M689.0,95.0 L689.0,56.0 L1127.1,56.0 L1127.1,95.0 L689.0,95.0 Z  '/></g>
	<g id="gnuplot_plot_1" ><title>4-NO2-Ph-N2+ -OTf</title>
<g fill="none" color="white" stroke="black" stroke-width="3.00" stroke-linecap="butt" stroke-linejoin="miter">
</g>
<g fill="none" color="black" stroke="currentColor" stroke-width="3.00" stroke-linecap="butt" stroke-linejoin="miter">
	<g transform="translate(998.4,84.0)" stroke="none" fill="black" font-family="Helvetica" font-size="26.00"  text-anchor="end">
		<text><tspan font-family="Helvetica" >4-NO2-Ph-N2+ -OTf</tspan></text>
	</g>
</g>
<g fill="none" color="black" stroke="currentColor" stroke-width="3.00" stroke-linecap="butt" stroke-linejoin="miter">
	<path stroke='gray'  d='M1016.6,75.5 L1108.9,75.5 M230.1,771.1 L231.0,770.9 L231.9,770.7 L232.7,770.5 L233.6,770.3 L234.5,770.1
		L235.4,769.9 L236.3,769.6 L237.2,769.4 L238.0,769.1 L238.9,768.8 L239.8,768.6 L240.7,768.3 L241.6,768.0
		L242.5,767.6 L243.3,767.3 L244.2,767.0 L245.1,766.6 L246.0,766.2 L246.9,765.8 L247.8,765.4 L248.6,765.0
		L249.5,764.5 L250.4,764.0 L251.3,763.5 L252.2,763.0 L253.1,762.5 L253.9,761.9 L254.8,761.3 L255.7,760.7
		L256.6,760.1 L257.5,759.4 L258.3,758.7 L259.2,758.0 L260.1,757.3 L261.0,756.5 L261.9,755.6 L262.8,754.8
		L263.6,753.9 L264.5,753.0 L265.4,752.0 L266.3,751.0 L267.2,749.9 L268.1,748.8 L268.9,747.7 L269.8,746.5
		L270.7,745.2 L271.6,743.9 L272.5,742.5 L273.4,741.1 L274.2,739.6 L275.1,738.1 L276.0,736.5 L276.9,734.8
		L277.8,733.1 L278.6,731.3 L279.5,729.4 L280.4,727.4 L281.3,725.4 L282.2,723.2 L283.1,721.0 L283.9,718.7
		L284.8,716.3 L285.7,713.8 L286.6,711.2 L287.5,708.4 L288.4,705.6 L289.2,702.7 L290.1,699.6 L291.0,696.5
		L291.9,693.2 L292.8,689.8 L293.7,686.2 L294.5,682.5 L295.4,678.7 L296.3,674.7 L297.2,670.6 L298.1,666.3
		L299.0,661.8 L299.8,657.2 L300.7,652.5 L301.6,647.5 L302.5,642.4 L303.4,637.1 L304.2,631.6 L305.1,626.0
		L306.0,620.1 L306.9,614.0 L307.8,607.8 L308.7,601.3 L309.5,594.6 L310.4,587.8 L311.3,580.7 L312.2,573.4
		L313.1,565.8 L314.0,558.1 L314.8,550.1 L315.7,542.0 L316.6,533.5 L317.5,524.9 L318.4,516.1 L319.3,507.0
		L320.1,497.7 L321.0,488.3 L321.9,478.6 L322.8,468.7 L323.7,458.6 L324.6,448.3 L325.4,437.8 L326.3,427.2
		L327.2,416.4 L328.1,405.4 L329.0,394.3 L329.8,383.1 L330.7,371.8 L331.6,360.3 L332.5,348.8 L333.4,337.2
		L334.3,325.6 L335.1,314.0 L336.0,302.3 L336.9,290.7 L337.8,279.2 L338.7,267.7 L339.6,256.3 L340.4,245.0
		L341.3,233.9 L342.2,223.0 L343.1,212.3 L344.0,201.8 L344.9,191.7 L345.7,181.8 L346.6,172.2 L347.5,163.1
		L348.4,154.3 L349.3,145.9 L350.1,138.0 L351.0,130.6 L351.9,123.7 L352.8,117.3 L353.7,111.5 L354.6,106.2
		L355.4,101.6 L356.3,97.6 L357.2,94.2 L358.1,91.5 L359.0,89.4 L359.9,88.0 L360.7,87.3 L361.6,87.2
		L362.5,87.8 L363.4,89.2 L364.3,91.2 L365.2,93.8 L366.0,97.1 L366.9,101.1 L367.8,105.7 L368.7,110.9
		L369.6,116.7 L370.5,123.1 L371.3,130.1 L372.2,137.5 L373.1,145.5 L374.0,154.0 L374.9,162.9 L375.7,172.2
		L376.6,181.9 L377.5,191.9 L378.4,202.3 L379.3,213.0 L380.2,223.9 L381.0,235.1 L381.9,246.4 L382.8,258.0
		L383.7,269.6 L384.6,281.4 L385.5,293.3 L386.3,305.2 L387.2,317.1 L388.1,329.1 L389.0,341.0 L389.9,352.9
		L390.8,364.7 L391.6,376.4 L392.5,388.0 L393.4,399.5 L394.3,410.9 L395.2,422.1 L396.1,433.2 L396.9,444.1
		L397.8,454.8 L398.7,465.3 L399.6,475.6 L400.5,485.7 L401.3,495.5 L402.2,505.2 L403.1,514.6 L404.0,523.8
		L404.9,532.7 L405.8,541.5 L406.6,550.0 L407.5,558.2 L408.4,566.3 L409.3,574.1 L410.2,581.6 L411.1,589.0
		L411.9,596.1 L412.8,602.9 L413.7,609.6 L414.6,616.0 L415.5,622.3 L416.4,628.3 L417.2,634.1 L418.1,639.7
		L419.0,645.1 L419.9,650.4 L420.8,655.4 L421.6,660.3 L422.5,664.9 L423.4,669.5 L424.3,673.8 L425.2,678.0
		L426.1,682.0 L426.9,685.9 L427.8,689.6 L428.7,693.1 L429.6,696.6 L430.5,699.9 L431.4,703.0 L432.2,706.1
		L433.1,709.0 L434.0,711.8 L434.9,714.5 L435.8,717.1 L436.7,719.6 L437.5,721.9 L438.4,724.2 L439.3,726.4
		L440.2,728.5 L441.1,730.5 L442.0,732.4 L442.8,734.3 L443.7,736.0 L444.6,737.7 L445.5,739.4 L446.4,740.9
		L447.2,742.4 L448.1,743.8 L449.0,745.2 L449.9,746.5 L450.8,747.8 L451.7,749.0 L452.5,750.1 L453.4,751.2
		L454.3,752.2 L455.2,753.3 L456.1,754.2 L457.0,755.1 L457.8,756.0 L458.7,756.9 L459.6,757.7 L460.5,758.4
		L461.4,759.2 L462.3,759.9 L463.1,760.6 L464.0,761.2 L464.9,761.8 L465.8,762.4 L466.7,763.0 L467.6,763.5
		L468.4,764.0 L469.3,764.5 L470.2,765.0 L471.1,765.4 L472.0,765.9 L472.8,766.3 L473.7,766.7 L474.6,767.1
		L475.5,767.4 L476.4,767.8 L477.3,768.1 L478.1,768.4 L479.0,768.7 L479.9,769.0 L480.8,769.3 L481.7,769.5
		L482.6,769.8 L483.4,770.0 L484.3,770.3 L485.2,770.5 L486.1,770.7 L487.0,770.9 L487.9,771.1 L488.7,771.3
		L489.6,771.4 L490.5,771.6 L491.4,771.8 L492.3,771.9 L493.1,772.1 L494.0,772.2 L494.9,772.3 L495.8,772.5
		L496.7,772.6 L497.6,772.7 L498.4,772.8 L499.3,772.9 L500.2,773.0 L501.1,773.1 L502.0,773.2 L502.9,773.3
		L503.7,773.4 L504.6,773.5 L505.5,773.5 L506.4,773.6 L507.3,773.7 L508.2,773.8 L509.0,773.8 L509.9,773.9
		L510.8,773.9 L511.7,774.0 L512.6,774.0 L513.5,774.1 L514.3,774.1 L515.2,774.2 L516.1,774.2 L517.0,774.3
		L517.9,774.3 L518.7,774.4 L519.6,774.4 L520.5,774.4 L521.4,774.5 L522.3,774.5 L523.2,774.5 L524.0,774.6
		L524.9,774.6 L525.8,774.6 L526.7,774.6 L527.6,774.7 L528.5,774.7 L529.3,774.7 L530.2,774.7 L531.1,774.8
		L532.0,774.8 L532.9,774.8 L533.8,774.8 L534.6,774.8 L535.5,774.8 L536.4,774.9 L537.3,774.9 L538.2,774.9
		L539.1,774.9 L539.9,774.9 L540.8,774.9 L541.7,774.9 L542.6,775.0 L543.5,775.0 L544.3,775.0 L545.2,775.0
		L546.1,775.0 L547.0,775.0 L547.9,775.0 L548.8,775.0 L549.6,775.0 L550.5,775.0 L551.4,775.0 L552.3,775.1
		L553.2,775.1 L554.1,775.1 L554.9,775.1 L555.8,775.1 L556.7,775.1 L557.6,775.1 L558.5,775.1 L559.4,775.1
		L560.2,775.1 L561.1,775.1 L562.0,775.1 L562.9,775.1 L563.8,775.1 L564.6,775.1 L565.5,775.1 L566.4,775.1
		L567.3,775.1 L568.2,775.1 L569.1,775.1 L569.9,775.1 L570.8,775.1 L571.7,775.1 L572.6,775.1 L573.5,775.2
		L574.4,775.2 L575.2,775.2 L576.1,775.2 L577.0,775.2 L577.9,775.2 L578.8,775.2 L579.7,775.2 L580.5,775.2
		L581.4,775.2 L582.3,775.2 L583.2,775.2 L584.1,775.2 L585.0,775.2 L585.8,775.2 L586.7,775.2 L587.6,775.2
		L588.5,775.2 L589.4,775.2 L590.2,775.2 L591.1,775.2 L592.0,775.2 L592.9,775.2 L593.8,775.2 L594.7,775.2
		L595.5,775.2 L596.4,775.2 L597.3,775.2 L598.2,775.2 L599.1,775.2 L600.0,775.2 L600.8,775.2 L601.7,775.2
		L602.6,775.2 L603.5,775.2 L604.4,775.2 L605.3,775.2 L606.1,775.2 L607.0,775.2 L607.9,775.2 L608.8,775.2
		L609.7,775.2 L610.6,775.2 L611.4,775.2 L612.3,775.2 L613.2,775.2 L614.1,775.2 L615.0,775.2 L615.8,775.2
		L616.7,775.2 L617.6,775.2 L618.5,775.2 L619.4,775.2 L620.3,775.2 L621.1,775.2 L622.0,775.2 L622.9,775.2
		L623.8,775.2 L624.7,775.2 L625.6,775.2 L626.4,775.2 L627.3,775.2 L628.2,775.2 L629.1,775.2 L630.0,775.2
		L630.9,775.2 L631.7,775.2 L632.6,775.2 L633.5,775.2 L634.4,775.2 L635.3,775.2 L636.1,775.2 L637.0,775.2
		L637.9,775.2 L638.8,775.2 L639.7,775.2 L640.6,775.2 L641.4,775.2 L642.3,775.2 L643.2,775.2 L644.1,775.2
		L645.0,775.2 L645.9,775.2 L646.7,775.2 L647.6,775.2 L648.5,775.2 L649.4,775.2 L650.3,775.2 L651.2,775.2
		L652.0,775.2 L652.9,775.2 L653.8,775.2 L654.7,775.2 L655.6,775.2 L656.5,775.2 L657.3,775.2 L658.2,775.2
		L659.1,775.2 L660.0,775.2 L660.9,775.2 L661.7,775.2 L662.6,775.2 L663.5,775.2 L664.4,775.2 L665.3,775.2
		L666.2,775.2 L667.0,775.2 L667.9,775.2 L668.8,775.2 L669.7,775.2 L670.6,775.2 L671.5,775.2 L672.3,775.2
		L673.2,775.2 L674.1,775.2 L675.0,775.2 L675.9,775.2 L676.8,775.2 L677.6,775.2 L678.5,775.2 L679.4,775.2
		L680.3,775.2 L681.2,775.2 L682.1,775.2 L682.9,775.2 L683.8,775.2 L684.7,775.2 L685.6,775.2 L686.5,775.2
		L687.3,775.2 L688.2,775.2 L689.1,775.2 L690.0,775.2 L690.9,775.2 L691.8,775.2 L692.6,775.2 L693.5,775.2
		L694.4,775.2 L695.3,775.2 L696.2,775.2 L697.1,775.2 L697.9,775.2 L698.8,775.2 L699.7,775.2 L700.6,775.2
		L701.5,775.2 L702.4,775.2 L703.2,775.2 L704.1,775.2 L705.0,775.2 L705.9,775.2 L706.8,775.2 L707.6,775.2
		L708.5,775.2 L709.4,775.2 L710.3,775.2 L711.2,775.2 L712.1,775.2 L712.9,775.2 L713.8,775.2 L714.7,775.2
		L715.6,775.2 L716.5,775.2 L717.4,775.2 L718.2,775.2 L719.1,775.2 L720.0,775.2 L720.9,775.2 L721.8,775.2
		L722.7,775.2 L723.5,775.2 L724.4,775.2 L725.3,775.2 L726.2,775.2 L727.1,775.2 L728.0,775.2 L728.8,775.2
		L729.7,775.2 L730.6,775.2 L731.5,775.2 L732.4,775.2 L733.2,775.2 L734.1,775.2 L735.0,775.2 L735.9,775.2
		L736.8,775.2 L737.7,775.2 L738.5,775.2 L739.4,775.2 L740.3,775.2 L741.2,775.2 L742.1,775.2 L743.0,775.2
		L743.8,775.2 L744.7,775.2 L745.6,775.2 L746.5,775.2 L747.4,775.2 L748.3,775.2 L749.1,775.2 L750.0,775.2
		L750.9,775.2 L751.8,775.2 L752.7,775.2 L753.6,775.2 L754.4,775.2 L755.3,775.2 L756.2,775.2 L757.1,775.2
		L758.0,775.2 L758.8,775.2 L759.7,775.2 L760.6,775.2 L761.5,775.2 L762.4,775.2 L763.3,775.2 L764.1,775.2
		L765.0,775.2 L765.9,775.2 L766.8,775.2 L767.7,775.2 L768.6,775.2 L769.4,775.2 L770.3,775.2 L771.2,775.2
		L772.1,775.2 L773.0,775.2 L773.9,775.2 L774.7,775.2 L775.6,775.2 L776.5,775.2 L777.4,775.2 L778.3,775.2
		L779.1,775.2 L780.0,775.2 L780.9,775.2 L781.8,775.2 L782.7,775.2 L783.6,775.2 L784.4,775.2 L785.3,775.2
		L786.2,775.2 L787.1,775.2 L788.0,775.2 L788.9,775.2 L789.7,775.2 L790.6,775.2 L791.5,775.2 L792.4,775.2
		L793.3,775.2 L794.2,775.2 L795.0,775.2 L795.9,775.2 L796.8,775.2 L797.7,775.2 L798.6,775.2 L799.5,775.2
		L800.3,775.2 L801.2,775.2 L802.1,775.2 L803.0,775.2 L803.9,775.2 L804.7,775.2 L805.6,775.2 L806.5,775.2
		L807.4,775.2 L808.3,775.2 L809.2,775.2 L810.0,775.2 L810.9,775.2 L811.8,775.2 L812.7,775.2 L813.6,775.2
		L814.5,775.2 L815.3,775.2 L816.2,775.2 L817.1,775.2 L818.0,775.2 L818.9,775.2 L819.8,775.2 L820.6,775.2
		L821.5,775.2 L822.4,775.2 L823.3,775.2 L824.2,775.2 L825.1,775.2 L825.9,775.2 L826.8,775.2 L827.7,775.2
		L828.6,775.2 L829.5,775.2 L830.3,775.2 L831.2,775.2 L832.1,775.2 L833.0,775.2 L833.9,775.2 L834.8,775.2
		L835.6,775.2 L836.5,775.2 L837.4,775.2 L838.3,775.2 L839.2,775.2 L840.1,775.2 L840.9,775.2 L841.8,775.2
		L842.7,775.2 L843.6,775.2 L844.5,775.2 L845.4,775.2 L846.2,775.2 L847.1,775.2 L848.0,775.2 L848.9,775.2
		L849.8,775.2 L850.6,775.2 L851.5,775.2 L852.4,775.2 L853.3,775.2 L854.2,775.2 L855.1,775.2 L855.9,775.2
		L856.8,775.2 L857.7,775.2 L858.6,775.2 L859.5,775.2 L860.4,775.2 L861.2,775.2 L862.1,775.2 L863.0,775.2
		L863.9,775.2 L864.8,775.2 L865.7,775.2 L866.5,775.2 L867.4,775.2 L868.3,775.2 L869.2,775.2 L870.1,775.2
		L871.0,775.2 L871.8,775.2 L872.7,775.2 L873.6,775.2 L874.5,775.2 L875.4,775.2 L876.2,775.2 L877.1,775.2
		L878.0,775.2 L878.9,775.2 L879.8,775.2 L880.7,775.2 L881.5,775.2 L882.4,775.2 L883.3,775.2 L884.2,775.2
		L885.1,775.2 L886.0,775.2 L886.8,775.2 L887.7,775.2 L888.6,775.2 L889.5,775.2 L890.4,775.2 L891.3,775.2
		L892.1,775.2 L893.0,775.2 L893.9,775.2 L894.8,775.2 L895.7,775.2 L896.6,775.2 L897.4,775.2 L898.3,775.2
		L899.2,775.2 L900.1,775.2 L901.0,775.2 L901.8,775.2 L902.7,775.2 L903.6,775.2 L904.5,775.2 L905.4,775.2
		L906.3,775.2 L907.1,775.2 L908.0,775.2 L908.9,775.2 L909.8,775.2 L910.7,775.2 L911.6,775.2 L912.4,775.2
		L913.3,775.2 L914.2,775.2 L915.1,775.2 L916.0,775.2 L916.9,775.2 L917.7,775.2 L918.6,775.2 L919.5,775.2
		L920.4,775.2 L921.3,775.2 L922.1,775.2 L923.0,775.2 L923.9,775.2 L924.8,775.2 L925.7,775.2 L926.6,775.2
		L927.4,775.2 L928.3,775.2 L929.2,775.2 L930.1,775.2 L931.0,775.2 L931.9,775.2 L932.7,775.2 L933.6,775.2
		L934.5,775.2 L935.4,775.2 L936.3,775.2 L937.2,775.2 L938.0,775.2 L938.9,775.2 L939.8,775.2 L940.7,775.2
		L941.6,775.2 L942.5,775.2 L943.3,775.2 L944.2,775.2 L945.1,775.2 L946.0,775.2 L946.9,775.2 L947.7,775.2
		L948.6,775.2 L949.5,775.2 L950.4,775.2 L951.3,775.2 L952.2,775.2 L953.0,775.2 L953.9,775.2 L954.8,775.2
		L955.7,775.2 L956.6,775.2 L957.5,775.2 L958.3,775.2 L959.2,775.2 L960.1,775.2 L961.0,775.2 L961.9,775.2
		L962.8,775.2 L963.6,775.2 L964.5,775.2 L965.4,775.2 L966.3,775.2 L967.2,775.2 L968.1,775.2 L968.9,775.2
		L969.8,775.2 L970.7,775.2 L971.6,775.2 L972.5,775.2 L973.3,775.2 L974.2,775.2 L975.1,775.2 L976.0,775.2
		L976.9,775.2 L977.8,775.2 L978.6,775.2 L979.5,775.2 L980.4,775.2 L981.3,775.2 L982.2,775.2 L983.1,775.2
		L983.9,775.2 L984.8,775.2 L985.7,775.2 L986.6,775.2 L987.5,775.2 L988.4,775.2 L989.2,775.2 L990.1,775.2
		L991.0,775.2 L991.9,775.2 L992.8,775.2 L993.6,775.2 L994.5,775.2 L995.4,775.2 L996.3,775.2 L997.2,775.2
		L998.1,775.2 L998.9,775.2 L999.8,775.2 L1000.7,775.2 L1001.6,775.2 L1002.5,775.2 L1003.4,775.2 L1004.2,775.2
		L1005.1,775.2 L1006.0,775.2 L1006.9,775.2 L1007.8,775.2 L1008.7,775.2 L1009.5,775.2 L1010.4,775.2 L1011.3,775.2
		L1012.2,775.2 L1013.1,775.2 L1014.0,775.2 L1014.8,775.2 L1015.7,775.2 L1016.6,775.2 L1017.5,775.2 L1018.4,775.2
		L1019.2,775.2 L1020.1,775.2 L1021.0,775.2 L1021.9,775.2 L1022.8,775.2 L1023.7,775.2 L1024.5,775.2 L1025.4,775.2
		L1026.3,775.2 L1027.2,775.2 L1028.1,775.2 L1029.0,775.2 L1029.8,775.2 L1030.7,775.2 L1031.6,775.2 L1032.5,775.2
		L1033.4,775.2 L1034.3,775.2 L1035.1,775.2 L1036.0,775.2 L1036.9,775.2 L1037.8,775.2 L1038.7,775.2 L1039.6,775.2
		L1040.4,775.2 L1041.3,775.2 L1042.2,775.2 L1043.1,775.2 L1044.0,775.2 L1044.8,775.2 L1045.7,775.2 L1046.6,775.2
		L1047.5,775.2 L1048.4,775.2 L1049.3,775.2 L1050.1,775.2 L1051.0,775.2 L1051.9,775.2 L1052.8,775.2 L1053.7,775.2
		L1054.6,775.2 L1055.4,775.2 L1056.3,775.2 L1057.2,775.2 L1058.1,775.2 L1059.0,775.2 L1059.9,775.2 L1060.7,775.2
		L1061.6,775.2 L1062.5,775.2 L1063.4,775.2 L1064.3,775.2 L1065.1,775.2 L1066.0,775.2 L1066.9,775.2 L1067.8,775.2
		L1068.7,775.2 L1069.6,775.2 L1070.4,775.2 L1071.3,775.2 L1072.2,775.2 L1073.1,775.2 L1074.0,775.2 L1074.9,775.2
		L1075.7,775.2 L1076.6,775.2 L1077.5,775.2 L1078.4,775.2 L1079.3,775.2 L1080.2,775.2 L1081.0,775.2 L1081.9,775.2
		L1082.8,775.2 L1083.7,775.2 L1084.6,775.2 L1085.5,775.2 L1086.3,775.2 L1087.2,775.2 L1088.1,775.2 L1089.0,775.2
		L1089.9,775.2 L1090.7,775.2 L1091.6,775.2 L1092.5,775.2 L1093.4,775.2 L1094.3,775.2 L1095.2,775.2 L1096.0,775.2
		L1096.9,775.2 L1097.8,775.2 L1098.7,775.2 L1099.6,775.2 L1100.5,775.2 L1101.3,775.2 L1102.2,775.2 L1103.1,775.2
		L1104.0,775.2 L1104.9,775.2 L1105.8,775.2 L1106.6,775.2 L1107.5,775.2 L1108.4,775.2 L1109.3,775.2 L1110.2,775.2
		L1111.1,775.2 L1111.9,775.2  '/></g>
	</g>
<g fill="none" color="white" stroke="gray" stroke-width="2.00" stroke-linecap="butt" stroke-linejoin="miter">
</g>
<g fill="none" color="black" stroke="currentColor" stroke-width="2.00" stroke-linecap="butt" stroke-linejoin="miter">
</g>
<g fill="none" color="black" stroke="black" stroke-width="1.00" stroke-linecap="butt" stroke-linejoin="miter">
</g>
<g fill="none" color="black" stroke="currentColor" stroke-width="1.00" stroke-linecap="butt" stroke-linejoin="miter">
	<path stroke='black'  d='M230.1,36.5 L230.1,775.2 L1145.3,775.2 L1145.3,36.5 L230.1,36.5 Z  '/></g>
<g fill="none" color="black" stroke="currentColor" stroke-width="1.00" stroke-linecap="butt" stroke-linejoin="miter">
</g>
</g>
</svg>

