T, k=1.330000e-06 A0=0.003342 C0=0.000005 dt=10000000.000000, 0, 0
0.0, 2.231587e-14, 3.342400e-03, 0.000005
10000000.0, 2.330634e-14, 3.342177e-03, 0.000005
20000000.0, 2.434063e-14, 3.341944e-03, 0.000005
30000000.0, 2.542067e-14, 3.341700e-03, 0.000006
40000000.0, 2.654846e-14, 3.341446e-03, 0.000006
50000000.0, 2.772610e-14, 3.341181e-03, 0.000006
60000000.0, 2.895578e-14, 3.340903e-03, 0.000007
70000000.0, 3.023979e-14, 3.340614e-03, 0.000007
80000000.0, 3.158049e-14, 3.340311e-03, 0.000007
90000000.0, 3.298037e-14, 3.339996e-03, 0.000007
100000000.0, 3.444202e-14, 3.339666e-03, 0.000008
110000000.0, 3.596814e-14, 3.339321e-03, 0.000008
120000000.0, 3.756154e-14, 3.338962e-03, 0.000008
130000000.0, 3.922517e-14, 3.338586e-03, 0.000009
140000000.0, 4.096208e-14, 3.338194e-03, 0.000009
150000000.0, 4.277546e-14, 3.337784e-03, 0.000010
160000000.0, 4.466865e-14, 3.337357e-03, 0.000010
170000000.0, 4.664511e-14, 3.336910e-03, 0.000011
180000000.0, 4.870845e-14, 3.336443e-03, 0.000011
190000000.0, 5.086244e-14, 3.335956e-03, 0.000011
200000000.0, 5.311102e-14, 3.335448e-03, 0.000012
210000000.0, 5.545827e-14, 3.334917e-03, 0.000013
220000000.0, 5.790846e-14, 3.334362e-03, 0.000013
230000000.0, 6.046602e-14, 3.333783e-03, 0.000014
240000000.0, 6.313559e-14, 3.333178e-03, 0.000014
250000000.0, 6.592198e-14, 3.332547e-03, 0.000015
260000000.0, 6.883022e-14, 3.331888e-03, 0.000016
270000000.0, 7.186552e-14, 3.331199e-03, 0.000016
280000000.0, 7.503332e-14, 3.330481e-03, 0.000017
290000000.0, 7.833930e-14, 3.329730e-03, 0.000018
300000000.0, 8.178934e-14, 3.328947e-03, 0.000018
310000000.0, 8.538958e-14, 3.328129e-03, 0.000019
320000000.0, 8.914640e-14, 3.327275e-03, 0.000020
330000000.0, 9.306643e-14, 3.326384e-03, 0.000021
340000000.0, 9.715658e-14, 3.325453e-03, 0.000022
350000000.0, 1.014240e-13, 3.324481e-03, 0.000023
360000000.0, 1.058762e-13, 3.323467e-03, 0.000024
370000000.0, 1.105210e-13, 3.322408e-03, 0.000025
380000000.0, 1.153663e-13, 3.321303e-03, 0.000026
390000000.0, 1.204206e-13, 3.320150e-03, 0.000027
400000000.0, 1.256925e-13, 3.318945e-03, 0.000028
410000000.0, 1.311911e-13, 3.317688e-03, 0.000030
420000000.0, 1.369258e-13, 3.316377e-03, 0.000031
430000000.0, 1.429062e-13, 3.315007e-03, 0.000032
440000000.0, 1.491426e-13, 3.313578e-03, 0.000034
450000000.0, 1.556453e-13, 3.312087e-03, 0.000035
460000000.0, 1.624252e-13, 3.310530e-03, 0.000037
470000000.0, 1.694936e-13, 3.308906e-03, 0.000039
480000000.0, 1.768622e-13, 3.307211e-03, 0.000040
490000000.0, 1.845429e-13, 3.305443e-03, 0.000042
500000000.0, 1.925482e-13, 3.303597e-03, 0.000044
510000000.0, 2.008912e-13, 3.301672e-03, 0.000046
520000000.0, 2.095852e-13, 3.299663e-03, 0.000048
530000000.0, 2.186440e-13, 3.297567e-03, 0.000050
540000000.0, 2.280819e-13, 3.295380e-03, 0.000052
550000000.0, 2.379136e-13, 3.293100e-03, 0.000054
560000000.0, 2.481544e-13, 3.290720e-03, 0.000057
570000000.0, 2.588199e-13, 3.288239e-03, 0.000059
580000000.0, 2.699264e-13, 3.285651e-03, 0.000062
590000000.0, 2.814905e-13, 3.282951e-03, 0.000064
600000000.0, 2.935294e-13, 3.280137e-03, 0.000067
610000000.0, 3.060608e-13, 3.277201e-03, 0.000070
620000000.0, 3.191027e-13, 3.274141e-03, 0.000073
630000000.0, 3.326738e-13, 3.270950e-03, 0.000076
640000000.0, 3.467933e-13, 3.267623e-03, 0.000080
650000000.0, 3.614806e-13, 3.264155e-03, 0.000083
660000000.0, 3.767560e-13, 3.260540e-03, 0.000087
670000000.0, 3.926399e-13, 3.256773e-03, 0.000091
680000000.0, 4.091532e-13, 3.252846e-03, 0.000095
690000000.0, 4.263174e-13, 3.248755e-03, 0.000099
700000000.0, 4.441543e-13, 3.244492e-03, 0.000103
710000000.0, 4.626861e-13, 3.240050e-03, 0.000107
720000000.0, 4.819353e-13, 3.235423e-03, 0.000112
730000000.0, 5.019248e-13, 3.230604e-03, 0.000117
740000000.0, 5.226776e-13, 3.225584e-03, 0.000122
750000000.0, 5.442174e-13, 3.220358e-03, 0.000127
760000000.0, 5.665675e-13, 3.214916e-03, 0.000133
770000000.0, 5.897519e-13, 3.209250e-03, 0.000138
780000000.0, 6.137942e-13, 3.203352e-03, 0.000144
790000000.0, 6.387185e-13, 3.197214e-03, 0.000150
800000000.0, 6.645484e-13, 3.190827e-03, 0.000157
810000000.0, 6.913078e-13, 3.184182e-03, 0.000163
820000000.0, 7.190200e-13, 3.177269e-03, 0.000170
830000000.0, 7.477082e-13, 3.170078e-03, 0.000177
840000000.0, 7.773951e-13, 3.162601e-03, 0.000185
850000000.0, 8.081031e-13, 3.154827e-03, 0.000193
860000000.0, 8.398537e-13, 3.146746e-03, 0.000201
870000000.0, 8.726677e-13, 3.138348e-03, 0.000209
880000000.0, 9.065649e-13, 3.129621e-03, 0.000218
890000000.0, 9.415644e-13, 3.120556e-03, 0.000227
900000000.0, 9.776836e-13, 3.111140e-03, 0.000236
910000000.0, 1.014939e-12, 3.101363e-03, 0.000246
920000000.0, 1.053345e-12, 3.091214e-03, 0.000256
930000000.0, 1.092914e-12, 3.080680e-03, 0.000267
940000000.0, 1.133658e-12, 3.069751e-03, 0.000278
950000000.0, 1.175585e-12, 3.058414e-03, 0.000289
960000000.0, 1.218702e-12, 3.046659e-03, 0.000301
970000000.0, 1.263012e-12, 3.034472e-03, 0.000313
980000000.0, 1.308516e-12, 3.021842e-03, 0.000326
990000000.0, 1.355212e-12, 3.008756e-03, 0.000339
1000000000.0, 1.403094e-12, 2.995204e-03, 0.000352
1010000000.0, 1.452154e-12, 2.981173e-03, 0.000366
1020000000.0, 1.502377e-12, 2.966652e-03, 0.000381
1030000000.0, 1.553747e-12, 2.951628e-03, 0.000396
1040000000.0, 1.606242e-12, 2.936091e-03, 0.000411
1050000000.0, 1.659835e-12, 2.920028e-03, 0.000427
1060000000.0, 1.714496e-12, 2.903430e-03, 0.000444
1070000000.0, 1.770187e-12, 2.886285e-03, 0.000461
1080000000.0, 1.826867e-12, 2.868583e-03, 0.000479
1090000000.0, 1.884487e-12, 2.850314e-03, 0.000497
1100000000.0, 1.942995e-12, 2.831469e-03, 0.000516
1110000000.0, 2.002330e-12, 2.812039e-03, 0.000535
1120000000.0, 2.062426e-12, 2.792016e-03, 0.000555
1130000000.0, 2.123212e-12, 2.771392e-03, 0.000576
1140000000.0, 2.184606e-12, 2.750160e-03, 0.000597
1150000000.0, 2.246525e-12, 2.728314e-03, 0.000619
1160000000.0, 2.308874e-12, 2.705848e-03, 0.000642
1170000000.0, 2.371555e-12, 2.682760e-03, 0.000665
1180000000.0, 2.434461e-12, 2.659044e-03, 0.000688
1190000000.0, 2.497480e-12, 2.634700e-03, 0.000713
1200000000.0, 2.560491e-12, 2.609725e-03, 0.000738
1210000000.0, 2.623371e-12, 2.584120e-03, 0.000763
1220000000.0, 2.685985e-12, 2.557886e-03, 0.000790
1230000000.0, 2.748198e-12, 2.531026e-03, 0.000816
1240000000.0, 2.809865e-12, 2.503544e-03, 0.000844
1250000000.0, 2.870838e-12, 2.475446e-03, 0.000872
1260000000.0, 2.930966e-12, 2.446737e-03, 0.000901
1270000000.0, 2.990092e-12, 2.417428e-03, 0.000930
1280000000.0, 3.048055e-12, 2.387527e-03, 0.000960
1290000000.0, 3.104695e-12, 2.357046e-03, 0.000990
1300000000.0, 3.159846e-12, 2.325999e-03, 0.001021
1310000000.0, 3.213344e-12, 2.294401e-03, 0.001053
1320000000.0, 3.265024e-12, 2.262267e-03, 0.001085
1330000000.0, 3.314722e-12, 2.229617e-03, 0.001118
1340000000.0, 3.362276e-12, 2.196470e-03, 0.001151
1350000000.0, 3.407527e-12, 2.162847e-03, 0.001185
1360000000.0, 3.450318e-12, 2.128772e-03, 0.001219
1370000000.0, 3.490499e-12, 2.094269e-03, 0.001253
1380000000.0, 3.527927e-12, 2.059364e-03, 0.001288
1390000000.0, 3.562462e-12, 2.024084e-03, 0.001323
1400000000.0, 3.593976e-12, 1.988460e-03, 0.001359
1410000000.0, 3.622348e-12, 1.952520e-03, 0.001395
1420000000.0, 3.647468e-12, 1.916296e-03, 0.001431
1430000000.0, 3.669235e-12, 1.879822e-03, 0.001468
1440000000.0, 3.687561e-12, 1.843129e-03, 0.001504
1450000000.0, 3.702371e-12, 1.806254e-03, 0.001541
1460000000.0, 3.713601e-12, 1.769230e-03, 0.001578
1470000000.0, 3.721202e-12, 1.732094e-03, 0.001615
1480000000.0, 3.725140e-12, 1.694882e-03, 0.001653
1490000000.0, 3.725392e-12, 1.657631e-03, 0.001690
1500000000.0, 3.721953e-12, 1.620377e-03, 0.001727
1510000000.0, 3.714830e-12, 1.583157e-03, 0.001764
1520000000.0, 3.704047e-12, 1.546009e-03, 0.001801
1530000000.0, 3.689640e-12, 1.508969e-03, 0.001838
1540000000.0, 3.671661e-12, 1.472072e-03, 0.001875
1550000000.0, 3.650175e-12, 1.435355e-03, 0.001912
1560000000.0, 3.625260e-12, 1.398854e-03, 0.001949
1570000000.0, 3.597007e-12, 1.362601e-03, 0.001985
1580000000.0, 3.565519e-12, 1.326631e-03, 0.002021
1590000000.0, 3.530910e-12, 1.290976e-03, 0.002056
1600000000.0, 3.493305e-12, 1.255667e-03, 0.002092
1610000000.0, 3.452837e-12, 1.220734e-03, 0.002127
1620000000.0, 3.409647e-12, 1.186205e-03, 0.002161
1630000000.0, 3.363886e-12, 1.152109e-03, 0.002195
1640000000.0, 3.315708e-12, 1.118470e-03, 0.002229
1650000000.0, 3.265275e-12, 1.085313e-03, 0.002262
1660000000.0, 3.212751e-12, 1.052660e-03, 0.002295
1670000000.0, 3.158304e-12, 1.020533e-03, 0.002327
1680000000.0, 3.102103e-12, 9.889497e-04, 0.002358
1690000000.0, 3.044320e-12, 9.579286e-04, 0.002389
1700000000.0, 2.985124e-12, 9.274854e-04, 0.002420
1710000000.0, 2.924685e-12, 8.976342e-04, 0.002450
1720000000.0, 2.863172e-12, 8.683873e-04, 0.002479
1730000000.0, 2.800748e-12, 8.397556e-04, 0.002508
1740000000.0, 2.737575e-12, 8.117481e-04, 0.002536
1750000000.0, 2.673810e-12, 7.843724e-04, 0.002563
1760000000.0, 2.609607e-12, 7.576343e-04, 0.002590
1770000000.0, 2.545111e-12, 7.315382e-04, 0.002616
1780000000.0, 2.480465e-12, 7.060871e-04, 0.002641
1790000000.0, 2.415802e-12, 6.812825e-04, 0.002666
1800000000.0, 2.351252e-12, 6.571244e-04, 0.002690
1810000000.0, 2.286937e-12, 6.336119e-04, 0.002714
1820000000.0, 2.222969e-12, 6.107426e-04, 0.002737
1830000000.0, 2.159458e-12, 5.885129e-04, 0.002759
1840000000.0, 2.096502e-12, 5.669183e-04, 0.002781
1850000000.0, 2.034195e-12, 5.459533e-04, 0.002801
1860000000.0, 1.972622e-12, 5.256113e-04, 0.002822
1870000000.0, 1.911862e-12, 5.058851e-04, 0.002842
1880000000.0, 1.851985e-12, 4.867665e-04, 0.002861
1890000000.0, 1.793057e-12, 4.682466e-04, 0.002879
1900000000.0, 1.735135e-12, 4.503160e-04, 0.002897
1910000000.0, 1.678269e-12, 4.329647e-04, 0.002914
1920000000.0, 1.622505e-12, 4.161820e-04, 0.002931
1930000000.0, 1.567882e-12, 3.999570e-04, 0.002947
1940000000.0, 1.514432e-12, 3.842782e-04, 0.002963
1950000000.0, 1.462184e-12, 3.691338e-04, 0.002978
1960000000.0, 1.411159e-12, 3.545120e-04, 0.002993
1970000000.0, 1.361376e-12, 3.404004e-04, 0.003007
1980000000.0, 1.312847e-12, 3.267866e-04, 0.003021
1990000000.0, 1.265580e-12, 3.136582e-04, 0.003034
2000000000.0, 1.219582e-12, 3.010024e-04, 0.003046
2010000000.0, 1.174852e-12, 2.888066e-04, 0.003059
2020000000.0, 1.131389e-12, 2.770580e-04, 0.003070
2030000000.0, 1.089187e-12, 2.657441e-04, 0.003082
2040000000.0, 1.048237e-12, 2.548523e-04, 0.003093
2050000000.0, 1.008528e-12, 2.443699e-04, 0.003103
2060000000.0, 9.700485e-13, 2.342846e-04, 0.003113
2070000000.0, 9.327814e-13, 2.245841e-04, 0.003123
2080000000.0, 8.967100e-13, 2.152563e-04, 0.003132
2090000000.0, 8.618153e-13, 2.062892e-04, 0.003141
2100000000.0, 8.280770e-13, 1.976711e-04, 0.003150
2110000000.0, 7.954733e-13, 1.893903e-04, 0.003158
2120000000.0, 7.639815e-13, 1.814356e-04, 0.003166
2130000000.0, 7.335780e-13, 1.737958e-04, 0.003174
2140000000.0, 7.042384e-13, 1.664600e-04, 0.003181
2150000000.0, 6.759375e-13, 1.594176e-04, 0.003188
2160000000.0, 6.486498e-13, 1.526582e-04, 0.003195
2170000000.0, 6.223495e-13, 1.461717e-04, 0.003201
2180000000.0, 5.970104e-13, 1.399482e-04, 0.003207
2190000000.0, 5.726061e-13, 1.339781e-04, 0.003213
2200000000.0, 5.491103e-13, 1.282521e-04, 0.003219
2210000000.0, 5.264968e-13, 1.227610e-04, 0.003225
2220000000.0, 5.047391e-13, 1.174960e-04, 0.003230
2230000000.0, 4.838114e-13, 1.124486e-04, 0.003235
2240000000.0, 4.636878e-13, 1.076105e-04, 0.003240
2250000000.0, 4.443428e-13, 1.029736e-04, 0.003244
2260000000.0, 4.257512e-13, 9.853018e-05, 0.003249
2270000000.0, 4.078882e-13, 9.427266e-05, 0.003253
2280000000.0, 3.907295e-13, 9.019378e-05, 0.003257
2290000000.0, 3.742510e-13, 8.628649e-05, 0.003261
2300000000.0, 3.584295e-13, 8.254398e-05, 0.003265
2310000000.0, 3.432419e-13, 7.895968e-05, 0.003268
2320000000.0, 3.286658e-13, 7.552726e-05, 0.003272
2330000000.0, 3.146793e-13, 7.224061e-05, 0.003275
2340000000.0, 3.012610e-13, 6.909381e-05, 0.003278
2350000000.0, 2.883903e-13, 6.608120e-05, 0.003281
2360000000.0, 2.760468e-13, 6.319730e-05, 0.003284
2370000000.0, 2.642110e-13, 6.043683e-05, 0.003287
2380000000.0, 2.528636e-13, 5.779472e-05, 0.003290
2390000000.0, 2.419861e-13, 5.526609e-05, 0.003292
2400000000.0, 2.315607e-13, 5.284623e-05, 0.003295
2410000000.0, 2.215698e-13, 5.053062e-05, 0.003297
2420000000.0, 2.119967e-13, 4.831492e-05, 0.003299
2430000000.0, 2.028249e-13, 4.619495e-05, 0.003301
2440000000.0, 1.940388e-13, 4.416670e-05, 0.003303
2450000000.0, 1.856230e-13, 4.222632e-05, 0.003305
2460000000.0, 1.775628e-13, 4.037009e-05, 0.003307
2470000000.0, 1.698441e-13, 3.859446e-05, 0.003309
2480000000.0, 1.624531e-13, 3.689602e-05, 0.003311
2490000000.0, 1.553765e-13, 3.527149e-05, 0.003312
2500000000.0, 1.486016e-13, 3.371772e-05, 0.003314
2510000000.0, 1.421161e-13, 3.223171e-05, 0.003315
2520000000.0, 1.359081e-13, 3.081055e-05, 0.003317
2530000000.0, 1.299663e-13, 2.945147e-05, 0.003318
2540000000.0, 1.242797e-13, 2.815180e-05, 0.003319
2550000000.0, 1.188377e-13, 2.690900e-05, 0.003321
2560000000.0, 1.136301e-13, 2.572063e-05, 0.003322
2570000000.0, 1.086473e-13, 2.458433e-05, 0.003323
2580000000.0, 1.038797e-13, 2.349785e-05, 0.003324
2590000000.0, 9.931840e-14, 2.245906e-05, 0.003325
2600000000.0, 9.495470e-14, 2.146587e-05, 0.003326
2610000000.0, 9.078027e-14, 2.051633e-05, 0.003327
2620000000.0, 8.678711e-14, 1.960852e-05, 0.003328
2630000000.0, 8.296756e-14, 1.874065e-05, 0.003329
2640000000.0, 7.931423e-14, 1.791098e-05, 0.003330
2650000000.0, 7.582006e-14, 1.711783e-05, 0.003330
2660000000.0, 7.247825e-14, 1.635963e-05, 0.003331
2670000000.0, 6.928231e-14, 1.563485e-05, 0.003332
2680000000.0, 6.622599e-14, 1.494203e-05, 0.003332
2690000000.0, 6.330330e-14, 1.427977e-05, 0.003333
2700000000.0, 6.050851e-14, 1.364674e-05, 0.003334
2710000000.0, 5.783611e-14, 1.304165e-05, 0.003334
2720000000.0, 5.528082e-14, 1.246329e-05, 0.003335
2730000000.0, 5.283760e-14, 1.191048e-05, 0.003336
2740000000.0, 5.050161e-14, 1.138210e-05, 0.003336
2750000000.0, 4.826819e-14, 1.087709e-05, 0.003337
2760000000.0, 4.613291e-14, 1.039441e-05, 0.003337
2770000000.0, 4.409152e-14, 9.933078e-06, 0.003337
2780000000.0, 4.213992e-14, 9.492162e-06, 0.003338
2790000000.0, 4.027423e-14, 9.070763e-06, 0.003338
2800000000.0, 3.849069e-14, 8.668021e-06, 0.003339
2810000000.0, 3.678574e-14, 8.283114e-06, 0.003339
2820000000.0, 3.515594e-14, 7.915257e-06, 0.003340
2830000000.0, 3.359801e-14, 7.563697e-06, 0.003340
2840000000.0, 3.210881e-14, 7.227717e-06, 0.003340
2850000000.0, 3.068534e-14, 6.906629e-06, 0.003341
2860000000.0, 2.932472e-14, 6.599775e-06, 0.003341
2870000000.0, 2.802420e-14, 6.306528e-06, 0.003341
2880000000.0, 2.678114e-14, 6.026286e-06, 0.003341
2890000000.0, 2.559302e-14, 5.758475e-06, 0.003342
2900000000.0, 2.445744e-14, 5.502545e-06, 0.003342
2910000000.0, 2.337207e-14, 5.257970e-06, 0.003342
2920000000.0, 2.233473e-14, 5.024250e-06, 0.003342
2930000000.0, 2.134329e-14, 4.800902e-06, 0.003343
2940000000.0, 2.039574e-14, 4.587469e-06, 0.003343
2950000000.0, 1.949014e-14, 4.383512e-06, 0.003343
2960000000.0, 1.862465e-14, 4.188611e-06, 0.003343
2970000000.0, 1.779749e-14, 4.002364e-06, 0.003343
2980000000.0, 1.700699e-14, 3.824389e-06, 0.003344
2990000000.0, 1.625152e-14, 3.654319e-06, 0.003344
3000000000.0, 1.552953e-14, 3.491804e-06, 0.003344
3010000000.0, 1.483956e-14, 3.336509e-06, 0.003344
3020000000.0, 1.418018e-14, 3.188113e-06, 0.003344
3030000000.0, 1.355004e-14, 3.046311e-06, 0.003344
3040000000.0, 1.294786e-14, 2.910811e-06, 0.003345
3050000000.0, 1.237239e-14, 2.781332e-06, 0.003345
3060000000.0, 1.182246e-14, 2.657608e-06, 0.003345
3070000000.0, 1.129693e-14, 2.539384e-06, 0.003345
3080000000.0, 1.079473e-14, 2.426414e-06, 0.003345
3090000000.0, 1.031483e-14, 2.318467e-06, 0.003345
3100000000.0, 9.856224e-15, 2.215319e-06, 0.003345
3110000000.0, 9.417986e-15, 2.116757e-06, 0.003345
3120000000.0, 8.999209e-15, 2.022577e-06, 0.003345
3130000000.0, 8.599032e-15, 1.932585e-06, 0.003345
3140000000.0, 8.216629e-15, 1.846594e-06, 0.003346
3150000000.0, 7.851214e-15, 1.764428e-06, 0.003346
3160000000.0, 7.502033e-15, 1.685916e-06, 0.003346
3170000000.0, 7.168366e-15, 1.610896e-06, 0.003346
3180000000.0, 6.849526e-15, 1.539212e-06, 0.003346
3190000000.0, 6.544854e-15, 1.470717e-06, 0.003346
3200000000.0, 6.253723e-15, 1.405268e-06, 0.003346
3210000000.0, 5.975532e-15, 1.342731e-06, 0.003346
3220000000.0, 5.709706e-15, 1.282975e-06, 0.003346
3230000000.0, 5.455696e-15, 1.225878e-06, 0.003346
3240000000.0, 5.212979e-15, 1.171321e-06, 0.003346
3250000000.0, 4.981052e-15, 1.119192e-06, 0.003346
3260000000.0, 4.759437e-15, 1.069381e-06, 0.003346
3270000000.0, 4.547676e-15, 1.021787e-06, 0.003346
3280000000.0, 4.345332e-15, 9.763100e-07, 0.003346
3290000000.0, 4.151985e-15, 9.328567e-07, 0.003346
3300000000.0, 3.967236e-15, 8.913369e-07, 0.003347
3310000000.0, 3.790704e-15, 8.516645e-07, 0.003347
3320000000.0, 3.622023e-15, 8.137575e-07, 0.003347
3330000000.0, 3.460845e-15, 7.775372e-07, 0.003347
3340000000.0, 3.306836e-15, 7.429288e-07, 0.003347
3350000000.0, 3.159677e-15, 7.098604e-07, 0.003347
3360000000.0, 3.019064e-15, 6.782637e-07, 0.003347
3370000000.0, 2.884707e-15, 6.480730e-07, 0.003347
3380000000.0, 2.756326e-15, 6.192259e-07, 0.003347
3390000000.0, 2.633657e-15, 5.916627e-07, 0.003347
3400000000.0, 2.516446e-15, 5.653261e-07, 0.003347
3410000000.0, 2.404449e-15, 5.401616e-07, 0.003347
3420000000.0, 2.297435e-15, 5.161172e-07, 0.003347
3430000000.0, 2.195182e-15, 4.931428e-07, 0.003347
3440000000.0, 2.097479e-15, 4.711910e-07, 0.003347
3450000000.0, 2.004124e-15, 4.502162e-07, 0.003347
3460000000.0, 1.914922e-15, 4.301750e-07, 0.003347
3470000000.0, 1.829690e-15, 4.110257e-07, 0.003347
3480000000.0, 1.748251e-15, 3.927288e-07, 0.003347
3490000000.0, 1.670435e-15, 3.752463e-07, 0.003347
3500000000.0, 1.596083e-15, 3.585420e-07, 0.003347
3510000000.0, 1.525039e-15, 3.425812e-07, 0.003347
3520000000.0, 1.457157e-15, 3.273308e-07, 0.003347
3530000000.0, 1.392295e-15, 3.127592e-07, 0.003347
3540000000.0, 1.330321e-15, 2.988362e-07, 0.003347
3550000000.0, 1.271104e-15, 2.855330e-07, 0.003347
3560000000.0, 1.214523e-15, 2.728220e-07, 0.003347
3570000000.0, 1.160460e-15, 2.606768e-07, 0.003347
3580000000.0, 1.108804e-15, 2.490722e-07, 0.003347
3590000000.0, 1.059446e-15, 2.379841e-07, 0.003347
3600000000.0, 1.012286e-15, 2.273897e-07, 0.003347
3610000000.0, 9.672239e-16, 2.172668e-07, 0.003347
3620000000.0, 9.241679e-16, 2.075946e-07, 0.003347
3630000000.0, 8.830283e-16, 1.983529e-07, 0.003347
3640000000.0, 8.437199e-16, 1.895226e-07, 0.003347
3650000000.0, 8.061610e-16, 1.810854e-07, 0.003347
3660000000.0, 7.702740e-16, 1.730238e-07, 0.003347
3670000000.0, 7.359843e-16, 1.653211e-07, 0.003347
3680000000.0, 7.032210e-16, 1.579612e-07, 0.003347
3690000000.0, 6.719160e-16, 1.509290e-07, 0.003347
3700000000.0, 6.420044e-16, 1.442098e-07, 0.003347
3710000000.0, 6.134244e-16, 1.377898e-07, 0.003347
3720000000.0, 5.861165e-16, 1.316556e-07, 0.003347
3730000000.0, 5.600242e-16, 1.257944e-07, 0.003347
3740000000.0, 5.350934e-16, 1.201941e-07, 0.003347
3750000000.0, 5.112723e-16, 1.148432e-07, 0.003347
3760000000.0, 4.885117e-16, 1.097305e-07, 0.003347
3770000000.0, 4.667642e-16, 1.048454e-07, 0.003347
3780000000.0, 4.459848e-16, 1.001777e-07, 0.003347
3790000000.0, 4.261304e-16, 9.571788e-08, 0.003347
3800000000.0, 4.071598e-16, 9.145658e-08, 0.003347
3810000000.0, 3.890338e-16, 8.738498e-08, 0.003347
3820000000.0, 3.717146e-16, 8.349464e-08, 0.003347
3830000000.0, 3.551664e-16, 7.977750e-08, 0.003347
3840000000.0, 3.393549e-16, 7.622583e-08, 0.003347
3850000000.0, 3.242473e-16, 7.283228e-08, 0.003347
3860000000.0, 3.098122e-16, 6.958981e-08, 0.003347
3870000000.0, 2.960197e-16, 6.649169e-08, 0.003347
3880000000.0, 2.828412e-16, 6.353149e-08, 0.003347
3890000000.0, 2.702494e-16, 6.070308e-08, 0.003347
3900000000.0, 2.582181e-16, 5.800059e-08, 0.003347
3910000000.0, 2.467225e-16, 5.541841e-08, 0.003347
3920000000.0, 2.357386e-16, 5.295118e-08, 0.003347
3930000000.0, 2.252436e-16, 5.059380e-08, 0.003347
3940000000.0, 2.152159e-16, 4.834136e-08, 0.003347
3950000000.0, 2.056346e-16, 4.618920e-08, 0.003347
3960000000.0, 1.964799e-16, 4.413285e-08, 0.003347
3970000000.0, 1.877327e-16, 4.216805e-08, 0.003347
3980000000.0, 1.793749e-16, 4.029073e-08, 0.003347
3990000000.0, 1.713892e-16, 3.849698e-08, 0.003347
4000000000.0, 1.637590e-16, 3.678309e-08, 0.003347
4010000000.0, 1.564685e-16, 3.514550e-08, 0.003347
4020000000.0, 1.495026e-16, 3.358081e-08, 0.003347
4030000000.0, 1.428467e-16, 3.208578e-08, 0.003347
4040000000.0, 1.364872e-16, 3.065732e-08, 0.003347
4050000000.0, 1.304108e-16, 2.929244e-08, 0.003347
4060000000.0, 1.246050e-16, 2.798834e-08, 0.003347
4070000000.0, 1.190575e-16, 2.674229e-08, 0.003347
4080000000.0, 1.137571e-16, 2.555171e-08, 0.003347
4090000000.0, 1.086926e-16, 2.441414e-08, 0.003347
4100000000.0, 1.038536e-16, 2.332721e-08, 0.003347
4110000000.0, 9.923006e-17, 2.228868e-08, 0.003347
4120000000.0, 9.481233e-17, 2.129638e-08, 0.003347
4130000000.0, 9.059127e-17, 2.034825e-08, 0.003347
4140000000.0, 8.655813e-17, 1.944234e-08, 0.003347
4150000000.0, 8.270455e-17, 1.857676e-08, 0.003347
4160000000.0, 7.902253e-17, 1.774971e-08, 0.003347
4170000000.0, 7.550443e-17, 1.695949e-08, 0.003347
4180000000.0, 7.214295e-17, 1.620444e-08, 0.003347
4190000000.0, 6.893113e-17, 1.548302e-08, 0.003347
4200000000.0, 6.586229e-17, 1.479370e-08, 0.003347
4210000000.0, 6.293008e-17, 1.413508e-08, 0.003347
4220000000.0, 6.012842e-17, 1.350578e-08, 0.003347
4230000000.0, 5.745148e-17, 1.290450e-08, 0.003347
4240000000.0, 5.489372e-17, 1.232998e-08, 0.003347
4250000000.0, 5.244983e-17, 1.178104e-08, 0.003347
4260000000.0, 5.011475e-17, 1.125655e-08, 0.003347
4270000000.0, 4.788362e-17, 1.075540e-08, 0.003347
4280000000.0, 4.575182e-17, 1.027656e-08, 0.003347
4290000000.0, 4.371493e-17, 9.819044e-09, 0.003347
4300000000.0, 4.176872e-17, 9.381895e-09, 0.003347
4310000000.0, 3.990916e-17, 8.964207e-09, 0.003347
4320000000.0, 3.813239e-17, 8.565116e-09, 0.003347
4330000000.0, 3.643471e-17, 8.183792e-09, 0.003347
4340000000.0, 3.481262e-17, 7.819445e-09, 0.003347
4350000000.0, 3.326275e-17, 7.471319e-09, 0.003347
4360000000.0, 3.178187e-17, 7.138691e-09, 0.003347
4370000000.0, 3.036693e-17, 6.820872e-09, 0.003347
4380000000.0, 2.901498e-17, 6.517203e-09, 0.003347
4390000000.0, 2.772322e-17, 6.227053e-09, 0.003347
4400000000.0, 2.648896e-17, 5.949821e-09, 0.003347
4410000000.0, 2.530966e-17, 5.684931e-09, 0.003347
4420000000.0, 2.418286e-17, 5.431835e-09, 0.003347
4430000000.0, 2.310623e-17, 5.190006e-09, 0.003347
4440000000.0, 2.207753e-17, 4.958944e-09, 0.003347
4450000000.0, 2.109462e-17, 4.738169e-09, 0.003347
4460000000.0, 2.015548e-17, 4.527222e-09, 0.003347
4470000000.0, 1.925814e-17, 4.325668e-09, 0.003347
4480000000.0, 1.840076e-17, 4.133086e-09, 0.003347
4490000000.0, 1.758155e-17, 3.949079e-09, 0.003347
4500000000.0, 1.679881e-17, 3.773263e-09, 0.003347
4510000000.0, 1.605091e-17, 3.605275e-09, 0.003347
4520000000.0, 1.533632e-17, 3.444766e-09, 0.003347
4530000000.0, 1.465354e-17, 3.291403e-09, 0.003347
4540000000.0, 1.400115e-17, 3.144867e-09, 0.003347
4550000000.0, 1.337781e-17, 3.004856e-09, 0.003347
4560000000.0, 1.278222e-17, 2.871078e-09, 0.003347
4570000000.0, 1.221315e-17, 2.743255e-09, 0.003347
4580000000.0, 1.166941e-17, 2.621124e-09, 0.003347
4590000000.0, 1.114989e-17, 2.504430e-09, 0.003347
4600000000.0, 1.065349e-17, 2.392931e-09, 0.003347
4610000000.0, 1.017919e-17, 2.286396e-09, 0.003347
4620000000.0, 9.726002e-18, 2.184604e-09, 0.003347
4630000000.0, 9.292994e-18, 2.087344e-09, 0.003347
4640000000.0, 8.879264e-18, 1.994414e-09, 0.003347
4650000000.0, 8.483954e-18, 1.905622e-09, 0.003347
4660000000.0, 8.106243e-18, 1.820782e-09, 0.003347
4670000000.0, 7.745347e-18, 1.739720e-09, 0.003347
4680000000.0, 7.400520e-18, 1.662266e-09, 0.003347
4690000000.0, 7.071044e-18, 1.588261e-09, 0.003347
4700000000.0, 6.756236e-18, 1.517551e-09, 0.003347
4710000000.0, 6.455444e-18, 1.449988e-09, 0.003347
4720000000.0, 6.168044e-18, 1.385434e-09, 0.003347
4730000000.0, 5.893438e-18, 1.323753e-09, 0.003347
4740000000.0, 5.631059e-18, 1.264819e-09, 0.003347
4750000000.0, 5.380360e-18, 1.208508e-09, 0.003347
4760000000.0, 5.140823e-18, 1.154705e-09, 0.003347
4770000000.0, 4.911950e-18, 1.103297e-09, 0.003347
4780000000.0, 4.693267e-18, 1.054177e-09, 0.003347
4790000000.0, 4.484320e-18, 1.007244e-09, 0.003347
4800000000.0, 4.284675e-18, 9.624012e-10, 0.003347
4810000000.0, 4.093918e-18, 9.195544e-10, 0.003347
4820000000.0, 3.911654e-18, 8.786153e-10, 0.003347
4830000000.0, 3.737505e-18, 8.394987e-10, 0.003347
4840000000.0, 3.571109e-18, 8.021237e-10, 0.003347
4850000000.0, 3.412121e-18, 7.664126e-10, 0.003347
4860000000.0, 3.260211e-18, 7.322914e-10, 0.003347
4870000000.0, 3.115064e-18, 6.996893e-10, 0.003347
4880000000.0, 2.976379e-18, 6.685386e-10, 0.003347
4890000000.0, 2.843869e-18, 6.387748e-10, 0.003347
4900000000.0, 2.717258e-18, 6.103361e-10, 0.003347
4910000000.0, 2.596284e-18, 5.831636e-10, 0.003347
4920000000.0, 2.480695e-18, 5.572007e-10, 0.003347
4930000000.0, 2.370253e-18, 5.323938e-10, 0.003347
4940000000.0, 2.264728e-18, 5.086912e-10, 0.003347
4950000000.0, 2.163901e-18, 4.860440e-10, 0.003347
4960000000.0, 2.067562e-18, 4.644050e-10, 0.003347
4970000000.0, 1.975513e-18, 4.437293e-10, 0.003347
4980000000.0, 1.887562e-18, 4.239742e-10, 0.003347
4990000000.0, 1.803526e-18, 4.050986e-10, 0.003347
5000000000.0, 1.723232e-18, 3.870633e-10, 0.003347
5010000000.0, 1.646513e-18, 3.698310e-10, 0.003347
5020000000.0, 1.573209e-18, 3.533659e-10, 0.003347
5030000000.0, 1.503169e-18, 3.376338e-10, 0.003347
5040000000.0, 1.436246e-18, 3.226021e-10, 0.003347
5050000000.0, 1.372304e-18, 3.082396e-10, 0.003347
5060000000.0, 1.311208e-18, 2.945166e-10, 0.003347
5070000000.0, 1.252832e-18, 2.814045e-10, 0.003347
5080000000.0, 1.197055e-18, 2.688762e-10, 0.003347
5090000000.0, 1.143761e-18, 2.569056e-10, 0.003347
5100000000.0, 1.092840e-18, 2.454680e-10, 0.003347
5110000000.0, 1.044186e-18, 2.345396e-10, 0.003347
5120000000.0, 9.976985e-19, 2.240978e-10, 0.003347
5130000000.0, 9.532803e-19, 2.141208e-10, 0.003347
5140000000.0, 9.108396e-19, 2.045880e-10, 0.003347
5150000000.0, 8.702884e-19, 1.954796e-10, 0.003347
5160000000.0, 8.315426e-19, 1.867767e-10, 0.003347
5170000000.0, 7.945217e-19, 1.784613e-10, 0.003347
5180000000.0, 7.591491e-19, 1.705160e-10, 0.003347
5190000000.0, 7.253512e-19, 1.629245e-10, 0.003347
5200000000.0, 6.930581e-19, 1.556710e-10, 0.003347
5210000000.0, 6.622027e-19, 1.487405e-10, 0.003347
5220000000.0, 6.327210e-19, 1.421184e-10, 0.003347
5230000000.0, 6.045518e-19, 1.357912e-10, 0.003347
5240000000.0, 5.776367e-19, 1.297457e-10, 0.003347
5250000000.0, 5.519200e-19, 1.239693e-10, 0.003347
5260000000.0, 5.273481e-19, 1.184501e-10, 0.003347
5270000000.0, 5.038702e-19, 1.131767e-10, 0.003347
5280000000.0, 4.814376e-19, 1.081380e-10, 0.003347
5290000000.0, 4.600036e-19, 1.033236e-10, 0.003347
5300000000.0, 4.395240e-19, 9.872354e-11, 0.003347
5310000000.0, 4.199561e-19, 9.432830e-11, 0.003347
5320000000.0, 4.012593e-19, 9.012874e-11, 0.003347
5330000000.0, 3.833950e-19, 8.611615e-11, 0.003347
5340000000.0, 3.663260e-19, 8.228220e-11, 0.003347
5350000000.0, 3.500169e-19, 7.861894e-11, 0.003347
5360000000.0, 3.344339e-19, 7.511877e-11, 0.003347
5370000000.0, 3.195447e-19, 7.177443e-11, 0.003347
5380000000.0, 3.053183e-19, 6.857898e-11, 0.003347
5390000000.0, 2.917253e-19, 6.552580e-11, 0.003347
5400000000.0, 2.787375e-19, 6.260855e-11, 0.003347
5410000000.0, 2.663279e-19, 5.982117e-11, 0.003347
5420000000.0, 2.544708e-19, 5.715789e-11, 0.003347
5430000000.0, 2.431416e-19, 5.461318e-11, 0.003347
5440000000.0, 2.323168e-19, 5.218177e-11, 0.003347
5450000000.0, 2.219739e-19, 4.985860e-11, 0.003347
5460000000.0, 2.120915e-19, 4.763886e-11, 0.003347
5470000000.0, 2.026490e-19, 4.551794e-11, 0.003347
5480000000.0, 1.936269e-19, 4.349145e-11, 0.003347
5490000000.0, 1.850065e-19, 4.155519e-11, 0.003347
5500000000.0, 1.767699e-19, 3.970512e-11, 0.003347
5510000000.0, 1.689000e-19, 3.793742e-11, 0.003347
5520000000.0, 1.613805e-19, 3.624842e-11, 0.003347
5530000000.0, 1.541957e-19, 3.463462e-11, 0.003347
5540000000.0, 1.473308e-19, 3.309266e-11, 0.003347
5550000000.0, 1.407715e-19, 3.161935e-11, 0.003347
5560000000.0, 1.345043e-19, 3.021164e-11, 0.003347
5570000000.0, 1.285161e-19, 2.886659e-11, 0.003347
5580000000.0, 1.227944e-19, 2.758143e-11, 0.003347
5590000000.0, 1.173275e-19, 2.635349e-11, 0.003347
5600000000.0, 1.121040e-19, 2.518021e-11, 0.003347
5610000000.0, 1.071131e-19, 2.405917e-11, 0.003347
5620000000.0, 1.023443e-19, 2.298804e-11, 0.003347
5630000000.0, 9.778790e-20, 2.196460e-11, 0.003347
5640000000.0, 9.343432e-20, 2.098672e-11, 0.003347
5650000000.0, 8.927455e-20, 2.005238e-11, 0.003347
5660000000.0, 8.529999e-20, 1.915963e-11, 0.003347
5670000000.0, 8.150238e-20, 1.830663e-11, 0.003347
5680000000.0, 7.787383e-20, 1.749161e-11, 0.003347
5690000000.0, 7.440684e-20, 1.671287e-11, 0.003347
5700000000.0, 7.109419e-20, 1.596880e-11, 0.003347
5710000000.0, 6.792903e-20, 1.525786e-11, 0.003347
5720000000.0, 6.490478e-20, 1.457857e-11, 0.003347
5730000000.0, 6.201518e-20, 1.392952e-11, 0.003347
5740000000.0, 5.925422e-20, 1.330937e-11, 0.003347
5750000000.0, 5.661618e-20, 1.271683e-11, 0.003347
5760000000.0, 5.409559e-20, 1.215066e-11, 0.003347
5770000000.0, 5.168722e-20, 1.160971e-11, 0.003347
5780000000.0, 4.938607e-20, 1.109284e-11, 0.003347
5790000000.0, 4.718737e-20, 1.059898e-11, 0.003347
5800000000.0, 4.508655e-20, 1.012710e-11, 0.003347
5810000000.0, 4.307927e-20, 9.676237e-12, 0.003347
5820000000.0, 4.116135e-20, 9.245444e-12, 0.003347
5830000000.0, 3.932882e-20, 8.833831e-12, 0.003347
5840000000.0, 3.757787e-20, 8.440543e-12, 0.003347
5850000000.0, 3.590488e-20, 8.064764e-12, 0.003347
5860000000.0, 3.430637e-20, 7.705715e-12, 0.003347
5870000000.0, 3.277903e-20, 7.362651e-12, 0.003347
5880000000.0, 3.131968e-20, 7.034861e-12, 0.003347
5890000000.0, 2.992531e-20, 6.721664e-12, 0.003347
5900000000.0, 2.859301e-20, 6.422411e-12, 0.003347
5910000000.0, 2.732003e-20, 6.136481e-12, 0.003347
5920000000.0, 2.610373e-20, 5.863280e-12, 0.003347
5930000000.0, 2.494157e-20, 5.602243e-12, 0.003347
5940000000.0, 2.383116e-20, 5.352828e-12, 0.003347
5950000000.0, 2.277018e-20, 5.114516e-12, 0.003347
5960000000.0, 2.175643e-20, 4.886814e-12, 0.003347
5970000000.0, 2.078782e-20, 4.669250e-12, 0.003347
5980000000.0, 1.986233e-20, 4.461371e-12, 0.003347
5990000000.0, 1.897805e-20, 4.262748e-12, 0.003347
6000000000.0, 1.813313e-20, 4.072968e-12, 0.003347
6010000000.0, 1.732583e-20, 3.891636e-12, 0.003347
6020000000.0, 1.655447e-20, 3.718378e-12, 0.003347
6030000000.0, 1.581746e-20, 3.552833e-12, 0.003347
6040000000.0, 1.511325e-20, 3.394659e-12, 0.003347
6050000000.0, 1.444040e-20, 3.243526e-12, 0.003347
6060000000.0, 1.379750e-20, 3.099122e-12, 0.003347
6070000000.0, 1.318323e-20, 2.961147e-12, 0.003347
6080000000.0, 1.259630e-20, 2.829314e-12, 0.003347
6090000000.0, 1.203551e-20, 2.703351e-12, 0.003347
6100000000.0, 1.149968e-20, 2.582996e-12, 0.003347
6110000000.0, 1.098770e-20, 2.468000e-12, 0.003347
6120000000.0, 1.049852e-20, 2.358123e-12, 0.003347
6130000000.0, 1.003112e-20, 2.253138e-12, 0.003347
6140000000.0, 9.584531e-21, 2.152827e-12, 0.003347
6150000000.0, 9.157822e-21, 2.056981e-12, 0.003347
6160000000.0, 8.750109e-21, 1.965403e-12, 0.003347
6170000000.0, 8.360548e-21, 1.877902e-12, 0.003347
6180000000.0, 7.988331e-21, 1.794296e-12, 0.003347
6190000000.0, 7.632686e-21, 1.714413e-12, 0.003347
6200000000.0, 7.292873e-21, 1.638086e-12, 0.003347
6210000000.0, 6.968190e-21, 1.565158e-12, 0.003347
6220000000.0, 6.657960e-21, 1.495476e-12, 0.003347
6230000000.0, 6.361543e-21, 1.428896e-12, 0.003347
6240000000.0, 6.078323e-21, 1.365281e-12, 0.003347
6250000000.0, 5.807712e-21, 1.304497e-12, 0.003347
6260000000.0, 5.549148e-21, 1.246420e-12, 0.003347
6270000000.0, 5.302095e-21, 1.190928e-12, 0.003347
6280000000.0, 5.066042e-21, 1.137907e-12, 0.003347
6290000000.0, 4.840498e-21, 1.087247e-12, 0.003347
6300000000.0, 4.624997e-21, 1.038842e-12, 0.003347
6310000000.0, 4.419089e-21, 9.925923e-13, 0.003347
6320000000.0, 4.222349e-21, 9.484015e-13, 0.003347
6330000000.0, 4.034366e-21, 9.061779e-13, 0.003347
6340000000.0, 3.854754e-21, 8.658343e-13, 0.003347
6350000000.0, 3.683137e-21, 8.272866e-13, 0.003347
6360000000.0, 3.519162e-21, 7.904554e-13, 0.003347
6370000000.0, 3.362487e-21, 7.552639e-13, 0.003347
6380000000.0, 3.212786e-21, 7.216389e-13, 0.003347
6390000000.0, 3.069750e-21, 6.895109e-13, 0.003347
6400000000.0, 2.933082e-21, 6.588133e-13, 0.003347
6410000000.0, 2.802500e-21, 6.294826e-13, 0.003347
6420000000.0, 2.677731e-21, 6.014577e-13, 0.003347
6430000000.0, 2.558517e-21, 5.746805e-13, 0.003347
6440000000.0, 2.444611e-21, 5.490955e-13, 0.003347
6450000000.0, 2.335775e-21, 5.246493e-13, 0.003347
6460000000.0, 2.231785e-21, 5.012917e-13, 0.003347
6470000000.0, 2.132425e-21, 4.789741e-13, 0.003347
6480000000.0, 2.037489e-21, 4.576500e-13, 0.003347
6490000000.0, 1.946779e-21, 4.372752e-13, 0.003347
6500000000.0, 1.860107e-21, 4.178073e-13, 0.003347
6510000000.0, 1.777294e-21, 3.992063e-13, 0.003347
6520000000.0, 1.698167e-21, 3.814332e-13, 0.003347
6530000000.0, 1.622563e-21, 3.644515e-13, 0.003347
6540000000.0, 1.550325e-21, 3.482258e-13, 0.003347
6550000000.0, 1.481304e-21, 3.327226e-13, 0.003347
6560000000.0, 1.415354e-21, 3.179093e-13, 0.003347
6570000000.0, 1.352341e-21, 3.037557e-13, 0.003347
6580000000.0, 1.292134e-21, 2.902322e-13, 0.003347
6590000000.0, 1.234606e-21, 2.773107e-13, 0.003347
6600000000.0, 1.179641e-21, 2.649647e-13, 0.003347
6610000000.0, 1.127122e-21, 2.531681e-13, 0.003347
6620000000.0, 1.076941e-21, 2.418968e-13, 0.003347
6630000000.0, 1.028994e-21, 2.311272e-13, 0.003347
6640000000.0, 9.831825e-22, 2.208372e-13, 0.003347
6650000000.0, 9.394099e-22, 2.110053e-13, 0.003347
6660000000.0, 8.975873e-22, 2.016113e-13, 0.003347
6670000000.0, 8.576260e-22, 1.926354e-13, 0.003347
6680000000.0, 8.194430e-22, 1.840589e-13, 0.003347
6690000000.0, 7.829610e-22, 1.758645e-13, 0.003347
6700000000.0, 7.481027e-22, 1.680349e-13, 0.003347
6710000000.0, 7.147968e-22, 1.605539e-13, 0.003347
6720000000.0, 6.829737e-22, 1.534059e-13, 0.003347
6730000000.0, 6.525679e-22, 1.465763e-13, 0.003347
6740000000.0, 6.235155e-22, 1.400507e-13, 0.003347
6750000000.0, 5.957567e-22, 1.338157e-13, 0.003347
6760000000.0, 5.692336e-22, 1.278582e-13, 0.003347
6770000000.0, 5.438902e-22, 1.221657e-13, 0.003347
6780000000.0, 5.196763e-22, 1.167269e-13, 0.003347
6790000000.0, 4.965398e-22, 1.115301e-13, 0.003347
6800000000.0, 4.744344e-22, 1.065649e-13, 0.003347
6810000000.0, 4.533117e-22, 1.018205e-13, 0.003347
6820000000.0, 4.331293e-22, 9.728720e-14, 0.003347
6830000000.0, 4.138466e-22, 9.295602e-14, 0.003347
6840000000.0, 3.954212e-22, 8.881741e-14, 0.003347
6850000000.0, 3.778164e-22, 8.486311e-14, 0.003347
6860000000.0, 3.609954e-22, 8.108488e-14, 0.003347
6870000000.0, 3.449237e-22, 7.747492e-14, 0.003347
6880000000.0, 3.295682e-22, 7.402585e-14, 0.003347
6890000000.0, 3.148962e-22, 7.073031e-14, 0.003347
6900000000.0, 3.008768e-22, 6.758136e-14, 0.003347
6910000000.0, 2.874811e-22, 6.457248e-14, 0.003347
6920000000.0, 2.746820e-22, 6.169761e-14, 0.003347
6930000000.0, 2.624524e-22, 5.895067e-14, 0.003347
6940000000.0, 2.507674e-22, 5.632604e-14, 0.003347
6950000000.0, 2.396036e-22, 5.381849e-14, 0.003347
6960000000.0, 2.289361e-22, 5.142241e-14, 0.003347
6970000000.0, 2.187435e-22, 4.913301e-14, 0.003347
6980000000.0, 2.090047e-22, 4.694552e-14, 0.003347
6990000000.0, 1.997003e-22, 4.485561e-14, 0.003347
7000000000.0, 1.908090e-22, 4.285851e-14, 0.003347
7010000000.0, 1.823136e-22, 4.095032e-14, 0.003347
7020000000.0, 1.741966e-22, 3.912712e-14, 0.003347
7030000000.0, 1.664407e-22, 3.738503e-14, 0.003347
7040000000.0, 1.590304e-22, 3.572056e-14, 0.003347
7050000000.0, 1.519502e-22, 3.413025e-14, 0.003347
7060000000.0, 1.451848e-22, 3.261063e-14, 0.003347
7070000000.0, 1.387205e-22, 3.115867e-14, 0.003347
7080000000.0, 1.325440e-22, 2.977132e-14, 0.003347
7090000000.0, 1.266435e-22, 2.844600e-14, 0.003347
7100000000.0, 1.210057e-22, 2.717965e-14, 0.003347
7110000000.0, 1.156188e-22, 2.596968e-14, 0.003347
7120000000.0, 1.104713e-22, 2.481348e-14, 0.003347
7130000000.0, 1.055536e-22, 2.370890e-14, 0.003347
7140000000.0, 1.008541e-22, 2.265332e-14, 0.003347
7150000000.0, 9.636315e-23, 2.164458e-14, 0.003347
7160000000.0, 9.207296e-23, 2.068094e-14, 0.003347
7170000000.0, 8.797392e-23, 1.976024e-14, 0.003347
7180000000.0, 8.405638e-23, 1.888030e-14, 0.003347
7190000000.0, 8.031453e-23, 1.803982e-14, 0.003347
7200000000.0, 7.673873e-23, 1.723665e-14, 0.003347
7210000000.0, 7.332319e-23, 1.646946e-14, 0.003347
7220000000.0, 7.005824e-23, 1.573611e-14, 0.003347
7230000000.0, 6.694004e-23, 1.503572e-14, 0.003347
7240000000.0, 6.395892e-23, 1.436611e-14, 0.003347
7250000000.0, 6.111102e-23, 1.372643e-14, 0.003347
7260000000.0, 5.839056e-23, 1.311538e-14, 0.003347
7270000000.0, 5.579173e-23, 1.253164e-14, 0.003347
7280000000.0, 5.330875e-23, 1.197393e-14, 0.003347
7290000000.0, 5.093583e-23, 1.144094e-14, 0.003347
7300000000.0, 4.866716e-23, 1.093136e-14, 0.003347
7310000000.0, 4.650083e-23, 1.044477e-14, 0.003347
7320000000.0, 4.443104e-23, 9.979864e-15, 0.003347
7330000000.0, 4.245199e-23, 9.535341e-15, 0.003347
7340000000.0, 4.056176e-23, 9.110768e-15, 0.003347
7350000000.0, 3.875649e-23, 8.705276e-15, 0.003347
7360000000.0, 3.703037e-23, 8.317565e-15, 0.003347
7370000000.0, 3.538149e-23, 7.947202e-15, 0.003347
7380000000.0, 3.380597e-23, 7.593318e-15, 0.003347
7390000000.0, 3.229997e-23, 7.255047e-15, 0.003347
7400000000.0, 3.086154e-23, 6.931955e-15, 0.003347
7410000000.0, 2.948683e-23, 6.623174e-15, 0.003347
7420000000.0, 2.817390e-23, 6.328271e-15, 0.003347
7430000000.0, 2.691889e-23, 6.046379e-15, 0.003347
7440000000.0, 2.571988e-23, 5.777063e-15, 0.003347
7450000000.0, 2.457493e-23, 5.519890e-15, 0.003347
7460000000.0, 2.348018e-23, 5.273993e-15, 0.003347
7470000000.0, 2.243563e-23, 5.039372e-15, 0.003347
7480000000.0, 2.143742e-23, 4.815159e-15, 0.003347
7490000000.0, 2.048361e-23, 4.600920e-15, 0.003347
7500000000.0, 1.957229e-23, 4.396223e-15, 0.003347
7510000000.0, 1.870151e-23, 4.200633e-15, 0.003347
7520000000.0, 1.786934e-23, 4.013716e-15, 0.003347
7530000000.0, 1.707386e-23, 3.835040e-15, 0.003347
7540000000.0, 1.631313e-23, 3.664170e-15, 0.003347
7550000000.0, 1.558716e-23, 3.501106e-15, 0.003347
7560000000.0, 1.489401e-23, 3.345414e-15, 0.003347
7570000000.0, 1.423176e-23, 3.196662e-15, 0.003347
7580000000.0, 1.359846e-23, 3.054414e-15, 0.003347
7590000000.0, 1.299220e-23, 2.918239e-15, 0.003347
7600000000.0, 1.241297e-23, 2.788134e-15, 0.003347
7610000000.0, 1.186076e-23, 2.664102e-15, 0.003347
7620000000.0, 1.133366e-23, 2.545707e-15, 0.003347
7630000000.0, 1.082973e-23, 2.432516e-15, 0.003347
7640000000.0, 1.034703e-23, 2.324096e-15, 0.003347
7650000000.0, 9.885578e-24, 2.220446e-15, 0.003347
7660000000.0, 9.445361e-24, 2.121567e-15, 0.003347
7670000000.0, 9.024452e-24, 2.027024e-15, 0.003347
7680000000.0, 8.622850e-24, 1.936819e-15, 0.003347
7690000000.0, 8.238625e-24, 1.850516e-15, 0.003347
7700000000.0, 7.871778e-24, 1.768117e-15, 0.003347
7710000000.0, 7.520376e-24, 1.689187e-15, 0.003347
7720000000.0, 7.186352e-24, 1.614160e-15, 0.003347
7730000000.0, 6.865843e-24, 1.542169e-15, 0.003347
7740000000.0, 6.560780e-24, 1.473648e-15, 0.003347
7750000000.0, 6.269233e-24, 1.408162e-15, 0.003347
7760000000.0, 5.989270e-24, 1.345278e-15, 0.003347
7770000000.0, 5.722823e-24, 1.285430e-15, 0.003347
7780000000.0, 5.467960e-24, 1.228184e-15, 0.003347
7790000000.0, 5.224683e-24, 1.173540e-15, 0.003347
7800000000.0, 4.992989e-24, 1.121499e-15, 0.003347
7810000000.0, 4.770950e-24, 1.071625e-15, 0.003347
7820000000.0, 4.558564e-24, 1.023921e-15, 0.003347
7830000000.0, 4.355833e-24, 9.783840e-16, 0.003347
7840000000.0, 4.162755e-24, 9.350160e-16, 0.003347
7850000000.0, 3.977401e-24, 8.933826e-16, 0.003347
7860000000.0, 3.799769e-24, 8.534840e-16, 0.003347
7870000000.0, 3.629861e-24, 8.153200e-16, 0.003347
7880000000.0, 3.467675e-24, 7.788908e-16, 0.003347
7890000000.0, 3.313213e-24, 7.441964e-16, 0.003347
7900000000.0, 3.166474e-24, 7.112366e-16, 0.003347
7910000000.0, 3.025528e-24, 6.795779e-16, 0.003347
7920000000.0, 2.890373e-24, 6.492203e-16, 0.003347
7930000000.0, 2.761011e-24, 6.201636e-16, 0.003347
7940000000.0, 2.637441e-24, 5.924081e-16, 0.003347
7950000000.0, 2.519664e-24, 5.659535e-16, 0.003347
7960000000.0, 2.407679e-24, 5.408000e-16, 0.003347
7970000000.0, 2.299555e-24, 5.165139e-16, 0.003347
7980000000.0, 2.197224e-24, 4.935288e-16, 0.003347
7990000000.0, 2.098755e-24, 4.714111e-16, 0.003347
8000000000.0, 2.006077e-24, 4.505944e-16, 0.003347
8010000000.0, 1.917262e-24, 4.306451e-16, 0.003347
8020000000.0, 1.832307e-24, 4.115631e-16, 0.003347
8030000000.0, 1.751215e-24, 3.933485e-16, 0.003347
8040000000.0, 1.673984e-24, 3.760013e-16, 0.003347
8050000000.0, 1.598683e-24, 3.590878e-16, 0.003347
8060000000.0, 1.527245e-24, 3.430416e-16, 0.003347
8070000000.0, 1.459667e-24, 3.278627e-16, 0.003347
8080000000.0, 1.394021e-24, 3.131176e-16, 0.003347
8090000000.0, 1.332236e-24, 2.992398e-16, 0.003347
8100000000.0, 1.272382e-24, 2.857957e-16, 0.003347
8110000000.0, 1.216389e-24, 2.732189e-16, 0.003347
8120000000.0, 1.162328e-24, 2.610759e-16, 0.003347
8130000000.0, 1.110197e-24, 2.493665e-16, 0.003347
8140000000.0, 1.059997e-24, 2.380908e-16, 0.003347
8150000000.0, 1.013658e-24, 2.276825e-16, 0.003347
8160000000.0, 9.692500e-25, 2.177078e-16, 0.003347
8170000000.0, 9.267730e-25, 2.081668e-16, 0.003347
8180000000.0, 8.862266e-25, 1.990595e-16, 0.003347
8190000000.0, 8.476111e-25, 1.903859e-16, 0.003347
8200000000.0, 8.089956e-25, 1.817123e-16, 0.003347
8210000000.0, 7.723108e-25, 1.734723e-16, 0.003347
8220000000.0, 7.375568e-25, 1.656661e-16, 0.003347
8230000000.0, 7.047336e-25, 1.582935e-16, 0.003347
8240000000.0, 6.738412e-25, 1.513546e-16, 0.003347
8250000000.0, 6.429487e-25, 1.444157e-16, 0.003347
8260000000.0, 6.139871e-25, 1.379105e-16, 0.003347
8270000000.0, 5.869562e-25, 1.318390e-16, 0.003347
8280000000.0, 5.599253e-25, 1.257675e-16, 0.003347
8290000000.0, 5.348252e-25, 1.201296e-16, 0.003347
8300000000.0, 5.116559e-25, 1.149254e-16, 0.003347
8310000000.0, 4.884866e-25, 1.097213e-16, 0.003347
8320000000.0, 4.672480e-25, 1.049508e-16, 0.003347
8330000000.0, 4.460095e-25, 1.001803e-16, 0.003347
8340000000.0, 4.267017e-25, 9.584347e-17, 0.003347
8350000000.0, 4.073939e-25, 9.150666e-17, 0.003347
8360000000.0, 3.900169e-25, 8.760354e-17, 0.003347
8370000000.0, 3.726400e-25, 8.370041e-17, 0.003347
8380000000.0, 3.552630e-25, 7.979728e-17, 0.003347
8390000000.0, 3.398167e-25, 7.632783e-17, 0.003347
8400000000.0, 3.243705e-25, 7.285839e-17, 0.003347
8410000000.0, 3.108551e-25, 6.982262e-17, 0.003347
8420000000.0, 2.973397e-25, 6.678685e-17, 0.003347
8430000000.0, 2.838242e-25, 6.375109e-17, 0.003347
8440000000.0, 2.703088e-25, 6.071532e-17, 0.003347
8450000000.0, 2.587241e-25, 5.811324e-17, 0.003347
8460000000.0, 2.471395e-25, 5.551115e-17, 0.003347
8470000000.0, 2.355548e-25, 5.290907e-17, 0.003347
8480000000.0, 2.259009e-25, 5.074066e-17, 0.003347
8490000000.0, 2.162470e-25, 4.857226e-17, 0.003347
8500000000.0, 2.065931e-25, 4.640385e-17, 0.003347
8510000000.0, 1.969393e-25, 4.423545e-17, 0.003347
8520000000.0, 1.872854e-25, 4.206704e-17, 0.003347
8530000000.0, 1.795623e-25, 4.033232e-17, 0.003347
8540000000.0, 1.718392e-25, 3.859760e-17, 0.003347
8550000000.0, 1.641160e-25, 3.686287e-17, 0.003347
8560000000.0, 1.563929e-25, 3.512815e-17, 0.003347
8570000000.0, 1.486698e-25, 3.339343e-17, 0.003347
8580000000.0, 1.428775e-25, 3.209238e-17, 0.003347
8590000000.0, 1.370852e-25, 3.079134e-17, 0.003347
8600000000.0, 1.312928e-25, 2.949030e-17, 0.003347
8610000000.0, 1.255005e-25, 2.818926e-17, 0.003347
8620000000.0, 1.197082e-25, 2.688821e-17, 0.003347
8630000000.0, 1.139158e-25, 2.558717e-17, 0.003347
8640000000.0, 1.081235e-25, 2.428613e-17, 0.003347
8650000000.0, 1.042620e-25, 2.341877e-17, 0.003347
8660000000.0, 1.004004e-25, 2.255141e-17, 0.003347
8670000000.0, 9.653885e-26, 2.168404e-17, 0.003347
8680000000.0, 9.267730e-26, 2.081668e-17, 0.003347
8690000000.0, 8.881574e-26, 1.994932e-17, 0.003347
8700000000.0, 8.495419e-26, 1.908196e-17, 0.003347
8710000000.0, 8.109263e-26, 1.821460e-17, 0.003347
8720000000.0, 7.723108e-26, 1.734723e-17, 0.003347
8730000000.0, 7.336953e-26, 1.647987e-17, 0.003347
8740000000.0, 6.950797e-26, 1.561251e-17, 0.003347
8750000000.0, 6.564642e-26, 1.474515e-17, 0.003347
8760000000.0, 6.178486e-26, 1.387779e-17, 0.003347
8770000000.0, 5.985409e-26, 1.344411e-17, 0.003347
8780000000.0, 5.792331e-26, 1.301043e-17, 0.003347
8790000000.0, 5.599253e-26, 1.257675e-17, 0.003347
8800000000.0, 5.406176e-26, 1.214306e-17, 0.003347
8810000000.0, 5.213098e-26, 1.170938e-17, 0.003347
8820000000.0, 5.020020e-26, 1.127570e-17, 0.003347
8830000000.0, 4.826942e-26, 1.084202e-17, 0.003347
8840000000.0, 4.633865e-26, 1.040834e-17, 0.003347
8850000000.0, 4.440787e-26, 9.974660e-18, 0.003347
8860000000.0, 4.247709e-26, 9.540979e-18, 0.003347
8870000000.0, 4.054632e-26, 9.107298e-18, 0.003347
8880000000.0, 3.861554e-26, 8.673617e-18, 0.003347
8890000000.0, 3.668476e-26, 8.239937e-18, 0.003347
8900000000.0, 3.475399e-26, 7.806256e-18, 0.003347
8910000000.0, 3.282321e-26, 7.372575e-18, 0.003347
8920000000.0, 3.089243e-26, 6.938894e-18, 0.003347
8930000000.0, 2.896165e-26, 6.505213e-18, 0.003347
8940000000.0, 2.703088e-26, 6.071532e-18, 0.003347
8950000000.0, 2.510010e-26, 5.637851e-18, 0.003347
8960000000.0, 2.316932e-26, 5.204170e-18, 0.003347
8970000000.0, 2.123855e-26, 4.770490e-18, 0.003347
8980000000.0, 2.123855e-26, 4.770490e-18, 0.003347
8990000000.0, 2.123855e-26, 4.770490e-18, 0.003347
9000000000.0, 2.123855e-26, 4.770490e-18, 0.003347
9010000000.0, 2.123855e-26, 4.770490e-18, 0.003347
9020000000.0, 2.123855e-26, 4.770490e-18, 0.003347
9030000000.0, 2.123855e-26, 4.770490e-18, 0.003347
9040000000.0, 2.123855e-26, 4.770490e-18, 0.003347
9050000000.0, 2.123855e-26, 4.770490e-18, 0.003347
9060000000.0, 2.123855e-26, 4.770490e-18, 0.003347
9070000000.0, 2.123855e-26, 4.770490e-18, 0.003347
9080000000.0, 2.123855e-26, 4.770490e-18, 0.003347
9090000000.0, 2.123855e-26, 4.770490e-18, 0.003347
9100000000.0, 2.123855e-26, 4.770490e-18, 0.003347
9110000000.0, 2.123855e-26, 4.770490e-18, 0.003347
9120000000.0, 2.123855e-26, 4.770490e-18, 0.003347
9130000000.0, 2.123855e-26, 4.770490e-18, 0.003347
9140000000.0, 2.123855e-26, 4.770490e-18, 0.003347
9150000000.0, 2.123855e-26, 4.770490e-18, 0.003347
9160000000.0, 2.123855e-26, 4.770490e-18, 0.003347
9170000000.0, 2.123855e-26, 4.770490e-18, 0.003347
9180000000.0, 2.123855e-26, 4.770490e-18, 0.003347
9190000000.0, 2.123855e-26, 4.770490e-18, 0.003347
9200000000.0, 2.123855e-26, 4.770490e-18, 0.003347
9210000000.0, 2.123855e-26, 4.770490e-18, 0.003347
9220000000.0, 2.123855e-26, 4.770490e-18, 0.003347
9230000000.0, 2.123855e-26, 4.770490e-18, 0.003347
9240000000.0, 2.123855e-26, 4.770490e-18, 0.003347
9250000000.0, 2.123855e-26, 4.770490e-18, 0.003347
9260000000.0, 2.123855e-26, 4.770490e-18, 0.003347
9270000000.0, 2.123855e-26, 4.770490e-18, 0.003347
9280000000.0, 2.123855e-26, 4.770490e-18, 0.003347
9290000000.0, 2.123855e-26, 4.770490e-18, 0.003347
9300000000.0, 2.123855e-26, 4.770490e-18, 0.003347
9310000000.0, 2.123855e-26, 4.770490e-18, 0.003347
9320000000.0, 2.123855e-26, 4.770490e-18, 0.003347
9330000000.0, 2.123855e-26, 4.770490e-18, 0.003347
9340000000.0, 2.123855e-26, 4.770490e-18, 0.003347
9350000000.0, 2.123855e-26, 4.770490e-18, 0.003347
9360000000.0, 2.123855e-26, 4.770490e-18, 0.003347
9370000000.0, 2.123855e-26, 4.770490e-18, 0.003347
9380000000.0, 2.123855e-26, 4.770490e-18, 0.003347
9390000000.0, 2.123855e-26, 4.770490e-18, 0.003347
9400000000.0, 2.123855e-26, 4.770490e-18, 0.003347
9410000000.0, 2.123855e-26, 4.770490e-18, 0.003347
9420000000.0, 2.123855e-26, 4.770490e-18, 0.003347
9430000000.0, 2.123855e-26, 4.770490e-18, 0.003347
9440000000.0, 2.123855e-26, 4.770490e-18, 0.003347
9450000000.0, 2.123855e-26, 4.770490e-18, 0.003347
9460000000.0, 2.123855e-26, 4.770490e-18, 0.003347
9470000000.0, 2.123855e-26, 4.770490e-18, 0.003347
9480000000.0, 2.123855e-26, 4.770490e-18, 0.003347
9490000000.0, 2.123855e-26, 4.770490e-18, 0.003347
9500000000.0, 2.123855e-26, 4.770490e-18, 0.003347
9510000000.0, 2.123855e-26, 4.770490e-18, 0.003347
9520000000.0, 2.123855e-26, 4.770490e-18, 0.003347
9530000000.0, 2.123855e-26, 4.770490e-18, 0.003347
9540000000.0, 2.123855e-26, 4.770490e-18, 0.003347
9550000000.0, 2.123855e-26, 4.770490e-18, 0.003347
9560000000.0, 2.123855e-26, 4.770490e-18, 0.003347
9570000000.0, 2.123855e-26, 4.770490e-18, 0.003347
9580000000.0, 2.123855e-26, 4.770490e-18, 0.003347
9590000000.0, 2.123855e-26, 4.770490e-18, 0.003347
9600000000.0, 2.123855e-26, 4.770490e-18, 0.003347
9610000000.0, 2.123855e-26, 4.770490e-18, 0.003347
9620000000.0, 2.123855e-26, 4.770490e-18, 0.003347
9630000000.0, 2.123855e-26, 4.770490e-18, 0.003347
9640000000.0, 2.123855e-26, 4.770490e-18, 0.003347
9650000000.0, 2.123855e-26, 4.770490e-18, 0.003347
9660000000.0, 2.123855e-26, 4.770490e-18, 0.003347
9670000000.0, 2.123855e-26, 4.770490e-18, 0.003347
9680000000.0, 2.123855e-26, 4.770490e-18, 0.003347
9690000000.0, 2.123855e-26, 4.770490e-18, 0.003347
9700000000.0, 2.123855e-26, 4.770490e-18, 0.003347
9710000000.0, 2.123855e-26, 4.770490e-18, 0.003347
9720000000.0, 2.123855e-26, 4.770490e-18, 0.003347
9730000000.0, 2.123855e-26, 4.770490e-18, 0.003347
9740000000.0, 2.123855e-26, 4.770490e-18, 0.003347
9750000000.0, 2.123855e-26, 4.770490e-18, 0.003347
9760000000.0, 2.123855e-26, 4.770490e-18, 0.003347
9770000000.0, 2.123855e-26, 4.770490e-18, 0.003347
9780000000.0, 2.123855e-26, 4.770490e-18, 0.003347
9790000000.0, 2.123855e-26, 4.770490e-18, 0.003347
9800000000.0, 2.123855e-26, 4.770490e-18, 0.003347
9810000000.0, 2.123855e-26, 4.770490e-18, 0.003347
9820000000.0, 2.123855e-26, 4.770490e-18, 0.003347
9830000000.0, 2.123855e-26, 4.770490e-18, 0.003347
9840000000.0, 2.123855e-26, 4.770490e-18, 0.003347
9850000000.0, 2.123855e-26, 4.770490e-18, 0.003347
9860000000.0, 2.123855e-26, 4.770490e-18, 0.003347
9870000000.0, 2.123855e-26, 4.770490e-18, 0.003347
9880000000.0, 2.123855e-26, 4.770490e-18, 0.003347
9890000000.0, 2.123855e-26, 4.770490e-18, 0.003347
9900000000.0, 2.123855e-26, 4.770490e-18, 0.003347
9910000000.0, 2.123855e-26, 4.770490e-18, 0.003347
9920000000.0, 2.123855e-26, 4.770490e-18, 0.003347
9930000000.0, 2.123855e-26, 4.770490e-18, 0.003347
9940000000.0, 2.123855e-26, 4.770490e-18, 0.003347
9950000000.0, 2.123855e-26, 4.770490e-18, 0.003347
9960000000.0, 2.123855e-26, 4.770490e-18, 0.003347
9970000000.0, 2.123855e-26, 4.770490e-18, 0.003347
9980000000.0, 2.123855e-26, 4.770490e-18, 0.003347
9990000000.0, 2.123855e-26, 4.770490e-18, 0.003347
