Name; A0; P0; k; dH; C0
Ampoule (3-24-16) NO2-Ph-N2-OTs V2; 3.1123; 17.554; 0.06765; 260.8; 3.20e-5
Ampoule (4-14-16) NO2-Ph-N2-OTs V2 PK1; 3.1123; 11.071; 0.08269; 226.8; 1.90e-5
Ampoule (4-9-16) NO2-Ph-N2-OTs V2 PK1; 3.1123; 11.299; 0.08107; 229.3; 1.95e-5
Ampoule (2-1-16) NO2-Ph-N2-OTs-85 V0; 3.1123; 4.1518; 0.1033; 230.7; 5.60e-6
Ampoule (3-16-16) NO2-Ph-N2-OTs V; 3.1123; 7.0954; 0.08410; 228.0; 1.19e-5
